data/ALL0020/A0020CH2.CSV

Memory Length,4000,
Trigger Level,0.000E+00,
Source,CH2,
Probe,1X,
Vertical Units,V,
Vertical Scale,1.000E-02,
Vertical Position,0.000E+00,
Horizontal Units,s,
Horizontal Scale,1.000E-05,
Horizontal Position,4.000E-06,
Horizontal Mode,Main,
Sampling Period,4.000E-08,
Firmware,V1.13,
Time, ,
Mode,Fast,
Waveform Data,
3,
3,
8,
9,
10,
16,
8,
9,
14,
15,
13,
14,
13,
14,
16,
17,
16,
16,
15,
16,
18,
18,
17,
16,
16,
17,
17,
16,
15,
14,
14,
14,
13,
13,
11,
11,
11,
12,
11,
9,
8,
8,
6,
6,
6,
5,
5,
4,
3,
4,
3,
1,
1,
1,
2,
2,
2,
2,
1,
2,
4,
4,
5,
5,
6,
6,
8,
8,
8,
9,
10,
11,
12,
12,
12,
12,
12,
12,
11,
11,
11,
10,
10,
9,
9,
8,
7,
6,
6,
5,
5,
4,
3,
3,
4,
3,
3,
1,
2,
3,
3,
2,
2,
3,
4,
5,
5,
6,
8,
7,
8,
9,
9,
10,
10,
11,
12,
11,
12,
12,
12,
12,
12,
12,
10,
10,
10,
10,
10,
10,
9,
9,
8,
8,
9,
9,
8,
7,
6,
8,
9,
10,
9,
8,
10,
11,
10,
10,
12,
13,
14,
14,
7,
13,
14,
13,
13,
13,
11,
13,
14,
14,
13,
13,
14,
16,
17,
17,
18,
18,
20,
20,
21,
21,
22,
22,
21,
23,
24,
25,
24,
25,
26,
28,
28,
28,
28,
28,
28,
26,
26,
26,
26,
24,
22,
23,
22,
21,
19,
19,
17,
16,
15,
14,
12,
11,
10,
8,
6,
5,
4,
2,
0,
-3,
-4,
-6,
-6,
-8,
-10,
-11,
-12,
-14,
-15,
-15,
-16,
-18,
-17,
-18,
-18,
-18,
-17,
-17,
-17,
-17,
-16,
-15,
-14,
-12,
-12,
-11,
-9,
-8,
-6,
-4,
-3,
-2,
0,
0,
2,
4,
5,
8,
7,
8,
9,
10,
12,
12,
12,
14,
15,
14,
14,
15,
16,
17,
17,
16,
16,
17,
18,
17,
16,
16,
18,
19,
21,
20,
20,
20,
22,
23,
22,
22,
23,
25,
25,
25,
24,
26,
26,
26,
26,
25,
25,
24,
28,
17,
18,
23,
22,
16,
13,
11,
14,
14,
12,
8,
5,
8,
7,
5,
2,
1,
1,
0,
-2,
-2,
-3,
-6,
-6,
-5,
-6,
-6,
-4,
-4,
-4,
-4,
-2,
0,
0,
2,
2,
4,
5,
8,
10,
10,
12,
12,
13,
15,
15,
16,
16,
17,
17,
17,
16,
18,
18,
16,
16,
16,
16,
17,
14,
14,
15,
15,
15,
14,
14,
14,
16,
16,
16,
16,
17,
16,
17,
17,
17,
18,
18,
18,
20,
20,
20,
20,
20,
20,
20,
20,
20,
20,
21,
19,
18,
17,
17,
18,
18,
17,
16,
15,
14,
13,
13,
13,
13,
11,
9,
8,
8,
6,
4,
2,
0,
-3,
-3,
-3,
-4,
-7,
-10,
-10,
-10,
-11,
-12,
-13,
-13,
-12,
-13,
-13,
-14,
-12,
-12,
-12,
-11,
-11,
-10,
-8,
-7,
-5,
-4,
-3,
-1,
1,
2,
4,
6,
8,
8,
1,
8,
12,
12,
9,
8,
8,
12,
14,
12,
10,
9,
12,
14,
13,
12,
12,
12,
14,
14,
15,
15,
15,
17,
17,
17,
20,
23,
24,
24,
26,
29,
29,
30,
30,
32,
32,
32,
33,
32,
32,
32,
31,
30,
29,
29,
28,
26,
25,
22,
21,
20,
18,
16,
14,
12,
11,
10,
10,
8,
5,
4,
4,
2,
2,
1,
0,
-2,
-2,
-3,
-4,
-5,
-6,
-6,
-4,
-4,
-4,
-4,
-5,
-3,
-4,
-3,
-2,
-2,
-1,
0,
1,
1,
1,
2,
4,
5,
5,
6,
7,
8,
8,
10,
10,
9,
10,
12,
12,
12,
12,
14,
14,
15,
15,
16,
17,
17,
17,
18,
20,
21,
20,
21,
24,
22,
24,
24,
24,
24,
26,
25,
25,
25,
25,
26,
25,
24,
24,
22,
20,
20,
19,
18,
16,
14,
13,
12,
9,
8,
10,
1,
2,
4,
0,
-5,
-4,
-6,
-6,
-6,
-9,
-11,
-11,
-11,
-10,
-11,
-13,
-12,
-11,
-10,
-10,
-9,
-8,
-7,
-6,
-4,
-4,
-1,
1,
1,
3,
5,
8,
10,
10,
12,
13,
14,
16,
16,
16,
17,
18,
19,
19,
18,
17,
18,
18,
18,
18,
19,
18,
16,
16,
17,
17,
16,
17,
16,
16,
16,
14,
15,
15,
16,
15,
14,
13,
13,
12,
12,
12,
11,
8,
9,
8,
8,
6,
5,
4,
4,
4,
4,
3,
2,
2,
2,
2,
2,
2,
2,
0,
1,
2,
2,
1,
2,
1,
2,
3,
4,
3,
4,
4,
4,
5,
6,
6,
6,
8,
9,
10,
11,
12,
14,
14,
15,
16,
17,
18,
19,
21,
24,
24,
26,
26,
26,
27,
28,
30,
31,
30,
30,
32,
32,
31,
30,
30,
30,
31,
31,
29,
28,
27,
28,
26,
20,
24,
22,
17,
14,
14,
13,
13,
10,
7,
6,
5,
4,
4,
1,
-1,
-2,
-2,
-3,
-3,
-4,
-5,
-6,
-6,
-6,
-6,
-5,
-5,
-4,
-4,
-3,
0,
-1,
-2,
0,
0,
0,
0,
0,
2,
2,
1,
2,
2,
4,
3,
2,
4,
4,
4,
4,
4,
4,
5,
5,
5,
4,
4,
5,
5,
5,
4,
4,
4,
5,
5,
4,
4,
4,
4,
5,
6,
6,
6,
5,
8,
9,
9,
10,
10,
11,
11,
13,
14,
17,
16,
16,
18,
19,
20,
20,
20,
21,
21,
21,
22,
21,
21,
21,
20,
20,
20,
18,
18,
16,
16,
14,
12,
13,
12,
10,
9,
8,
8,
5,
4,
4,
3,
2,
1,
1,
0,
0,
1,
0,
-1,
-1,
0,
0,
1,
-1,
-2,
0,
0,
0,
0,
0,
1,
0,
0,
0,
0,
2,
4,
8,
-4,
-2,
6,
6,
2,
2,
2,
6,
10,
9,
8,
9,
12,
13,
13,
14,
15,
17,
17,
18,
20,
19,
20,
20,
22,
23,
24,
25,
25,
26,
25,
27,
28,
28,
28,
28,
27,
26,
26,
26,
26,
26,
25,
24,
24,
22,
22,
20,
18,
18,
16,
14,
14,
13,
13,
11,
9,
8,
7,
6,
5,
4,
3,
1,
0,
-1,
-2,
-3,
-4,
-6,
-6,
-8,
-9,
-8,
-8,
-8,
-10,
-12,
-10,
-10,
-10,
-11,
-11,
-11,
-10,
-10,
-10,
-10,
-7,
-7,
-6,
-6,
-4,
-2,
0,
1,
2,
3,
5,
8,
9,
10,
13,
13,
16,
17,
19,
21,
22,
22,
24,
25,
27,
28,
28,
28,
28,
28,
29,
28,
28,
26,
25,
25,
24,
23,
21,
20,
18,
17,
16,
15,
13,
13,
12,
10,
10,
9,
8,
9,
8,
10,
9,
9,
12,
12,
4,
9,
12,
11,
10,
10,
11,
13,
13,
13,
12,
13,
14,
14,
14,
13,
12,
13,
14,
14,
13,
12,
12,
13,
13,
12,
12,
11,
11,
13,
13,
13,
13,
12,
12,
12,
12,
10,
10,
9,
8,
6,
6,
5,
4,
3,
2,
1,
1,
-1,
-2,
-2,
-2,
-2,
-3,
-3,
-2,
-1,
-2,
-2,
-2,
0,
1,
2,
3,
4,
4,
6,
8,
8,
10,
12,
13,
16,
17,
17,
18,
19,
21,
22,
22,
22,
22,
23,
24,
23,
24,
24,
25,
24,
24,
24,
23,
22,
22,
21,
22,
20,
19,
18,
18,
17,
17,
16,
14,
14,
14,
12,
13,
12,
10,
9,
9,
9,
8,
6,
6,
6,
6,
5,
4,
4,
3,
4,
2,
2,
2,
2,
2,
2,
1,
0,
-1,
0,
0,
0,
-4,
-4,
-4,
-4,
-3,
-4,
-6,
-7,
-3,
-10,
-8,
-4,
-7,
-11,
-10,
-8,
-7,
-5,
-5,
-5,
-4,
-3,
0,
2,
4,
4,
6,
9,
11,
13,
14,
16,
18,
20,
21,
24,
25,
26,
26,
28,
30,
31,
30,
32,
32,
32,
31,
30,
30,
28,
26,
25,
22,
20,
20,
18,
16,
14,
13,
12,
10,
9,
9,
8,
7,
6,
5,
5,
5,
3,
2,
1,
2,
2,
1,
1,
2,
3,
3,
4,
4,
7,
7,
8,
8,
9,
11,
12,
12,
13,
13,
15,
16,
16,
17,
17,
18,
19,
20,
18,
20,
19,
19,
19,
18,
18,
16,
16,
16,
16,
14,
14,
13,
12,
12,
10,
8,
8,
7,
6,
6,
4,
3,
3,
1,
0,
0,
1,
1,
2,
1,
0,
0,
1,
1,
2,
2,
2,
4,
4,
6,
6,
9,
9,
10,
12,
12,
13,
15,
14,
14,
17,
18,
18,
16,
10,
20,
22,
17,
14,
15,
16,
19,
18,
16,
15,
15,
15,
16,
14,
12,
12,
12,
12,
12,
10,
9,
8,
8,
7,
6,
6,
6,
4,
3,
3,
4,
2,
1,
1,
1,
0,
0,
-1,
-2,
-2,
-3,
-3,
-3,
-3,
-4,
-5,
-4,
-3,
-3,
-3,
-4,
-2,
-2,
0,
0,
1,
2,
3,
4,
6,
8,
9,
10,
12,
14,
14,
16,
17,
18,
18,
18,
19,
20,
20,
20,
20,
20,
20,
18,
18,
17,
17,
16,
16,
14,
13,
12,
12,
13,
10,
10,
9,
10,
9,
9,
8,
8,
9,
9,
9,
9,
8,
10,
10,
11,
11,
11,
12,
13,
13,
12,
13,
14,
14,
14,
13,
13,
14,
14,
14,
13,
13,
14,
13,
12,
12,
12,
12,
11,
10,
10,
11,
10,
9,
8,
7,
9,
10,
8,
5,
6,
8,
10,
13,
4,
5,
13,
12,
8,
8,
9,
12,
13,
12,
11,
13,
14,
16,
16,
15,
14,
14,
16,
16,
16,
16,
16,
14,
13,
12,
13,
13,
12,
11,
10,
10,
10,
10,
8,
8,
6,
5,
4,
4,
2,
1,
0,
0,
0,
-2,
-3,
-2,
-2,
-2,
-3,
-2,
-2,
-2,
-1,
-2,
-1,
0,
1,
1,
2,
5,
6,
6,
8,
9,
10,
12,
13,
13,
14,
16,
17,
18,
19,
19,
19,
20,
21,
21,
21,
21,
20,
21,
21,
20,
18,
18,
18,
17,
16,
15,
13,
13,
11,
10,
8,
6,
5,
4,
2,
0,
-2,
-2,
-3,
-4,
-4,
-4,
-4,
-3,
-4,
-2,
0,
0,
1,
2,
4,
7,
9,
10,
12,
13,
15,
17,
18,
20,
21,
20,
22,
23,
24,
22,
22,
22,
21,
21,
20,
17,
16,
17,
18,
16,
12,
10,
13,
12,
5,
8,
9,
6,
3,
3,
1,
3,
3,
1,
0,
0,
1,
1,
0,
0,
-1,
0,
1,
1,
1,
1,
2,
2,
4,
4,
4,
6,
8,
9,
10,
12,
12,
13,
14,
16,
16,
17,
17,
17,
18,
18,
18,
18,
18,
18,
18,
18,
19,
18,
17,
17,
17,
17,
17,
16,
16,
17,
16,
14,
14,
13,
12,
12,
11,
11,
11,
12,
10,
9,
8,
9,
10,
9,
9,
8,
8,
8,
8,
8,
8,
9,
9,
9,
9,
10,
10,
10,
10,
10,
10,
10,
9,
10,
11,
10,
9,
8,
7,
7,
6,
5,
4,
4,
2,
2,
0,
0,
-2,
-2,
-3,
-5,
-5,
-5,
-6,
-6,
-6,
-6,
-4,
-5,
-5,
-4,
-2,
-2,
-1,
1,
2,
3,
5,
6,
9,
12,
12,
12,
14,
16,
18,
20,
19,
18,
20,
22,
21,
22,
25,
17,
18,
22,
22,
17,
15,
15,
18,
20,
17,
14,
13,
14,
16,
14,
12,
10,
10,
10,
10,
9,
8,
9,
8,
8,
8,
8,
8,
8,
8,
9,
9,
10,
10,
10,
12,
12,
10,
12,
12,
13,
13,
13,
14,
16,
16,
17,
18,
18,
18,
18,
18,
20,
21,
20,
19,
18,
17,
18,
18,
17,
14,
13,
12,
12,
10,
9,
8,
6,
4,
4,
4,
2,
0,
0,
0,
-1,
-2,
-2,
-2,
-2,
-2,
-1,
0,
-1,
0,
1,
1,
1,
3,
4,
5,
5,
7,
9,
10,
11,
12,
13,
14,
16,
16,
16,
17,
18,
20,
19,
18,
20,
21,
20,
20,
18,
20,
20,
18,
17,
16,
16,
14,
13,
13,
11,
9,
8,
9,
6,
4,
3,
2,
1,
0,
-1,
-2,
-1,
-3,
-5,
-4,
-2,
-4,
-6,
-6,
-3,
-1,
0,
-2,
-10,
-1,
2,
1,
-2,
0,
1,
3,
5,
4,
2,
5,
6,
8,
8,
8,
8,
8,
8,
9,
10,
10,
11,
13,
12,
12,
13,
14,
15,
16,
16,
17,
18,
18,
18,
18,
19,
20,
20,
20,
18,
19,
19,
19,
18,
17,
16,
16,
17,
17,
14,
13,
13,
13,
13,
13,
11,
10,
10,
10,
9,
9,
9,
9,
8,
8,
7,
6,
6,
5,
4,
4,
3,
3,
2,
2,
1,
1,
1,
0,
-2,
-3,
-2,
-2,
-3,
-3,
-3,
-3,
-2,
-2,
-2,
-2,
0,
1,
2,
2,
4,
6,
8,
9,
10,
12,
14,
15,
17,
18,
19,
21,
24,
25,
26,
28,
28,
30,
31,
30,
30,
30,
30,
31,
29,
28,
26,
26,
24,
23,
22,
21,
20,
18,
17,
14,
12,
11,
12,
11,
8,
3,
1,
4,
3,
-1,
-3,
-3,
0,
-8,
-8,
-4,
-4,
-8,
-8,
-8,
-6,
-4,
-4,
-6,
-4,
-3,
-2,
-1,
-1,
0,
1,
2,
5,
5,
8,
9,
8,
9,
10,
12,
14,
14,
14,
15,
18,
18,
17,
18,
19,
20,
20,
21,
22,
22,
20,
20,
20,
20,
21,
20,
20,
18,
18,
18,
17,
16,
16,
16,
15,
14,
13,
12,
12,
9,
8,
8,
5,
4,
3,
2,
1,
1,
0,
-2,
-2,
-3,
-2,
-3,
-4,
-4,
-3,
-2,
-2,
-1,
0,
1,
4,
6,
8,
8,
10,
13,
15,
17,
18,
19,
20,
22,
24,
26,
26,
26,
26,
26,
26,
26,
25,
24,
23,
22,
22,
20,
19,
17,
16,
15,
14,
13,
12,
10,
9,
9,
8,
6,
6,
6,
5,
4,
4,
2,
1,
2,
2,
3,
2,
2,
4,
3,
3,
5,
5,
4,
2,
4,
6,
7,
6,
8,
7,
1,
8,
9,
6,
2,
2,
3,
5,
6,
4,
3,
3,
4,
6,
5,
5,
4,
5,
5,
5,
5,
6,
5,
5,
4,
6,
6,
7,
8,
9,
9,
12,
11,
12,
13,
14,
13,
14,
16,
17,
18,
18,
18,
20,
21,
21,
21,
22,
22,
24,
22,
21,
22,
23,
22,
22,
20,
20,
18,
17,
16,
13,
13,
10,
9,
8,
5,
4,
1,
0,
-2,
-3,
-5,
-6,
-6,
-7,
-8,
-8,
-7,
-8,
-6,
-7,
-6,
-4,
-3,
-3,
-2,
-1,
1,
1,
2,
2,
3,
4,
5,
6,
6,
6,
6,
8,
9,
9,
9,
11,
10,
12,
12,
13,
13,
13,
13,
13,
13,
13,
13,
12,
12,
14,
13,
12,
12,
13,
13,
14,
14,
14,
14,
16,
16,
16,
15,
16,
17,
18,
19,
18,
17,
19,
20,
20,
20,
20,
20,
22,
24,
17,
18,
24,
24,
17,
16,
17,
18,
19,
17,
14,
14,
15,
16,
13,
11,
10,
9,
8,
6,
5,
4,
4,
4,
1,
-2,
-2,
-2,
-2,
-2,
-4,
-3,
-2,
-3,
-4,
-2,
-3,
-2,
-2,
-2,
0,
0,
0,
2,
2,
2,
3,
4,
4,
6,
8,
9,
9,
10,
12,
12,
14,
14,
16,
16,
16,
16,
17,
18,
19,
18,
17,
18,
18,
17,
16,
16,
15,
14,
14,
14,
13,
12,
12,
10,
11,
10,
9,
10,
10,
10,
9,
10,
10,
9,
9,
10,
9,
9,
9,
9,
9,
9,
9,
9,
9,
8,
8,
8,
8,
6,
6,
6,
8,
8,
7,
8,
8,
8,
9,
9,
8,
8,
9,
9,
9,
9,
9,
9,
9,
9,
8,
8,
8,
8,
8,
6,
6,
9,
9,
6,
4,
3,
5,
5,
5,
4,
3,
4,
5,
6,
-2,
5,
8,
5,
2,
2,
1,
4,
6,
4,
2,
1,
4,
5,
5,
4,
3,
3,
4,
5,
6,
6,
5,
6,
8,
8,
9,
10,
10,
12,
13,
14,
14,
15,
16,
16,
17,
17,
17,
16,
17,
17,
17,
16,
15,
16,
15,
14,
13,
12,
11,
10,
9,
9,
9,
8,
6,
8,
6,
5,
6,
6,
5,
5,
6,
8,
8,
9,
10,
10,
10,
11,
12,
14,
14,
14,
14,
14,
16,
17,
17,
17,
18,
18,
18,
18,
19,
20,
19,
18,
18,
18,
16,
14,
14,
14,
13,
12,
11,
10,
9,
8,
5,
6,
5,
4,
2,
1,
0,
0,
0,
-2,
-3,
-2,
-3,
-2,
-3,
-4,
-4,
-3,
-3,
-3,
-2,
-2,
-2,
-1,
-2,
0,
0,
0,
2,
3,
3,
2,
4,
6,
8,
9,
8,
9,
11,
13,
13,
13,
16,
9,
11,
17,
17,
12,
11,
10,
14,
17,
15,
12,
13,
14,
16,
15,
14,
14,
15,
16,
17,
17,
17,
17,
18,
19,
18,
19,
20,
21,
21,
22,
22,
24,
22,
21,
22,
22,
21,
20,
19,
17,
14,
13,
13,
13,
10,
8,
6,
5,
4,
4,
1,
1,
0,
0,
0,
-1,
-2,
-1,
0,
0,
0,
-1,
0,
2,
2,
2,
2,
3,
4,
5,
5,
5,
6,
6,
6,
6,
7,
7,
8,
8,
8,
9,
9,
9,
9,
9,
10,
11,
12,
10,
10,
11,
12,
12,
11,
11,
12,
12,
12,
12,
11,
11,
12,
12,
12,
11,
10,
10,
10,
9,
9,
9,
8,
8,
8,
7,
6,
4,
5,
7,
6,
5,
4,
4,
6,
6,
6,
5,
6,
6,
6,
5,
9,
10,
8,
6,
8,
10,
12,
10,
9,
10,
12,
14,
14,
6,
12,
15,
13,
10,
10,
12,
14,
14,
13,
12,
12,
13,
14,
13,
12,
10,
10,
11,
12,
12,
12,
10,
8,
9,
9,
10,
9,
9,
9,
9,
10,
11,
12,
13,
14,
14,
14,
16,
16,
16,
17,
17,
17,
18,
18,
17,
17,
18,
18,
18,
17,
16,
16,
17,
16,
16,
16,
16,
15,
14,
13,
13,
13,
12,
10,
11,
10,
10,
9,
7,
6,
6,
6,
6,
5,
5,
5,
4,
5,
4,
5,
6,
6,
6,
6,
5,
6,
7,
8,
8,
9,
9,
10,
10,
11,
12,
12,
12,
14,
13,
14,
14,
13,
13,
12,
13,
13,
13,
11,
11,
12,
11,
11,
10,
9,
10,
8,
7,
5,
4,
4,
4,
4,
2,
1,
-2,
-3,
-2,
0,
-2,
-5,
-7,
-6,
-5,
-6,
-7,
-8,
-7,
-8,
-6,
-7,
-7,
-6,
-2,
-10,
-8,
-2,
-2,
-4,
-3,
-3,
1,
3,
3,
3,
4,
8,
10,
12,
12,
13,
17,
19,
21,
22,
24,
27,
29,
30,
30,
32,
34,
35,
36,
36,
36,
37,
36,
37,
36,
34,
33,
31,
29,
27,
24,
22,
20,
17,
15,
13,
10,
9,
6,
5,
2,
1,
0,
-1,
-2,
-2,
-3,
-3,
-3,
-4,
-4,
-3,
-3,
-3,
-3,
-1,
0,
0,
1,
0,
0,
1,
4,
4,
4,
4,
5,
6,
7,
8,
6,
8,
9,
8,
8,
8,
8,
8,
8,
7,
6,
6,
6,
6,
4,
3,
2,
2,
1,
2,
1,
0,
1,
1,
1,
0,
0,
0,
1,
2,
0,
0,
2,
3,
2,
2,
5,
8,
10,
11,
10,
11,
13,
16,
17,
17,
18,
20,
21,
24,
25,
23,
24,
25,
27,
28,
28,
28,
28,
28,
26,
26,
26,
25,
23,
15,
21,
21,
16,
12,
12,
10,
12,
10,
8,
5,
4,
5,
5,
4,
2,
3,
4,
5,
5,
4,
5,
6,
6,
8,
8,
9,
9,
10,
10,
11,
13,
13,
13,
14,
16,
14,
14,
14,
13,
13,
13,
13,
10,
9,
9,
9,
6,
5,
4,
4,
2,
1,
0,
-1,
-2,
-3,
-3,
-3,
-2,
-4,
-4,
-5,
-4,
-3,
-4,
-5,
-5,
-3,
-2,
-1,
0,
0,
2,
3,
5,
6,
8,
9,
10,
10,
11,
13,
14,
14,
15,
16,
17,
17,
18,
19,
20,
20,
21,
20,
22,
21,
22,
21,
21,
21,
21,
23,
22,
21,
21,
21,
21,
21,
21,
19,
19,
17,
17,
18,
17,
17,
16,
15,
15,
14,
15,
13,
14,
15,
13,
12,
12,
13,
14,
12,
10,
11,
12,
11,
11,
10,
10,
10,
10,
10,
9,
10,
9,
11,
4,
4,
9,
8,
4,
1,
1,
2,
3,
1,
-2,
-3,
-3,
-2,
-4,
-4,
-6,
-6,
-6,
-6,
-7,
-6,
-6,
-6,
-4,
-3,
0,
0,
2,
5,
8,
10,
13,
14,
16,
20,
22,
22,
24,
26,
26,
28,
28,
28,
28,
28,
27,
27,
26,
26,
23,
22,
21,
21,
18,
18,
17,
16,
14,
13,
12,
11,
10,
9,
6,
7,
6,
4,
2,
4,
4,
4,
3,
1,
0,
0,
0,
0,
0,
-2,
-2,
-2,
-2,
-3,
-4,
-4,
-3,
-3,
-4,
-4,
-4,
-4,
-3,
-3,
-3,
-3,
-4,
-4,
-3,
-2,
0,
-1,
0,
0,
2,
4,
4,
6,
8,
10,
12,
12,
14,
17,
18,
20,
22,
23,
26,
28,
28,
29,
29,
30,
32,
31,
30,
30,
30,
29,
26,
24,
24,
24,
22,
20,
16,
16,
14,
12,
10,
6,
5,
5,
5,
2,
-6,
0,
2,
-2,
-4,
-3,
-3,
0,
0,
-2,
-2,
0,
3,
4,
4,
6,
6,
10,
12,
12,
14,
14,
14,
14,
16,
16,
17,
17,
17,
17,
18,
18,
19,
18,
18,
17,
16,
16,
16,
15,
14,
12,
12,
12,
11,
10,
9,
9,
9,
9,
8,
8,
8,
6,
8,
8,
8,
7,
8,
8,
8,
8,
9,
9,
9,
9,
9,
10,
10,
10,
10,
10,
12,
10,
10,
10,
10,
9,
8,
7,
5,
5,
5,
4,
3,
1,
0,
0,
-1,
-3,
-4,
-6,
-6,
-7,
-7,
-7,
-8,
-10,
-10,
-8,
-8,
-7,
-7,
-6,
-4,
-3,
-2,
0,
2,
4,
5,
6,
9,
10,
12,
13,
14,
17,
18,
18,
19,
22,
23,
22,
22,
24,
27,
28,
28,
27,
28,
28,
29,
29,
29,
28,
28,
28,
28,
27,
26,
26,
25,
25,
28,
19,
19,
22,
21,
16,
14,
13,
13,
14,
12,
9,
8,
8,
9,
5,
4,
2,
2,
1,
1,
1,
0,
2,
0,
-2,
-2,
0,
2,
1,
0,
0,
2,
4,
5,
5,
6,
6,
7,
8,
8,
8,
8,
8,
9,
9,
10,
9,
8,
8,
8,
8,
8,
5,
5,
6,
5,
5,
4,
3,
3,
2,
2,
2,
1,
1,
0,
0,
0,
0,
0,
0,
-1,
-1,
0,
1,
-1,
-1,
1,
1,
2,
2,
2,
5,
6,
8,
9,
9,
10,
12,
14,
16,
16,
16,
17,
20,
20,
21,
22,
24,
24,
24,
25,
25,
24,
24,
24,
24,
25,
26,
25,
24,
23,
24,
23,
22,
22,
21,
21,
22,
22,
21,
21,
21,
22,
22,
21,
21,
20,
18,
16,
16,
16,
14,
12,
10,
9,
8,
6,
5,
4,
1,
0,
0,
-2,
-1,
-3,
-11,
-6,
-6,
-10,
-12,
-13,
-12,
-11,
-11,
-14,
-13,
-12,
-11,
-11,
-11,
-12,
-10,
-8,
-7,
-8,
-7,
-5,
-3,
-2,
-2,
-2,
0,
1,
2,
4,
5,
8,
8,
9,
11,
12,
12,
12,
14,
14,
15,
16,
17,
18,
20,
20,
21,
22,
24,
26,
26,
27,
28,
29,
30,
30,
32,
33,
32,
32,
33,
33,
33,
33,
34,
32,
32,
30,
29,
28,
26,
26,
24,
22,
21,
18,
17,
16,
14,
12,
11,
9,
8,
6,
4,
3,
1,
0,
0,
-2,
-3,
-4,
-5,
-6,
-6,
-6,
-6,
-6,
-6,
-7,
-7,
-5,
-4,
-4,
-4,
-4,
-2,
0,
1,
1,
1,
2,
3,
5,
5,
7,
9,
10,
9,
9,
10,
10,
9,
9,
9,
10,
11,
8,
6,
5,
6,
8,
5,
4,
3,
4,
5,
4,
4,
5,
6,
6,
6,
8,
12,
6,
9,
16,
15,
12,
14,
15,
19,
21,
19,
20,
21,
22,
24,
24,
23,
24,
22,
22,
22,
21,
20,
20,
18,
18,
16,
16,
16,
15,
14,
14,
14,
14,
13,
14,
13,
13,
13,
13,
13,
13,
13,
14,
13,
12,
12,
12,
12,
10,
9,
8,
7,
8,
6,
5,
4,
4,
4,
3,
2,
1,
0,
1,
1,
0,
1,
0,
-1,
0,
1,
0,
0,
0,
0,
0,
1,
2,
2,
3,
4,
5,
4,
5,
6,
6,
6,
8,
6,
8,
7,
7,
6,
6,
6,
6,
6,
5,
5,
5,
5,
5,
5,
5,
6,
6,
7,
6,
8,
8,
9,
8,
10,
11,
12,
13,
14,
15,
16,
18,
18,
18,
18,
19,
20,
18,
19,
21,
21,
18,
15,
14,
16,
17,
17,
14,
12,
13,
14,
14,
12,
12,
11,
12,
13,
15,
14,
8,
13,
16,
14,
12,
12,
13,
15,
16,
14,
15,
14,
16,
17,
17,
16,
14,
14,
16,
16,
15,
13,
13,
13,
13,
12,
10,
12,
10,
9,
9,
9,
7,
6,
5,
6,
5,
4,
3,
2,
2,
1,
1,
1,
1,
1,
1,
1,
1,
1,
0,
0,
1,
2,
2,
2,
2,
1,
1,
2,
1,
0,
1,
2,
4,
