data/ALL0008/A0008CH2.CSV

Memory Length,4000,
Trigger Level,0.000E+00,
Source,CH2,
Probe,1X,
Vertical Units,V,
Vertical Scale,1.000E-02,
Vertical Position,0.000E+00,
Horizontal Units,s,
Horizontal Scale,2.500E-05,
Horizontal Position,4.000E-06,
Horizontal Mode,Main,
Sampling Period,1.000E-07,
Firmware,V1.13,
Time, ,
Mode,Fast,
Waveform Data,
9,
9,
1,
2,
5,
6,
8,
10,
13,
15,
15,
17,
18,
19,
18,
17,
16,
15,
13,
10,
8,
6,
4,
2,
1,
-1,
0,
0,
1,
1,
5,
10,
10,
6,
9,
12,
12,
14,
14,
18,
18,
19,
18,
19,
20,
19,
18,
18,
17,
16,
16,
13,
10,
9,
4,
4,
-2,
-2,
-4,
-5,
-6,
-6,
-6,
-4,
-3,
-1,
1,
6,
9,
13,
17,
20,
24,
26,
26,
28,
28,
26,
24,
21,
16,
14,
8,
5,
2,
-2,
-2,
-4,
-4,
-2,
-7,
-2,
-4,
3,
2,
8,
8,
12,
12,
14,
15,
15,
18,
17,
18,
17,
17,
17,
17,
17,
15,
16,
14,
15,
13,
13,
12,
10,
9,
6,
5,
4,
2,
1,
0,
0,
0,
1,
0,
2,
3,
6,
8,
10,
13,
14,
16,
17,
17,
17,
16,
15,
13,
13,
13,
12,
11,
12,
3,
12,
6,
10,
9,
11,
10,
12,
12,
12,
12,
12,
12,
10,
15,
8,
10,
6,
6,
2,
3,
2,
3,
4,
4,
5,
5,
6,
8,
8,
10,
10,
12,
12,
13,
14,
14,
16,
16,
16,
17,
16,
15,
14,
14,
12,
12,
9,
9,
6,
6,
5,
5,
5,
5,
5,
6,
5,
0,
8,
3,
5,
4,
6,
6,
7,
8,
8,
10,
14,
13,
18,
18,
19,
20,
18,
19,
16,
16,
13,
12,
9,
8,
6,
5,
2,
2,
0,
1,
1,
1,
2,
2,
4,
8,
8,
9,
9,
10,
12,
12,
12,
11,
12,
13,
14,
13,
15,
15,
16,
17,
16,
17,
17,
18,
18,
17,
18,
11,
13,
8,
8,
4,
2,
-1,
-2,
-4,
-5,
-4,
-3,
-1,
0,
2,
5,
10,
12,
16,
19,
21,
23,
24,
21,
21,
20,
18,
14,
12,
8,
6,
4,
2,
0,
0,
0,
0,
0,
2,
1,
3,
4,
5,
8,
10,
13,
15,
17,
20,
21,
22,
22,
20,
20,
17,
16,
17,
13,
4,
3,
0,
-2,
-1,
-3,
-1,
-1,
0,
2,
3,
8,
8,
11,
12,
14,
14,
16,
16,
16,
15,
16,
16,
15,
16,
15,
16,
15,
15,
13,
13,
12,
10,
8,
6,
5,
2,
2,
1,
1,
2,
2,
5,
8,
10,
13,
16,
18,
20,
21,
20,
21,
20,
16,
21,
10,
18,
6,
5,
1,
2,
-2,
0,
-1,
0,
2,
4,
8,
11,
15,
17,
21,
22,
23,
22,
21,
21,
17,
14,
10,
8,
5,
2,
1,
1,
1,
2,
4,
6,
8,
9,
10,
12,
13,
14,
13,
13,
12,
12,
10,
9,
8,
6,
7,
6,
5,
6,
8,
8,
10,
9,
12,
12,
13,
15,
9,
12,
9,
11,
8,
9,
6,
8,
8,
8,
6,
8,
11,
12,
13,
14,
14,
15,
15,
14,
14,
13,
12,
10,
8,
6,
5,
4,
3,
2,
1,
1,
2,
4,
6,
8,
11,
12,
17,
16,
20,
21,
22,
22,
22,
20,
17,
20,
11,
11,
6,
5,
2,
0,
-1,
-2,
-1,
-2,
-8,
1,
-3,
1,
0,
3,
4,
6,
10,
10,
13,
16,
19,
22,
24,
23,
24,
20,
21,
17,
16,
13,
12,
9,
9,
6,
6,
5,
6,
6,
8,
8,
8,
9,
11,
10,
11,
9,
11,
9,
10,
7,
8,
8,
8,
8,
7,
5,
8,
6,
8,
6,
8,
6,
8,
8,
8,
7,
5,
11,
6,
9,
9,
12,
13,
16,
18,
20,
21,
22,
22,
22,
20,
17,
13,
8,
3,
-1,
-4,
-6,
-10,
-10,
-8,
-6,
-2,
1,
5,
9,
14,
18,
22,
24,
26,
27,
26,
25,
21,
24,
14,
18,
11,
9,
4,
5,
2,
2,
1,
2,
3,
4,
6,
8,
8,
10,
11,
12,
14,
12,
5,
6,
5,
5,
4,
4,
5,
8,
8,
11,
12,
15,
16,
17,
15,
17,
15,
15,
13,
12,
12,
10,
9,
8,
6,
6,
5,
5,
3,
2,
2,
3,
3,
2,
5,
5,
8,
8,
10,
10,
13,
13,
15,
16,
16,
16,
16,
16,
14,
14,
13,
11,
8,
8,
6,
4,
8,
1,
0,
-1,
1,
0,
3,
4,
5,
6,
7,
8,
10,
12,
14,
14,
16,
17,
18,
18,
19,
18,
18,
21,
18,
20,
17,
16,
13,
10,
5,
10,
-2,
2,
-4,
-4,
-4,
-5,
-3,
-2,
0,
4,
6,
9,
12,
13,
16,
17,
20,
19,
18,
19,
17,
16,
14,
12,
9,
6,
7,
-1,
2,
0,
1,
1,
4,
6,
9,
13,
16,
20,
20,
22,
20,
22,
18,
16,
11,
10,
6,
5,
2,
2,
1,
3,
4,
6,
8,
13,
12,
15,
14,
16,
17,
16,
14,
14,
11,
9,
6,
6,
4,
3,
2,
5,
4,
6,
8,
9,
11,
12,
12,
13,
12,
12,
9,
8,
5,
-3,
4,
-2,
0,
0,
1,
4,
8,
10,
14,
17,
20,
24,
25,
28,
27,
28,
23,
21,
17,
14,
10,
6,
8,
-1,
0,
-4,
-4,
-5,
-4,
-4,
-2,
0,
2,
6,
9,
12,
16,
16,
18,
18,
20,
18,
18,
17,
16,
15,
13,
11,
10,
10,
9,
8,
6,
6,
8,
6,
8,
4,
10,
4,
6,
5,
5,
5,
4,
4,
2,
2,
2,
5,
6,
8,
10,
12,
14,
16,
18,
18,
19,
19,
19,
19,
17,
16,
15,
11,
10,
9,
7,
4,
4,
2,
1,
0,
0,
-2,
1,
1,
3,
5,
5,
8,
9,
10,
10,
10,
10,
10,
10,
10,
11,
12,
12,
14,
15,
20,
17,
16,
18,
20,
20,
21,
20,
19,
17,
14,
10,
8,
6,
0,
5,
-8,
-3,
-9,
-6,
-8,
-6,
-3,
0,
2,
5,
10,
13,
17,
21,
24,
26,
27,
27,
26,
24,
22,
19,
17,
13,
11,
8,
6,
4,
1,
0,
-2,
-2,
-2,
0,
-1,
0,
1,
3,
4,
6,
6,
9,
14,
11,
11,
13,
13,
13,
13,
13,
13,
13,
14,
13,
14,
17,
17,
18,
18,
18,
18,
16,
14,
13,
9,
6,
2,
1,
-2,
-4,
-6,
-6,
-6,
-3,
-1,
1,
5,
8,
9,
12,
12,
14,
12,
13,
12,
12,
12,
12,
11,
12,
12,
13,
14,
16,
16,
16,
18,
17,
18,
18,
17,
10,
11,
5,
4,
-2,
-3,
-8,
-9,
-9,
-10,
-9,
-7,
-3,
1,
5,
9,
14,
17,
22,
25,
28,
29,
29,
28,
26,
25,
23,
20,
17,
14,
11,
8,
5,
2,
2,
0,
-1,
-2,
-2,
-1,
-1,
0,
0,
1,
2,
3,
4,
5,
6,
6,
8,
9,
11,
12,
14,
14,
16,
18,
12,
22,
16,
19,
13,
16,
13,
12,
10,
9,
8,
6,
5,
5,
5,
3,
2,
2,
0,
0,
0,
-1,
1,
2,
4,
6,
10,
11,
14,
16,
17,
18,
19,
20,
20,
21,
20,
20,
18,
18,
16,
14,
13,
11,
10,
8,
5,
3,
2,
-1,
-1,
-4,
-4,
-6,
-5,
-6,
-8,
1,
-11,
2,
-6,
2,
1,
7,
12,
14,
20,
24,
26,
30,
32,
33,
34,
33,
31,
26,
22,
18,
13,
8,
4,
-2,
-4,
-8,
-10,
-10,
-10,
-8,
-6,
-4,
0,
2,
8,
10,
13,
16,
18,
18,
20,
21,
21,
19,
20,
20,
18,
17,
14,
15,
14,
14,
13,
13,
13,
14,
13,
12,
12,
11,
4,
4,
1,
1,
0,
-2,
-2,
-2,
-1,
1,
3,
7,
10,
14,
16,
20,
20,
19,
18,
16,
14,
11,
8,
8,
5,
5,
5,
5,
5,
8,
8,
12,
12,
14,
15,
16,
16,
14,
13,
13,
9,
6,
2,
0,
-2,
-4,
-8,
-2,
-9,
-1,
-2,
2,
4,
9,
13,
17,
21,
24,
21,
24,
25,
25,
25,
24,
22,
21,
18,
17,
15,
14,
11,
9,
6,
1,
0,
-2,
-4,
-6,
-7,
-7,
-8,
-6,
-4,
-4,
0,
2,
6,
9,
13,
17,
19,
22,
24,
26,
26,
26,
25,
23,
22,
20,
18,
13,
12,
6,
6,
1,
1,
-1,
0,
-2,
-2,
-2,
-2,
-2,
0,
-4,
-2,
-1,
2,
3,
6,
9,
13,
17,
19,
21,
23,
26,
25,
28,
25,
24,
20,
19,
18,
14,
12,
12,
10,
9,
8,
6,
6,
5,
4,
2,
1,
0,
-3,
-3,
-6,
-6,
-7,
-8,
-8,
0,
-7,
5,
3,
10,
14,
20,
24,
27,
30,
33,
33,
34,
32,
32,
27,
24,
18,
8,
10,
1,
-2,
-8,
-8,
-11,
-12,
-12,
-12,
-9,
-6,
-1,
2,
8,
10,
14,
16,
21,
21,
24,
24,
24,
22,
22,
20,
19,
16,
14,
12,
12,
10,
9,
9,
7,
8,
8,
7,
6,
6,
5,
4,
4,
4,
5,
6,
7,
9,
10,
12,
13,
13,
13,
14,
12,
13,
11,
12,
4,
9,
2,
4,
0,
1,
2,
4,
6,
8,
10,
14,
17,
19,
20,
20,
20,
18,
16,
13,
12,
8,
5,
2,
1,
0,
0,
0,
-1,
0,
0,
2,
2,
6,
5,
9,
9,
12,
13,
15,
16,
17,
18,
19,
18,
20,
18,
19,
17,
16,
14,
12,
9,
7,
4,
2,
1,
0,
0,
1,
-4,
1,
0,
1,
3,
5,
8,
10,
10,
13,
14,
17,
18,
20,
20,
20,
20,
18,
18,
16,
16,
13,
13,
10,
9,
8,
9,
7,
6,
5,
4,
4,
3,
2,
2,
1,
0,
1,
1,
2,
3,
5,
8,
12,
15,
18,
21,
24,
24,
24,
23,
22,
20,
16,
13,
10,
10,
5,
-4,
-3,
-4,
-5,
-3,
-3,
0,
4,
5,
9,
11,
16,
17,
19,
18,
20,
17,
17,
14,
12,
9,
8,
3,
8,
-4,
5,
-1,
4,
2,
5,
6,
8,
9,
12,
12,
14,
14,
14,
14,
13,
12,
12,
10,
10,
9,
8,
8,
8,
6,
8,
8,
10,
10,
13,
13,
14,
20,
14,
14,
13,
14,
12,
12,
10,
11,
9,
9,
9,
9,
12,
10,
13,
13,
12,
12,
10,
12,
10,
11,
12,
12,
12,
12,
12,
11,
10,
9,
9,
8,
8,
6,
8,
9,
10,
14,
12,
15,
16,
17,
16,
16,
15,
14,
13,
10,
9,
6,
5,
4,
4,
4,
4,
4,
5,
6,
1,
10,
7,
11,
9,
11,
10,
10,
10,
8,
9,
7,
9,
8,
10,
10,
10,
10,
14,
11,
13,
12,
13,
13,
12,
10,
10,
8,
6,
4,
2,
1,
0,
0,
0,
0,
1,
4,
6,
9,
12,
14,
17,
18,
20,
19,
21,
19,
20,
17,
16,
14,
12,
10,
9,
6,
6,
4,
-1,
6,
1,
4,
2,
6,
5,
5,
5,
8,
9,
11,
12,
14,
16,
17,
17,
16,
18,
16,
17,
16,
14,
14,
13,
12,
10,
9,
9,
8,
6,
6,
4,
4,
4,
5,
5,
6,
8,
9,
12,
13,
14,
15,
16,
16,
14,
13,
12,
12,
10,
10,
9,
8,
8,
6,
5,
5,
4,
9,
2,
5,
2,
3,
5,
6,
8,
12,
6,
17,
13,
19,
18,
17,
17,
15,
14,
12,
9,
6,
2,
1,
-2,
-2,
-3,
-2,
-2,
0,
1,
4,
8,
10,
15,
16,
21,
22,
24,
26,
26,
25,
24,
21,
18,
14,
10,
7,
4,
1,
0,
-2,
-3,
-4,
-3,
0,
-2,
2,
6,
9,
3,
8,
9,
10,
12,
14,
16,
16,
17,
18,
20,
20,
19,
19,
16,
16,
14,
13,
12,
11,
10,
9,
9,
8,
7,
6,
6,
5,
4,
4,
3,
5,
5,
8,
8,
11,
12,
13,
13,
14,
12,
13,
9,
8,
5,
4,
2,
2,
0,
1,
0,
4,
4,
6,
9,
11,
16,
13,
11,
13,
11,
12,
11,
10,
10,
10,
8,
9,
10,
12,
10,
14,
14,
15,
14,
14,
13,
12,
11,
11,
10,
9,
8,
6,
6,
6,
6,
8,
6,
6,
9,
9,
11,
12,
10,
13,
17,
11,
19,
12,
17,
14,
13,
13,
14,
12,
10,
8,
9,
9,
6,
7,
7,
4,
4,
-3,
3,
0,
3,
1,
5,
-6,
10,
20,
19,
24,
23,
26,
26,
27,
25,
22,
19,
14,
10,
6,
3,
0,
-3,
-2,
-3,
-2,
0,
2,
5,
6,
12,
16,
19,
22,
22,
22,
20,
18,
14,
10,
5,
1,
-3,
-6,
-8,
-9,
-7,
-6,
-3,
-2,
8,
2,
15,
14,
20,
21,
23,
16,
23,
16,
18,
13,
12,
9,
8,
6,
5,
4,
3,
5,
6,
9,
9,
11,
12,
12,
13,
13,
14,
13,
13,
10,
11,
9,
9,
8,
6,
6,
6,
5,
6,
6,
7,
8,
8,
8,
10,
11,
12,
13,
15,
14,
16,
17,
18,
18,
17,
17,
16,
16,
16,
15,
15,
13,
13,
8,
12,
2,
4,
-1,
-2,
-4,
-6,
-4,
-5,
-4,
0,
4,
11,
16,
20,
25,
28,
28,
29,
28,
24,
21,
17,
12,
6,
1,
-2,
-6,
-10,
-11,
-12,
-11,
-11,
-9,
-6,
-3,
1,
2,
6,
9,
12,
14,
20,
14,
24,
20,
24,
22,
22,
20,
20,
17,
17,
13,
10,
7,
5,
5,
2,
-4,
-3,
-3,
-2,
0,
1,
4,
5,
9,
10,
13,
17,
17,
19,
18,
19,
18,
18,
16,
16,
14,
14,
13,
13,
13,
12,
13,
14,
14,
14,
12,
14,
11,
11,
9,
6,
6,
3,
2,
1,
0,
0,
0,
1,
2,
3,
5,
8,
8,
12,
13,
16,
17,
17,
17,
17,
18,
14,
9,
8,
10,
9,
10,
9,
9,
12,
10,
13,
13,
16,
14,
17,
15,
14,
12,
10,
6,
5,
2,
1,
-2,
-4,
-4,
-3,
-2,
0,
2,
5,
8,
10,
10,
12,
16,
15,
17,
17,
18,
18,
19,
18,
18,
18,
16,
16,
13,
11,
9,
8,
6,
3,
2,
1,
0,
0,
2,
-4,
1,
0,
4,
2,
5,
5,
8,
9,
11,
12,
14,
16,
14,
16,
14,
14,
13,
13,
13,
12,
12,
13,
12,
14,
12,
13,
13,
13,
12,
12,
10,
9,
8,
5,
4,
4,
2,
2,
1,
3,
4,
6,
6,
8,
7,
6,
6,
5,
4,
1,
1,
1,
2,
4,
6,
10,
12,
9,
19,
17,
20,
17,
17,
15,
12,
10,
5,
3,
1,
-1,
-3,
-2,
-4,
-3,
-3,
-1,
0,
4,
6,
10,
13,
18,
22,
24,
28,
29,
32,
28,
27,
23,
18,
16,
11,
6,
5,
2,
2,
1,
1,
2,
5,
6,
9,
10,
12,
14,
14,
14,
13,
12,
12,
9,
9,
8,
8,
2,
9,
4,
8,
6,
10,
10,
15,
16,
18,
19,
21,
21,
21,
20,
18,
15,
12,
8,
5,
1,
-3,
-4,
-7,
-9,
-8,
-9,
-7,
-6,
-3,
-1,
0,
5,
9,
12,
16,
18,
20,
21,
21,
22,
20,
19,
18,
17,
16,
16,
14,
13,
11,
10,
9,
9,
8,
8,
8,
6,
6,
5,
5,
-4,
-3,
-6,
-8,
-8,
-8,
-5,
-3,
0,
6,
9,
17,
21,
26,
29,
32,
33,
32,
38,
28,
32,
24,
22,
16,
12,
8,
2,
-3,
-8,
-11,
-14,
-15,
-14,
-12,
-10,
-6,
-3,
2,
6,
10,
14,
18,
19,
20,
22,
24,
21,
21,
18,
18,
17,
14,
13,
11,
10,
10,
12,
10,
6,
9,
9,
10,
10,
11,
12,
12,
10,
10,
10,
12,
10,
9,
8,
8,
5,
4,
2,
2,
3,
5,
5,
8,
8,
9,
9,
8,
6,
6,
5,
5,
6,
6,
6,
8,
9,
9,
9,
10,
10,
10,
10,
10,
10,
10,
10,
10,
10,
9,
8,
8,
8,
8,
8,
8,
12,
6,
10,
8,
13,
11,
14,
13,
14,
13,
12,
11,
9,
11,
10,
10,
8,
9,
5,
8,
5,
6,
6,
6,
8,
8,
7,
8,
8,
9,
9,
11,
11,
12,
12,
14,
14,
14,
14,
14,
14,
14,
13,
13,
12,
11,
11,
11,
9,
10,
11,
12,
12,
12,
12,
12,
10,
9,
9,
1,
6,
0,
2,
-2,
0,
-2,
0,
0,
2,
4,
6,
10,
13,
18,
19,
22,
22,
21,
22,
19,
18,
16,
14,
12,
9,
7,
5,
2,
4,
2,
3,
4,
4,
6,
8,
8,
10,
10,
12,
12,
13,
13,
12,
12,
12,
12,
10,
11,
10,
10,
9,
11,
12,
13,
13,
14,
14,
9,
14,
8,
9,
12,
4,
9,
4,
8,
4,
6,
6,
8,
10,
11,
12,
12,
11,
13,
12,
13,
12,
12,
11,
9,
9,
6,
5,
4,
4,
4,
4,
3,
5,
5,
6,
6,
8,
9,
9,
11,
12,
13,
13,
13,
13,
13,
15,
13,
15,
13,
14,
12,
12,
13,
10,
9,
10,
8,
10,
1,
4,
1,
1,
0,
0,
1,
2,
1,
3,
2,
4,
4,
4,
5,
5,
6,
8,
9,
10,
11,
13,
13,
14,
12,
14,
13,
14,
14,
14,
14,
16,
17,
17,
18,
18,
18,
18,
16,
16,
13,
12,
10,
9,
8,
9,
8,
9,
8,
9,
8,
6,
4,
5,
3,
2,
4,
1,
-6,
-3,
-3,
0,
2,
5,
7,
10,
13,
18,
21,
26,
27,
29,
28,
28,
26,
24,
20,
16,
11,
8,
4,
1,
-2,
-6,
-6,
-7,
-5,
-4,
-4,
-2,
0,
2,
5,
8,
10,
12,
13,
16,
16,
18,
18,
18,
18,
18,
19,
20,
18,
18,
15,
16,
14,
14,
12,
11,
10,
4,
4,
1,
1,
-2,
-1,
-2,
0,
0,
1,
5,
8,
12,
12,
18,
19,
22,
22,
24,
25,
24,
22,
21,
17,
16,
13,
12,
9,
6,
5,
4,
2,
2,
2,
1,
1,
3,
4,
4,
6,
6,
8,
8,
9,
11,
11,
19,
12,
18,
14,
18,
16,
16,
16,
16,
16,
14,
14,
5,
13,
6,
10,
5,
7,
6,
6,
6,
6,
7,
7,
10,
10,
11,
12,
9,
10,
7,
8,
7,
6,
6,
5,
7,
8,
9,
10,
10,
12,
13,
12,
13,
14,
12,
14,
12,
12,
13,
11,
11,
10,
12,
13,
12,
13,
12,
12,
12,
10,
8,
7,
4,
2,
-1,
-2,
-4,
-5,
-10,
-3,
-8,
-2,
-3,
4,
6,
9,
14,
18,
20,
25,
26,
29,
28,
28,
25,
22,
20,
17,
15,
12,
10,
9,
8,
6,
8,
5,
6,
6,
6,
6,
6,
5,
6,
5,
8,
6,
6,
9,
8,
9,
8,
10,
8,
10,
10,
10,
8,
10,
9,
10,
11,
12,
12,
11,
11,
11,
10,
12,
4,
6,
4,
5,
3,
4,
4,
5,
4,
4,
7,
8,
10,
9,
10,
10,
11,
10,
11,
12,
12,
12,
14,
14,
15,
16,
16,
15,
16,
15,
14,
13,
13,
12,
11,
9,
9,
8,
8,
9,
9,
10,
10,
11,
10,
10,
10,
9,
9,
9,
9,
9,
10,
11,
12,
13,
18,
15,
11,
14,
13,
12,
13,
12,
12,
11,
9,
9,
8,
8,
8,
6,
5,
6,
5,
6,
4,
6,
8,
9,
9,
10,
10,
11,
12,
11,
10,
16,
8,
13,
9,
12,
8,
10,
6,
8,
6,
6,
5,
6,
7,
6,
9,
9,
9,
10,
10,
10,
8,
9,
8,
8,
5,
6,
10,
3,
5,
4,
8,
8,
9,
9,
11,
11,
12,
13,
14,
16,
16,
18,
16,
15,
16,
13,
13,
10,
11,
8,
8,
5,
5,
2,
4,
0,
2,
1,
2,
3,
4,
4,
5,
5,
5,
7,
8,
9,
9,
10,
11,
12,
12,
14,
14,
14,
16,
16,
16,
14,
16,
14,
14,
12,
12,
3,
9,
2,
5,
1,
2,
1,
1,
5,
6,
11,
13,
18,
22,
25,
26,
24,
24,
22,
20,
16,
14,
12,
8,
8,
5,
3,
2,
1,
2,
0,
2,
1,
4,
2,
4,
4,
5,
5,
6,
7,
9,
9,
9,
9,
10,
10,
10,
9,
11,
9,
11,
10,
12,
12,
13,
14,
14,
8,
17,
10,
14,
10,
12,
10,
10,
8,
9,
6,
8,
8,
8,
10,
9,
10,
9,
12,
12,
13,
12,
14,
13,
13,
12,
11,
10,
10,
10,
8,
8,
9,
8,
8,
6,
9,
9,
12,
12,
14,
16,
16,
16,
16,
16,
14,
14,
12,
12,
9,
8,
6,
5,
4,
4,
3,
3,
1,
7,
0,
4,
2,
5,
5,
6,
7,
9,
9,
11,
12,
13,
15,
15,
14,
14,
12,
13,
11,
12,
12,
12,
10,
11,
9,
8,
7,
6,
5,
4,
4,
3,
4,
5,
6,
8,
11,
13,
15,
16,
19,
17,
18,
16,
16,
14,
13,
12,
10,
8,
7,
6,
5,
6,
4,
5,
9,
8,
3,
4,
4,
2,
4,
4,
5,
5,
6,
6,
9,
10,
10,
12,
11,
12,
12,
13,
12,
10,
10,
8,
8,
6,
4,
4,
3,
3,
5,
6,
8,
11,
11,
13,
14,
16,
17,
17,
18,
16,
15,
13,
12,
10,
10,
9,
8,
8,
6,
8,
8,
10,
11,
14,
16,
18,
24,
20,
18,
16,
17,
14,
12,
14,
6,
8,
4,
5,
2,
6,
3,
6,
5,
6,
6,
6,
5,
4,
4,
2,
2,
1,
2,
2,
2,
3,
4,
6,
6,
7,
10,
11,
13,
15,
16,
17,
17,
17,
16,
15,
15,
13,
12,
12,
10,
9,
9,
8,
8,
5,
6,
6,
6,
5,
6,
-1,
5,
2,
5,
2,
6,
6,
8,
10,
12,
14,
18,
20,
22,
22,
25,
25,
24,
24,
22,
20,
16,
15,
12,
9,
6,
4,
1,
0,
0,
0,
1,
0,
2,
1,
3,
4,
5,
6,
6,
8,
8,
9,
10,
10,
11,
10,
12,
10,
12,
10,
11,
10,
11,
10,
9,
10,
8,
3,
8,
2,
4,
0,
3,
1,
5,
6,
8,
9,
11,
16,
17,
20,
20,
21,
20,
18,
17,
14,
13,
10,
9,
6,
5,
3,
3,
2,
2,
3,
2,
5,
6,
8,
9,
10,
10,
10,
9,
8,
8,
6,
6,
5,
7,
6,
8,
9,
9,
10,
11,
13,
13,
14,
13,
13,
12,
8,
13,
5,
8,
4,
6,
4,
2,
3,
1,
2,
3,
4,
5,
9,
9,
11,
13,
14,
15,
15,
17,
16,
17,
16,
14,
14,
13,
13,
10,
10,
9,
9,
8,
8,
9,
8,
6,
8,
6,
8,
8,
10,
11,
13,
15,
16,
17,
16,
21,
12,
17,
10,
10,
6,
4,
2,
0,
3,
2,
-2,
0,
1,
3,
7,
9,
12,
12,
12,
14,
15,
16,
16,
15,
14,
12,
12,
9,
7,
6,
5,
5,
4,
4,
5,
5,
7,
8,
9,
11,
12,
13,
13,
12,
13,
11,
12,
8,
9,
8,
8,
8,
10,
10,
12,
12,
14,
14,
15,
17,
17,
17,
19,
17,
17,
14,
18,
13,
10,
8,
9,
8,
10,
8,
10,
8,
10,
9,
9,
10,
9,
8,
7,
5,
4,
2,
2,
1,
1,
2,
3,
4,
4,
8,
8,
10,
12,
14,
16,
17,
18,
18,
18,
16,
14,
13,
10,
10,
8,
8,
6,
6,
6,
5,
6,
6,
7,
6,
6,
6,
6,
6,
5,
5,
8,
4,
8,
5,
9,
8,
10,
8,
11,
10,
13,
13,
15,
15,
17,
17,
17,
17,
16,
16,
16,
16,
14,
14,
14,
12,
12,
9,
9,
6,
7,
4,
2,
1,
0,
-1,
-1,
-2,
-2,
-2,
0,
1,
4,
6,
10,
11,
14,
16,
18,
18,
18,
17,
16,
14,
12,
11,
9,
9,
8,
2,
10,
6,
10,
8,
12,
10,
12,
13,
11,
12,
13,
13,
13,
13,
13,
12,
12,
9,
9,
8,
8,
6,
5,
4,
4,
4,
4,
3,
4,
6,
7,
8,
11,
13,
17,
16,
19,
18,
20,
18,
17,
15,
14,
12,
10,
10,
8,
6,
6,
5,
4,
5,
2,
2,
1,
1,
1,
-3,
4,
-2,
2,
0,
1,
4,
4,
8,
8,
10,
13,
17,
20,
23,
24,
25,
26,
26,
24,
22,
19,
17,
13,
10,
8,
5,
4,
2,
1,
0,
0,
0,
1,
-1,
3,
2,
5,
7,
10,
12,
13,
17,
17,
18,
20,
20,
19,
18,
17,
14,
12,
10,
8,
6,
5,
4,
3,
4,
4,
-2,
-1,
0,
0,
2,
2,
6,
6,
8,
10,
12,
14,
15,
16,
17,
18,
18,
18,
20,
20,
20,
17,
18,
16,
17,
14,
12,
10,
8,
5,
3,
0,
1,
-4,
-3,
-4,
-3,
-3,
0,
2,
5,
6,
9,
11,
12,
14,
17,
18,
19,
18,
20,
18,
18,
18,
18,
18,
21,
16,
11,
10,
10,
7,
8,
6,
6,
6,
6,
6,
