data/ALL0013/A0013CH2.CSV

Memory Length,4000,
Trigger Level,0.000E+00,
Source,CH2,
Probe,1X,
Vertical Units,V,
Vertical Scale,1.000E-02,
Vertical Position,0.000E+00,
Horizontal Units,s,
Horizontal Scale,1.000E-05,
Horizontal Position,4.000E-06,
Horizontal Mode,Main,
Sampling Period,4.000E-08,
Firmware,V1.13,
Time, ,
Mode,Fast,
Waveform Data,
-6,
-6,
16,
16,
15,
13,
12,
12,
10,
10,
8,
5,
5,
4,
3,
1,
0,
-2,
-3,
-4,
-6,
-8,
-10,
-11,
-13,
-15,
-16,
-18,
-19,
-20,
-22,
-22,
-23,
-23,
-24,
-23,
-23,
-22,
-22,
-23,
-20,
-20,
-18,
-16,
-27,
-20,
-12,
-11,
-21,
-23,
-20,
-12,
-9,
-12,
-13,
-11,
-5,
-1,
2,
4,
7,
11,
15,
20,
25,
28,
31,
33,
36,
42,
50,
53,
52,
52,
56,
61,
62,
60,
61,
61,
62,
61,
62,
60,
59,
58,
58,
56,
55,
53,
51,
49,
48,
47,
45,
42,
39,
38,
37,
34,
32,
29,
26,
23,
21,
18,
14,
12,
9,
6,
3,
0,
-4,
-7,
-10,
-13,
-16,
-18,
-21,
-23,
-26,
-27,
-28,
-30,
-31,
-32,
-32,
-32,
-33,
-32,
-32,
-31,
-31,
-30,
-29,
-27,
-28,
-26,
-24,
-24,
-23,
-23,
-22,
-19,
-18,
-16,
-16,
-15,
-11,
-9,
-7,
-4,
-2,
1,
5,
8,
10,
14,
18,
22,
25,
28,
30,
33,
37,
38,
41,
41,
43,
44,
44,
45,
46,
46,
46,
46,
45,
46,
44,
44,
42,
40,
38,
37,
37,
34,
33,
31,
34,
27,
18,
26,
26,
20,
15,
14,
14,
14,
11,
8,
6,
5,
4,
2,
1,
-2,
-4,
-5,
-6,
-8,
-9,
-12,
-14,
-15,
-16,
-18,
-18,
-19,
-20,
-20,
-21,
-21,
-21,
-22,
-22,
-22,
-22,
-22,
-20,
-19,
-14,
-11,
-15,
-19,
-12,
-6,
-6,
-6,
-6,
-2,
2,
5,
5,
6,
9,
12,
14,
17,
19,
22,
25,
28,
30,
33,
36,
39,
40,
43,
46,
48,
49,
51,
53,
54,
55,
55,
56,
55,
54,
53,
51,
48,
47,
45,
43,
40,
36,
41,
35,
26,
19,
18,
19,
14,
9,
5,
4,
2,
-2,
-6,
-8,
-10,
-12,
-15,
-17,
-20,
-24,
-27,
-31,
-32,
-30,
-30,
-36,
-40,
-42,
-40,
-40,
-42,
-43,
-44,
-43,
-42,
-42,
-41,
-40,
-39,
-37,
-34,
-31,
-28,
-26,
-23,
-19,
-15,
-11,
-7,
-2,
3,
8,
13,
17,
22,
26,
32,
38,
32,
41,
49,
49,
49,
51,
54,
56,
60,
59,
58,
60,
60,
61,
60,
59,
58,
58,
58,
56,
56,
54,
52,
50,
48,
48,
45,
43,
42,
41,
39,
36,
32,
30,
29,
25,
21,
18,
14,
12,
8,
4,
1,
-3,
-6,
-9,
-13,
-15,
-18,
-20,
-22,
-24,
-26,
-28,
-28,
-30,
-30,
-30,
-31,
-30,
-29,
-28,
-28,
-27,
-26,
-26,
-23,
-22,
-20,
-19,
-18,
-15,
-13,
-11,
-8,
-6,
-4,
-2,
0,
3,
5,
8,
9,
12,
14,
16,
18,
21,
24,
25,
27,
27,
29,
31,
31,
31,
32,
32,
31,
32,
31,
30,
28,
27,
26,
25,
24,
22,
21,
20,
18,
16,
15,
13,
13,
12,
9,
8,
8,
8,
7,
5,
4,
4,
4,
4,
4,
3,
4,
4,
4,
10,
6,
4,
4,
9,
13,
11,
9,
9,
12,
12,
12,
12,
15,
6,
7,
14,
14,
10,
7,
6,
8,
13,
16,
13,
9,
10,
14,
17,
17,
15,
15,
17,
19,
20,
20,
18,
17,
19,
22,
26,
17,
12,
14,
18,
18,
13,
9,
10,
11,
10,
8,
4,
4,
3,
2,
1,
0,
0,
0,
-1,
-1,
-1,
-2,
-2,
-1,
0,
0,
0,
0,
1,
0,
1,
2,
3,
4,
3,
4,
5,
6,
6,
6,
8,
9,
9,
10,
9,
10,
11,
12,
13,
12,
12,
13,
13,
13,
13,
12,
12,
12,
11,
10,
9,
9,
8,
6,
6,
5,
5,
4,
2,
2,
2,
1,
-1,
-1,
-1,
-2,
-2,
-4,
-4,
-5,
-6,
-6,
-6,
-6,
-7,
-8,
-7,
-6,
-6,
-7,
-7,
-6,
-4,
-4,
-4,
-4,
-3,
-3,
-2,
-1,
-2,
0,
0,
2,
1,
1,
4,
5,
5,
6,
8,
9,
12,
13,
14,
17,
21,
24,
16,
26,
33,
32,
29,
30,
34,
38,
40,
40,
41,
41,
43,
45,
46,
47,
48,
49,
48,
48,
49,
50,
49,
46,
46,
46,
45,
44,
41,
40,
39,
36,
32,
30,
28,
26,
22,
18,
14,
12,
9,
5,
1,
-2,
-4,
-9,
-12,
-15,
-18,
-21,
-24,
-28,
-31,
-33,
-34,
-36,
-39,
-41,
-42,
-42,
-41,
-42,
-42,
-42,
-40,
-38,
-37,
-32,
-31,
-34,
-29,
-21,
-16,
-16,
-15,
-10,
-6,
0,
3,
5,
8,
12,
16,
20,
24,
25,
28,
29,
31,
35,
42,
45,
44,
41,
45,
49,
51,
50,
50,
51,
53,
53,
53,
51,
52,
52,
50,
49,
48,
46,
45,
43,
40,
38,
37,
34,
31,
28,
25,
22,
19,
16,
12,
10,
6,
4,
0,
-4,
-7,
-9,
-12,
-15,
-18,
-20,
-22,
-24,
-28,
-28,
-30,
-31,
-32,
-32,
-32,
-32,
-28,
-35,
-32,
-27,
-24,
-26,
-26,
-23,
-21,
-18,
-16,
-12,
-7,
-8,
-11,
-5,
2,
4,
4,
5,
9,
14,
17,
18,
21,
24,
28,
32,
34,
37,
40,
42,
45,
47,
49,
50,
52,
52,
53,
52,
50,
49,
48,
46,
44,
44,
41,
38,
36,
33,
32,
30,
26,
22,
18,
17,
16,
12,
10,
7,
5,
2,
0,
-3,
-4,
-6,
-8,
-10,
-13,
-16,
-17,
-19,
-21,
-23,
-24,
-26,
-27,
-28,
-30,
-29,
-30,
-30,
-29,
-28,
-26,
-25,
-23,
-22,
-19,
-17,
-14,
-10,
-7,
-6,
-4,
0,
4,
6,
8,
10,
13,
15,
17,
18,
18,
21,
22,
24,
24,
25,
26,
27,
28,
28,
29,
30,
31,
32,
33,
33,
34,
36,
36,
37,
38,
38,
40,
40,
40,
40,
40,
40,
40,
38,
37,
37,
36,
34,
32,
30,
28,
26,
23,
20,
18,
17,
15,
4,
8,
8,
4,
-2,
-2,
-2,
-6,
-10,
-10,
-7,
-9,
-12,
-14,
-14,
-13,
-14,
-15,
-16,
-16,
-16,
-16,
-16,
-16,
-17,
-18,
-19,
-20,
-16,
-11,
-11,
-14,
-16,
-11,
-6,
-6,
-7,
-6,
-3,
1,
2,
2,
5,
8,
12,
14,
15,
18,
20,
22,
24,
26,
28,
29,
30,
30,
30,
30,
31,
31,
31,
30,
30,
30,
29,
28,
27,
27,
26,
25,
24,
22,
22,
21,
20,
20,
18,
17,
17,
17,
15,
13,
12,
10,
9,
8,
5,
4,
2,
1,
1,
0,
-1,
-2,
-2,
-2,
-2,
-3,
-2,
-2,
0,
1,
1,
2,
5,
6,
8,
9,
10,
12,
13,
13,
14,
16,
16,
16,
16,
17,
17,
16,
15,
16,
15,
16,
16,
16,
16,
14,
14,
14,
15,
14,
14,
14,
14,
13,
12,
10,
10,
14,
12,
4,
3,
6,
10,
-1,
-4,
1,
1,
-3,
-4,
-6,
-6,
-4,
-4,
-6,
-6,
-5,
-2,
-2,
-2,
-2,
0,
1,
3,
4,
4,
5,
6,
8,
10,
9,
10,
11,
12,
13,
13,
13,
13,
13,
14,
14,
14,
15,
14,
14,
15,
14,
14,
14,
15,
15,
16,
16,
16,
17,
17,
16,
17,
17,
17,
17,
16,
16,
16,
16,
16,
14,
14,
13,
12,
9,
8,
6,
6,
4,
3,
2,
0,
0,
0,
-2,
-2,
-3,
-2,
-2,
-2,
-3,
-3,
-4,
-2,
-2,
-1,
0,
-1,
0,
2,
-2,
-6,
-2,
4,
4,
1,
0,
1,
4,
5,
4,
5,
6,
8,
9,
9,
11,
12,
12,
11,
11,
14,
22,
22,
18,
17,
20,
24,
26,
25,
24,
24,
24,
27,
26,
26,
27,
26,
25,
23,
24,
25,
24,
21,
21,
22,
22,
21,
21,
20,
19,
19,
20,
20,
9,
16,
19,
16,
13,
12,
12,
15,
14,
12,
9,
8,
9,
9,
8,
5,
2,
1,
2,
2,
0,
-2,
-5,
-4,
-7,
-6,
-7,
-8,
-7,
-6,
-4,
-3,
-4,
-3,
-2,
1,
2,
3,
4,
5,
8,
8,
9,
10,
11,
12,
13,
14,
14,
14,
14,
14,
14,
14,
14,
14,
14,
14,
14,
15,
16,
16,
16,
16,
16,
16,
16,
16,
15,
16,
16,
16,
15,
16,
16,
16,
14,
14,
14,
13,
13,
13,
12,
13,
14,
15,
16,
15,
14,
15,
16,
14,
14,
15,
15,
14,
14,
14,
15,
14,
14,
12,
12,
10,
10,
8,
7,
5,
5,
4,
4,
4,
3,
2,
2,
2,
1,
0,
-1,
-2,
-3,
-3,
2,
4,
-2,
-5,
0,
3,
2,
0,
0,
1,
2,
2,
0,
0,
0,
1,
2,
0,
0,
0,
1,
0,
3,
-4,
-4,
1,
2,
-2,
-1,
-1,
1,
4,
4,
5,
5,
6,
9,
9,
10,
10,
10,
12,
13,
12,
12,
12,
12,
13,
13,
12,
12,
13,
13,
18,
17,
13,
13,
19,
24,
22,
20,
22,
25,
28,
28,
26,
27,
29,
29,
28,
28,
28,
27,
25,
22,
23,
27,
27,
22,
18,
16,
18,
18,
16,
13,
13,
13,
12,
10,
9,
8,
8,
6,
6,
5,
4,
2,
1,
1,
1,
1,
0,
1,
0,
0,
1,
1,
2,
1,
2,
2,
2,
4,
2,
3,
4,
4,
5,
5,
5,
4,
4,
5,
4,
5,
4,
4,
4,
5,
5,
5,
6,
6,
6,
7,
8,
8,
9,
9,
8,
9,
9,
10,
10,
9,
10,
12,
13,
13,
12,
13,
15,
16,
17,
16,
16,
18,
19,
20,
20,
20,
20,
21,
21,
21,
19,
18,
20,
18,
10,
14,
16,
11,
6,
6,
5,
6,
5,
2,
0,
1,
2,
1,
0,
0,
0,
0,
0,
1,
1,
0,
1,
2,
2,
3,
4,
5,
6,
7,
8,
9,
9,
9,
10,
11,
12,
12,
12,
12,
12,
12,
12,
12,
12,
12,
11,
10,
11,
11,
10,
9,
9,
10,
9,
9,
9,
8,
8,
8,
8,
5,
5,
5,
6,
7,
6,
6,
8,
8,
9,
9,
9,
9,
11,
12,
12,
14,
15,
17,
17,
19,
20,
21,
22,
24,
22,
22,
20,
22,
21,
20,
19,
18,
18,
18,
17,
17,
16,
14,
13,
14,
12,
12,
9,
8,
9,
12,
10,
3,
4,
8,
9,
5,
6,
4,
1,
2,
5,
6,
2,
0,
1,
4,
4,
2,
2,
2,
2,
4,
5,
4,
4,
4,
4,
2,
4,
8,
12,
9,
6,
8,
12,
14,
18,
8,
9,
17,
17,
13,
14,
14,
17,
18,
16,
15,
14,
16,
17,
15,
14,
12,
12,
13,
10,
9,
9,
6,
6,
3,
2,
1,
0,
0,
0,
1,
2,
1,
0,
2,
4,
4,
4,
6,
6,
9,
9,
10,
10,
12,
13,
13,
13,
13,
13,
13,
12,
11,
10,
10,
9,
8,
8,
8,
6,
5,
5,
5,
6,
6,
5,
6,
5,
6,
6,
7,
7,
8,
8,
9,
9,
9,
8,
9,
9,
9,
8,
6,
6,
6,
5,
6,
5,
6,
5,
5,
6,
6,
5,
6,
5,
6,
6,
7,
8,
9,
8,
8,
9,
10,
10,
10,
10,
12,
12,
13,
13,
13,
15,
16,
16,
17,
18,
20,
20,
21,
22,
22,
22,
22,
22,
22,
22,
21,
21,
21,
22,
20,
19,
17,
17,
17,
16,
14,
14,
13,
14,
12,
12,
14,
11,
5,
12,
14,
9,
8,
8,
8,
10,
9,
6,
4,
2,
4,
3,
1,
0,
-2,
-2,
-2,
-1,
-3,
-4,
-5,
-4,
-4,
-3,
-3,
-3,
-1,
0,
2,
4,
5,
7,
10,
12,
14,
15,
16,
17,
20,
21,
21,
22,
24,
25,
26,
26,
25,
27,
28,
26,
26,
30,
33,
23,
19,
22,
26,
25,
20,
18,
17,
18,
18,
16,
13,
10,
10,
8,
8,
5,
1,
-1,
-4,
-5,
-2,
-1,
-6,
-10,
-10,
-9,
-8,
-10,
-12,
-12,
-12,
-12,
-12,
-13,
-12,
-9,
-6,
-11,
-16,
-14,
-10,
-9,
-11,
-13,
-12,
-10,
-8,
-9,
-9,
-8,
-6,
-4,
-3,
0,
0,
2,
3,
5,
6,
8,
8,
10,
12,
12,
13,
14,
14,
14,
16,
16,
17,
18,
19,
20,
21,
23,
26,
28,
29,
32,
33,
34,
34,
36,
38,
40,
40,
42,
45,
34,
38,
44,
43,
37,
37,
36,
37,
37,
35,
33,
32,
30,
30,
30,
28,
26,
24,
21,
19,
18,
16,
14,
13,
10,
9,
9,
8,
5,
5,
5,
5,
3,
1,
2,
3,
2,
1,
0,
0,
0,
-2,
-2,
-3,
-4,
-5,
-7,
-8,
-8,
-11,
-13,
-14,
-16,
-17,
-18,
-18,
-18,
-18,
-19,
-18,
-16,
-14,
-12,
-11,
-8,
-4,
-2,
0,
3,
5,
8,
11,
14,
15,
17,
19,
21,
22,
22,
24,
26,
26,
26,
27,
26,
26,
28,
28,
26,
26,
25,
26,
26,
25,
24,
25,
25,
23,
23,
22,
21,
21,
19,
18,
18,
16,
15,
14,
12,
10,
10,
8,
6,
4,
4,
3,
2,
0,
0,
-2,
-2,
-2,
-3,
-4,
-4,
-4,
-3,
-4,
-4,
-4,
-4,
-3,
-4,
-4,
-3,
-2,
-3,
2,
-2,
-4,
-3,
1,
4,
2,
5,
0,
-4,
6,
8,
4,
2,
4,
6,
9,
10,
9,
10,
9,
9,
12,
18,
20,
16,
16,
18,
23,
25,
24,
24,
24,
25,
28,
27,
26,
24,
24,
24,
23,
22,
20,
19,
17,
16,
14,
13,
10,
10,
8,
8,
8,
8,
8,
7,
5,
5,
7,
8,
8,
6,
7,
7,
9,
9,
9,
9,
9,
9,
10,
8,
8,
9,
9,
9,
8,
8,
8,
9,
8,
8,
7,
6,
7,
12,
14,
8,
4,
8,
11,
10,
8,
8,
10,
11,
11,
11,
11,
12,
14,
14,
16,
17,
18,
18,
20,
21,
22,
23,
24,
25,
26,
27,
27,
27,
28,
28,
27,
27,
27,
26,
25,
26,
25,
22,
20,
18,
16,
13,
10,
7,
4,
0,
-3,
-6,
-10,
-12,
-14,
-16,
-18,
-19,
-20,
-19,
-19,
-18,
-19,
-18,
-16,
-15,
-14,
-13,
-10,
-5,
-15,
-9,
-2,
-4,
-6,
-6,
-4,
0,
1,
1,
1,
2,
4,
6,
9,
10,
12,
14,
17,
20,
22,
24,
26,
28,
32,
33,
35,
37,
38,
40,
40,
42,
41,
40,
41,
41,
40,
37,
35,
34,
32,
30,
27,
26,
23,
20,
19,
17,
14,
12,
10,
9,
6,
5,
2,
1,
-1,
-3,
-4,
-5,
-6,
-8,
-10,
-11,
-12,
-14,
-14,
-14,
-15,
-15,
-14,
-12,
-12,
-15,
-11,
-6,
-10,
-13,
-10,
-2,
0,
-1,
-2,
0,
3,
6,
6,
5,
6,
7,
8,
8,
8,
7,
6,
5,
4,
5,
10,
10,
8,
6,
8,
12,
14,
14,
14,
15,
18,
21,
22,
24,
26,
30,
32,
33,
35,
37,
40,
42,
42,
44,
44,
45,
46,
48,
47,
45,
44,
44,
43,
41,
38,
37,
34,
31,
29,
26,
22,
18,
16,
13,
9,
6,
7,
-3,
-10,
-4,
-6,
-15,
-18,
-19,
-20,
-20,
-22,
-26,
-26,
-26,
-24,
-23,
-23,
-22,
-23,
-20,
-19,
-18,
-18,
-16,
-15,
-13,
-11,
-10,
-8,
-7,
-4,
-2,
0,
1,
2,
2,
4,
6,
7,
8,
9,
10,
12,
13,
14,
15,
15,
17,
18,
18,
18,
18,
20,
18,
18,
17,
17,
16,
14,
12,
11,
13,
14,
9,
2,
4,
7,
6,
2,
-1,
1,
2,
3,
1,
0,
0,
2,
4,
4,
4,
5,
8,
9,
10,
12,
12,
14,
16,
17,
18,
19,
20,
21,
22,
21,
22,
23,
24,
25,
24,
24,
25,
25,
25,
25,
26,
26,
26,
25,
25,
25,
26,
24,
23,
24,
23,
22,
23,
22,
21,
20,
20,
20,
18,
16,
17,
16,
14,
14,
14,
12,
11,
11,
10,
10,
9,
8,
6,
6,
5,
5,
4,
5,
4,
4,
6,
8,
-4,
2,
8,
6,
2,
3,
4,
6,
8,
6,
5,
5,
9,
12,
6,
3,
6,
10,
11,
9,
6,
7,
9,
9,
8,
8,
8,
9,
8,
8,
9,
8,
7,
4,
3,
6,
12,
11,
6,
5,
8,
10,
10,
9,
6,
5,
4,
5,
3,
2,
2,
-1,
-2,
-2,
1,
-2,
-6,
-6,
-5,
-3,
-3,
-5,
-6,
-6,
-4,
-3,
-2,
-2,
-2,
-1,
1,
1,
1,
3,
2,
4,
5,
6,
7,
8,
8,
10,
10,
12,
12,
14,
14,
15,
16,
16,
17,
17,
18,
18,
20,
20,
22,
22,
23,
24,
25,
26,
25,
26,
26,
28,
28,
26,
27,
28,
28,
28,
29,
27,
28,
28,
26,
26,
26,
25,
24,
21,
20,
18,
16,
14,
12,
9,
6,
4,
2,
0,
-3,
-5,
-7,
-8,
-10,
-11,
-12,
-13,
-13,
-14,
-14,
-12,
-8,
-16,
-19,
-10,
-7,
-11,
-10,
-8,
-6,
-4,
-4,
-4,
-4,
-3,
-3,
-2,
-1,
-1,
0,
2,
4,
4,
6,
8,
12,
13,
17,
21,
24,
27,
30,
34,
37,
40,
41,
44,
46,
46,
46,
46,
46,
46,
44,
41,
38,
41,
40,
32,
25,
24,
27,
24,
20,
17,
16,
17,
16,
14,
13,
13,
13,
12,
12,
11,
10,
9,
8,
8,
7,
6,
4,
3,
3,
0,
-1,
-2,
-4,
-4,
-6,
-8,
-10,
-11,
-12,
-14,
-16,
-16,
-16,
-17,
-18,
-19,
-17,
-16,
-17,
-16,
-15,
-14,
-11,
-5,
-11,
-14,
-10,
-4,
-3,
-5,
-6,
-6,
-3,
0,
0,
0,
1,
2,
6,
6,
8,
9,
10,
11,
10,
13,
20,
25,
22,
22,
25,
30,
34,
34,
34,
36,
37,
40,
40,
40,
40,
41,
41,
40,
40,
38,
38,
37,
37,
36,
33,
34,
33,
22,
27,
29,
26,
20,
19,
18,
19,
18,
15,
12,
10,
10,
10,
7,
5,
2,
1,
0,
-3,
-4,
-7,
-10,
-13,
-15,
-18,
-20,
-22,
-24,
-26,
-28,
-28,
-30,
-30,
-30,
-28,
-30,
-31,
-28,
-24,
-23,
-24,
-24,
-20,
-16,
-14,
-12,
-12,
-10,
-6,
-4,
-2,
-1,
1,
3,
5,
6,
7,
8,
9,
11,
14,
15,
17,
20,
24,
28,
30,
34,
38,
42,
45,
48,
52,
56,
58,
60,
62,
64,
65,
65,
65,
66,
66,
65,
64,
63,
61,
58,
56,
55,
52,
48,
45,
42,
38,
34,
31,
26,
22,
18,
14,
10,
5,
0,
-4,
-9,
-13,
-18,
-23,
-26,
-30,
-34,
-38,
-42,
-44,
-46,
-48,
-50,
-50,
-50,
-51,
-50,
-49,
-47,
-46,
-44,
-41,
-38,
-34,
-32,
-28,
-25,
-22,
-18,
-14,
-11,
-8,
-6,
-3,
0,
2,
5,
8,
13,
8,
12,
20,
22,
19,
19,
22,
26,
29,
29,
27,
28,
28,
30,
29,
28,
28,
26,
27,
26,
26,
26,
25,
26,
25,
26,
26,
26,
27,
31,
29,
27,
28,
35,
37,
30,
28,
31,
35,
33,
29,
27,
28,
28,
28,
26,
24,
23,
22,
21,
20,
20,
17,
14,
12,
10,
14,
15,
10,
5,
4,
5,
4,
2,
0,
-3,
-3,
-4,
-5,
-6,
-8,
-10,
-10,
-10,
-10,
-10,
-10,
-10,
-10,
-8,
-8,
-6,
-5,
-3,
-2,
0,
2,
4,
5,
6,
8,
10,
12,
13,
15,
16,
18,
20,
22,
22,
25,
27,
28,
29,
30,
32,
32,
33,
33,
34,
35,
33,
34,
34,
34,
33,
32,
30,
29,
27,
27,
26,
23,
21,
20,
18,
16,
14,
13,
10,
9,
9,
8,
6,
5,
4,
3,
2,
0,
-1,
-3,
-3,
-6,
-7,
-8,
-9,
-18,
-14,
-13,
-18,
-22,
-24,
-25,
-24,
-24,
-29,
-32,
-32,
-30,
-31,
-32,
-32,
-33,
-31,
-31,
-28,
-26,
-26,
-23,
-20,
-16,
-15,
-14,
-10,
-4,
0,
2,
5,
8,
11,
16,
20,
22,
26,
28,
32,
34,
36,
38,
40,
42,
44,
45,
45,
45,
46,
46,
47,
46,
46,
46,
46,
44,
44,
44,
43,
42,
41,
39,
37,
36,
36,
34,
32,
30,
28,
26,
24,
21,
18,
15,
13,
10,
7,
4,
1,
-1,
-3,
-6,
-7,
-10,
-10,
-12,
-12,
-14,
-15,
-15,
-15,
-16,
-14,
-15,
-14,
-15,
-14,
-12,
-11,
-11,
-10,
-10,
-8,
-8,
-8,
-7,
-6,
-5,
-4,
-4,
-2,
-2,
-2,
4,
6,
0,
-2,
2,
8,
8,
7,
8,
10,
12,
13,
14,
14,
16,
17,
18,
20,
19,
20,
20,
20,
20,
24,
30,
32,
30,
29,
33,
38,
43,
35,
36,
43,
44,
41,
39,
38,
40,
40,
37,
33,
31,
29,
32,
31,
22,
17,
18,
18,
16,
12,
8,
8,
6,
5,
2,
1,
0,
1,
-1,
-2,
0,
-2,
-4,
-3,
-3,
-4,
-6,
-7,
-6,
-8,
-8,
-10,
-10,
-11,
-11,
-12,
-12,
-13,
-12,
-11,
-11,
-11,
-11,
-8,
-8,
-7,
-6,
-6,
-5,
-3,
-2,
0,
0,
0,
4,
5,
5,
7,
10,
10,
12,
14,
16,
18,
20,
22,
24,
26,
29,
31,
33,
34,
35,
36,
37,
38,
37,
38,
38,
37,
37,
36,
36,
35,
35,
32,
31,
29,
27,
26,
24,
22,
20,
17,
15,
14,
11,
9,
6,
4,
2,
1,
-2,
-2,
-4,
-6,
-6,
-8,
-10,
-11,
-12,
-12,
-14,
-15,
-14,
-14,
-15,
-16,
-17,
-16,
-15,
-15,
-15,
-15,
-15,
-13,
-12,
-12,
-11,
-10,
-10,
-10,
-10,
-6,
-7,
-13,
-7,
-4,
-7,
-10,
-8,
-9,
-5,
-3,
-5,
-7,
-7,
-2,
0,
2,
1,
2,
6,
9,
13,
17,
19,
22,
27,
30,
36,
39,
42,
45,
49,
52,
54,
56,
58,
61,
60,
61,
60,
60,
60,
59,
56,
54,
51,
50,
47,
44,
41,
37,
35,
34,
34,
20,
13,
14,
14,
10,
4,
0,
-2,
-3,
-6,
-10,
-12,
-16,
-16,
-20,
-22,
-23,
-25,
-28,
-31,
-34,
-34,
-30,
-30,
-36,
-39,
-36,
-33,
-32,
-33,
-34,
-31,
-27,
-25,
-24,
-22,
-20,
-17,
-14,
-11,
-10,
-7,
-4,
-1,
1,
2,
6,
8,
9,
12,
13,
14,
16,
17,
18,
19,
21,
21,
22,
22,
22,
24,
25,
28,
28,
29,
30,
33,
35,
36,
36,
37,
40,
40,
39,
39,
40,
40,
38,
37,
36,
34,
33,
32,
29,
27,
24,
21,
19,
17,
17,
18,
17,
0,
3,
12,
10,
2,
0,
1,
4,
8,
4,
1,
2,
5,
8,
7,
8,
7,
9,
10,
9,
9,
9,
9,
8,
8,
7,
6,
5,
4,
4,
3,
2,
0,
0,
0,
1,
0,
0,
-1,
0,
2,
2,
4,
5,
6,
8,
10,
12,
13,
15,
17,
19,
21,
22,
24,
25,
27,
28,
28,
29,
30,
28,
28,
28,
27,
26,
25,
22,
22,
21,
19,
17,
16,
14,
13,
11,
9,
6,
5,
3,
1,
0,
-3,
-4,
-6,
-7,
-10,
-10,
-12,
-14,
-15,
-15,
-16,
-17,
-17,
-18,
-17,
-18,
-17,
-17,
-15,
-14,
-14,
-12,
-10,
-8,
-6,
-5,
-4,
-2,
0,
1,
2,
4,
6,
8,
9,
10,
12,
11,
12,
13,
13,
13,
12,
13,
13,
14,
13,
12,
13,
14,
16,
12,
9,
10,
14,
18,
16,
13,
13,
16,
17,
17,
21,
17,
10,
21,
22,
18,
18,
17,
18,
18,
19,
23,
25,
21,
20,
21,
24,
24,
21,
20,
20,
19,
18,
16,
12,
11,
10,
9,
8,
5,
4,
3,
4,
4,
1,
1,
1,
2,
1,
0,
1,
1,
2,
2,
2,
2,
4,
4,
4,
4,
4,
5,
5,
5,
5,
5,
5,
4,
5,
6,
5,
5,
6,
5,
5,
8,
8,
8,
8,
9,
10,
11,
13,
13,
13,
13,
15,
17,
18,
18,
18,
18,
20,
20,
20,
19,
19,
18,
17,
16,
14,
14,
14,
14,
12,
10,
9,
9,
8,
5,
5,
2,
2,
1,
1,
1,
0,
0,
0,
0,
1,
0,
1,
2,
3,
5,
6,
8,
9,
10,
12,
14,
14,
16,
16,
16,
17,
19,
25,
26,
20,
16,
20,
24,
21,
18,
16,
17,
18,
16,
14,
13,
12,
11,
10,
10,
12,
1,
5,
10,
8,
6,
7,
8,
12,
13,
14,
13,
15,
17,
18,
20,
19,
21,
20,
20,
21,
21,
22,
21,
20,
20,
20,
20,
19,
17,
17,
17,
18,
17,
15,
14,
14,
13,
13,
11,
10,
10,
10,
8,
8,
7,
5,
4,
3,
3,
2,
2,
1,
1,
0,
0,
0,
0,
-2,
-2,
-2,
-2,
-2,
-2,
-2,
-3,
-2,
-3,
5,
2,
-5,
-7,
-3,
0,
-2,
-5,
-7,
-6,
-5,
-6,
-8,
-10,
-11,
-10,
-10,
-11,
-12,
-11,
-12,
-15,
-15,
-13,
-6,
-4,
-6,
-7,
-3,
2,
5,
8,
10,
13,
17,
21,
23,
26,
30,
34,
37,
37,
40,
41,
42,
42,
41,
41,
41,
40,
37,
35,
34,
30,
28,
24,
21,
18,
14,
12,
8,
5,
2,
1,
0,
-1,
-3,
-3,
-4,
-3,
-2,
-2,
0,
0,
1,
4,
6,
11,
5,
5,
15,
17,
13,
14,
16,
18,
20,
18,
17,
17,
16,
16,
16,
14,
14,
12,
11,
10,
9,
8,
5,
4,
2,
0,
-1,
-3,
-4,
