data/ALL0016/A0016CH2.CSV

Memory Length,4000,
Trigger Level,0.000E+00,
Source,CH2,
Probe,1X,
Vertical Units,V,
Vertical Scale,1.000E-02,
Vertical Position,0.000E+00,
Horizontal Units,s,
Horizontal Scale,1.000E-05,
Horizontal Position,4.000E-06,
Horizontal Mode,Main,
Sampling Period,4.000E-08,
Firmware,V1.13,
Time, ,
Mode,Fast,
Waveform Data,
16,
16,
7,
9,
9,
9,
9,
9,
9,
11,
12,
13,
14,
14,
15,
16,
17,
18,
19,
21,
22,
24,
26,
26,
25,
26,
27,
27,
28,
26,
25,
25,
25,
24,
23,
22,
20,
19,
18,
17,
16,
14,
13,
11,
10,
9,
8,
6,
5,
4,
2,
2,
1,
0,
0,
-1,
-2,
-2,
-2,
-2,
-2,
-3,
-4,
-3,
-3,
-3,
-2,
-2,
-2,
-2,
0,
0,
0,
1,
2,
3,
5,
5,
7,
8,
8,
10,
12,
13,
13,
14,
15,
16,
17,
18,
18,
18,
17,
18,
18,
18,
18,
18,
17,
18,
18,
17,
17,
15,
14,
13,
14,
13,
12,
12,
10,
10,
10,
9,
8,
8,
6,
4,
5,
5,
4,
3,
2,
2,
3,
2,
2,
1,
2,
2,
2,
2,
1,
2,
4,
2,
-4,
2,
4,
1,
-2,
0,
1,
4,
4,
2,
2,
3,
5,
7,
7,
8,
8,
10,
11,
12,
12,
14,
15,
16,
16,
17,
18,
18,
18,
18,
20,
21,
22,
21,
21,
22,
20,
21,
21,
20,
20,
19,
19,
18,
18,
18,
17,
16,
16,
16,
15,
14,
14,
14,
13,
13,
12,
12,
12,
12,
12,
12,
10,
11,
11,
10,
10,
9,
9,
9,
9,
9,
8,
8,
9,
8,
6,
8,
6,
6,
4,
2,
2,
1,
4,
6,
-2,
-6,
-2,
2,
1,
-2,
-1,
2,
3,
4,
4,
4,
7,
9,
12,
12,
13,
15,
16,
17,
18,
18,
20,
20,
20,
20,
20,
18,
18,
17,
18,
17,
16,
15,
13,
12,
12,
12,
12,
9,
8,
7,
6,
6,
5,
4,
4,
4,
2,
3,
2,
2,
1,
0,
1,
1,
1,
2,
5,
0,
2,
9,
9,
8,
6,
8,
11,
14,
14,
13,
14,
16,
18,
18,
18,
18,
19,
20,
20,
20,
19,
19,
18,
18,
16,
16,
14,
15,
13,
12,
10,
10,
8,
8,
8,
5,
2,
2,
1,
0,
0,
-2,
-3,
-2,
-3,
-3,
-4,
-4,
-3,
-2,
-2,
-1,
0,
1,
2,
4,
6,
8,
8,
9,
10,
12,
13,
16,
16,
17,
18,
20,
21,
21,
21,
22,
23,
24,
24,
24,
24,
22,
23,
22,
22,
20,
19,
19,
19,
18,
16,
15,
14,
13,
12,
11,
10,
9,
8,
7,
6,
5,
4,
3,
4,
3,
3,
1,
0,
1,
1,
1,
1,
0,
0,
0,
1,
1,
1,
1,
2,
5,
4,
4,
4,
5,
5,
6,
6,
6,
8,
8,
7,
8,
8,
8,
8,
8,
8,
8,
8,
7,
8,
8,
8,
6,
8,
10,
8,
2,
8,
10,
6,
5,
6,
7,
9,
10,
9,
9,
9,
12,
13,
12,
12,
10,
12,
12,
12,
10,
10,
10,
10,
10,
10,
12,
12,
12,
12,
12,
14,
14,
14,
16,
16,
16,
16,
16,
16,
16,
15,
14,
14,
13,
13,
13,
12,
12,
10,
9,
9,
9,
9,
8,
8,
6,
8,
9,
8,
6,
6,
7,
8,
8,
7,
6,
6,
5,
5,
5,
4,
2,
5,
8,
5,
-1,
0,
3,
5,
3,
-1,
0,
2,
3,
2,
2,
1,
2,
4,
5,
6,
8,
8,
9,
10,
12,
13,
14,
15,
14,
16,
18,
19,
21,
21,
21,
23,
24,
24,
24,
22,
22,
24,
24,
23,
22,
20,
20,
21,
21,
20,
19,
18,
19,
18,
16,
15,
14,
14,
14,
13,
12,
10,
9,
9,
9,
9,
8,
8,
6,
5,
5,
6,
9,
1,
1,
8,
8,
4,
1,
0,
2,
5,
3,
2,
1,
1,
2,
2,
1,
1,
1,
2,
2,
2,
1,
1,
1,
0,
2,
2,
1,
2,
3,
3,
5,
6,
6,
6,
8,
10,
10,
10,
10,
10,
12,
14,
14,
14,
14,
16,
16,
16,
16,
16,
17,
17,
17,
17,
17,
18,
18,
18,
18,
18,
18,
18,
18,
18,
18,
18,
17,
16,
16,
16,
14,
13,
12,
12,
12,
11,
9,
8,
8,
6,
6,
5,
5,
4,
3,
3,
2,
2,
1,
0,
1,
1,
2,
2,
1,
1,
2,
4,
4,
4,
4,
5,
5,
7,
7,
8,
8,
9,
9,
11,
11,
11,
10,
10,
10,
10,
10,
12,
12,
12,
12,
12,
12,
12,
10,
11,
12,
12,
11,
11,
12,
12,
12,
12,
12,
13,
12,
13,
13,
13,
13,
13,
14,
16,
16,
9,
14,
17,
16,
14,
14,
14,
17,
17,
16,
16,
16,
16,
16,
17,
16,
16,
16,
16,
15,
14,
13,
13,
12,
11,
10,
10,
8,
8,
8,
8,
9,
8,
6,
6,
6,
5,
5,
5,
4,
2,
2,
4,
3,
2,
2,
2,
2,
4,
5,
4,
4,
4,
6,
8,
8,
8,
8,
10,
10,
9,
9,
9,
13,
16,
14,
10,
11,
15,
16,
14,
12,
13,
13,
13,
12,
12,
12,
12,
12,
12,
11,
12,
13,
12,
10,
10,
11,
11,
11,
10,
9,
10,
10,
9,
9,
9,
9,
10,
9,
9,
8,
8,
9,
8,
8,
8,
8,
8,
8,
8,
8,
8,
8,
6,
8,
8,
8,
8,
8,
8,
8,
8,
8,
8,
8,
8,
6,
8,
8,
8,
8,
8,
9,
8,
8,
8,
9,
9,
9,
9,
9,
9,
9,
12,
4,
5,
10,
9,
4,
4,
3,
4,
6,
5,
3,
2,
3,
4,
4,
4,
3,
4,
5,
5,
6,
6,
8,
7,
8,
8,
9,
10,
11,
11,
12,
14,
16,
16,
15,
16,
17,
18,
18,
17,
17,
18,
18,
18,
17,
17,
16,
16,
16,
16,
15,
14,
13,
13,
13,
12,
11,
9,
9,
8,
8,
8,
7,
5,
2,
2,
3,
4,
2,
1,
1,
1,
1,
1,
1,
0,
-1,
-2,
1,
2,
2,
2,
1,
2,
2,
4,
4,
5,
5,
6,
8,
9,
9,
9,
10,
11,
12,
13,
14,
14,
14,
16,
16,
17,
17,
18,
18,
18,
19,
18,
18,
18,
18,
18,
16,
14,
14,
13,
13,
14,
12,
12,
12,
12,
14,
13,
12,
12,
13,
13,
12,
11,
10,
10,
12,
12,
10,
10,
10,
12,
12,
10,
10,
12,
13,
12,
4,
9,
11,
8,
4,
3,
3,
5,
4,
-1,
-2,
-2,
0,
0,
-3,
-5,
-5,
-4,
-3,
-3,
-4,
-4,
-3,
-3,
-2,
-2,
0,
0,
2,
3,
6,
8,
9,
10,
13,
14,
15,
17,
19,
20,
21,
23,
24,
26,
27,
27,
28,
29,
29,
29,
28,
28,
33,
34,
29,
23,
26,
30,
30,
26,
23,
22,
22,
22,
20,
16,
16,
16,
14,
14,
12,
10,
9,
9,
8,
8,
6,
6,
6,
6,
6,
5,
6,
5,
5,
5,
4,
5,
5,
5,
5,
4,
2,
4,
3,
4,
2,
1,
0,
1,
0,
0,
0,
0,
-1,
-2,
0,
0,
1,
0,
0,
0,
0,
1,
1,
1,
1,
2,
4,
4,
4,
5,
6,
6,
7,
8,
8,
9,
10,
11,
10,
10,
12,
12,
13,
14,
14,
14,
14,
16,
16,
17,
18,
17,
20,
13,
13,
20,
18,
16,
14,
14,
16,
18,
16,
14,
12,
12,
14,
16,
14,
12,
12,
14,
14,
13,
13,
12,
12,
13,
12,
13,
13,
12,
12,
13,
13,
12,
12,
12,
13,
12,
12,
12,
11,
10,
10,
9,
9,
8,
8,
8,
7,
6,
6,
5,
4,
2,
2,
2,
0,
0,
-2,
0,
-1,
-2,
-2,
-3,
-2,
-2,
-2,
-3,
-2,
-1,
0,
1,
1,
2,
3,
6,
6,
5,
8,
10,
10,
12,
13,
13,
14,
15,
16,
17,
17,
18,
16,
16,
16,
17,
16,
16,
14,
14,
14,
15,
14,
12,
12,
12,
12,
12,
11,
10,
10,
10,
9,
10,
10,
10,
10,
12,
12,
12,
12,
12,
12,
13,
12,
13,
14,
14,
14,
14,
14,
14,
16,
16,
16,
16,
16,
16,
16,
15,
16,
14,
14,
13,
10,
11,
11,
12,
12,
2,
8,
11,
9,
5,
5,
5,
6,
8,
6,
4,
4,
5,
6,
6,
5,
5,
5,
6,
6,
6,
5,
7,
8,
9,
9,
9,
9,
10,
11,
11,
12,
12,
12,
13,
13,
14,
14,
14,
13,
12,
10,
16,
18,
13,
6,
8,
12,
12,
8,
5,
6,
6,
6,
5,
4,
2,
2,
3,
3,
2,
1,
2,
2,
2,
3,
3,
4,
5,
5,
6,
6,
8,
9,
10,
11,
13,
14,
14,
14,
17,
17,
17,
18,
19,
20,
20,
20,
20,
21,
19,
18,
18,
20,
19,
17,
16,
15,
16,
14,
14,
13,
12,
11,
10,
9,
8,
8,
8,
6,
5,
4,
3,
4,
2,
1,
0,
0,
0,
0,
0,
0,
1,
0,
0,
0,
0,
1,
1,
1,
1,
2,
3,
4,
4,
5,
4,
5,
8,
8,
7,
6,
8,
9,
12,
4,
2,
10,
11,
8,
8,
7,
8,
10,
10,
9,
6,
8,
10,
11,
11,
10,
10,
10,
11,
11,
12,
12,
12,
11,
10,
12,
12,
12,
11,
12,
12,
13,
13,
13,
14,
14,
14,
13,
13,
14,
14,
12,
10,
12,
12,
12,
11,
10,
9,
10,
10,
9,
9,
10,
9,
9,
10,
9,
10,
10,
9,
8,
8,
8,
8,
6,
6,
5,
4,
4,
4,
4,
4,
5,
4,
5,
5,
5,
6,
5,
5,
5,
6,
6,
6,
6,
5,
6,
6,
6,
5,
6,
6,
7,
6,
6,
8,
8,
7,
8,
7,
6,
6,
8,
8,
7,
7,
8,
8,
8,
8,
8,
9,
9,
10,
10,
10,
9,
10,
10,
10,
10,
12,
12,
12,
12,
12,
13,
14,
14,
14,
14,
15,
14,
16,
16,
16,
16,
16,
16,
16,
16,
16,
17,
18,
7,
12,
16,
14,
9,
9,
8,
10,
12,
10,
8,
8,
10,
9,
9,
9,
8,
9,
8,
8,
8,
6,
8,
8,
8,
6,
5,
6,
7,
7,
6,
9,
13,
10,
5,
7,
10,
12,
10,
7,
8,
8,
9,
8,
6,
5,
4,
6,
6,
5,
4,
3,
4,
3,
4,
4,
4,
4,
4,
4,
4,
5,
5,
5,
6,
6,
6,
8,
9,
10,
11,
10,
12,
13,
14,
14,
14,
15,
16,
17,
16,
16,
17,
18,
19,
18,
18,
18,
20,
20,
18,
17,
18,
18,
18,
18,
17,
17,
18,
17,
16,
15,
14,
14,
12,
12,
12,
13,
11,
10,
9,
9,
10,
10,
9,
8,
8,
9,
9,
9,
8,
7,
6,
7,
7,
7,
6,
5,
5,
6,
6,
5,
5,
6,
5,
5,
5,
5,
5,
5,
6,
5,
5,
5,
10,
4,
1,
9,
8,
4,
2,
4,
5,
8,
8,
5,
5,
6,
9,
9,
9,
8,
9,
10,
12,
12,
11,
13,
13,
14,
13,
15,
14,
15,
15,
16,
16,
16,
16,
16,
16,
16,
13,
13,
14,
14,
13,
12,
10,
12,
12,
10,
10,
10,
10,
9,
9,
8,
7,
6,
6,
5,
4,
4,
5,
3,
1,
1,
1,
1,
0,
0,
-2,
0,
-1,
-1,
-2,
-2,
-1,
-2,
-1,
-2,
-1,
0,
0,
1,
1,
2,
4,
6,
8,
9,
11,
13,
14,
15,
17,
19,
20,
20,
21,
22,
24,
24,
24,
26,
26,
28,
27,
28,
28,
27,
27,
27,
29,
27,
26,
25,
25,
25,
24,
24,
22,
21,
21,
20,
19,
17,
16,
16,
14,
13,
12,
10,
10,
8,
6,
5,
4,
2,
1,
0,
-2,
-3,
-4,
-6,
-6,
-7,
-8,
-8,
-6,
-17,
-14,
-8,
-10,
-14,
-15,
-14,
-11,
-10,
-11,
-12,
-11,
-8,
-6,
-6,
-5,
-5,
-3,
0,
0,
0,
2,
9,
12,
6,
6,
12,
18,
16,
16,
16,
19,
22,
22,
22,
22,
22,
26,
25,
23,
22,
25,
24,
24,
24,
22,
22,
23,
22,
21,
20,
18,
18,
18,
17,
17,
16,
15,
15,
14,
12,
12,
12,
12,
10,
10,
8,
8,
8,
8,
6,
5,
5,
5,
4,
3,
3,
1,
1,
1,
0,
0,
0,
-2,
-2,
-2,
-2,
-3,
-3,
-2,
-3,
-3,
-2,
-2,
-1,
0,
0,
0,
1,
2,
2,
3,
4,
5,
6,
7,
8,
10,
10,
12,
12,
13,
15,
16,
16,
16,
16,
16,
18,
18,
18,
18,
18,
18,
18,
19,
19,
19,
18,
18,
18,
18,
17,
17,
17,
17,
16,
16,
16,
16,
15,
15,
14,
14,
18,
12,
8,
14,
14,
10,
9,
8,
10,
12,
11,
9,
8,
7,
8,
8,
7,
5,
4,
4,
5,
4,
2,
2,
4,
5,
4,
5,
6,
8,
8,
8,
10,
10,
10,
10,
10,
11,
10,
10,
10,
10,
9,
8,
9,
9,
9,
8,
8,
8,
8,
8,
6,
6,
5,
6,
6,
5,
4,
5,
5,
5,
5,
5,
6,
6,
7,
7,
7,
8,
9,
8,
10,
11,
10,
11,
12,
12,
13,
14,
14,
14,
15,
16,
16,
17,
16,
16,
17,
16,
17,
16,
14,
14,
14,
14,
14,
12,
11,
12,
12,
12,
10,
10,
11,
12,
12,
10,
10,
10,
12,
11,
11,
12,
11,
12,
10,
10,
10,
9,
8,
8,
7,
8,
8,
7,
5,
4,
4,
4,
4,
4,
2,
1,
1,
2,
1,
0,
-1,
0,
1,
0,
-1,
0,
1,
3,
5,
-4,
2,
6,
4,
1,
3,
4,
7,
9,
6,
6,
11,
15,
12,
6,
10,
15,
17,
16,
14,
16,
18,
20,
19,
18,
18,
19,
20,
20,
20,
20,
21,
21,
20,
21,
21,
20,
20,
20,
20,
20,
20,
19,
18,
18,
18,
18,
17,
16,
16,
15,
13,
13,
13,
13,
12,
12,
12,
11,
10,
10,
10,
9,
8,
8,
7,
8,
7,
7,
6,
4,
4,
4,
5,
4,
4,
3,
4,
4,
3,
2,
3,
2,
2,
2,
4,
4,
3,
3,
3,
4,
5,
4,
4,
4,
4,
5,
5,
5,
6,
6,
6,
6,
9,
8,
9,
10,
11,
11,
10,
12,
13,
12,
13,
13,
14,
14,
14,
14,
14,
13,
11,
11,
13,
14,
12,
10,
11,
12,
12,
12,
11,
11,
12,
12,
12,
10,
10,
11,
11,
10,
9,
9,
9,
13,
5,
2,
8,
9,
4,
3,
2,
3,
5,
4,
2,
0,
1,
3,
4,
3,
1,
2,
4,
4,
5,
4,
5,
6,
6,
6,
5,
5,
6,
7,
6,
6,
8,
8,
8,
8,
8,
9,
10,
12,
10,
10,
12,
12,
12,
13,
12,
12,
13,
13,
13,
14,
14,
14,
13,
13,
14,
15,
16,
16,
16,
17,
18,
19,
18,
18,
18,
18,
20,
20,
20,
19,
20,
19,
19,
19,
18,
18,
18,
18,
18,
17,
16,
16,
16,
16,
15,
14,
15,
14,
13,
14,
13,
13,
13,
12,
12,
12,
11,
10,
10,
9,
9,
8,
8,
8,
6,
5,
5,
5,
4,
2,
2,
2,
1,
1,
0,
-2,
-1,
0,
0,
-1,
-2,
0,
0,
-1,
-1,
0,
0,
0,
0,
0,
0,
2,
3,
3,
4,
3,
5,
7,
7,
8,
9,
10,
12,
14,
8,
17,
18,
11,
10,
16,
17,
18,
17,
16,
16,
17,
18,
18,
17,
16,
16,
17,
17,
16,
16,
14,
14,
14,
13,
13,
13,
12,
12,
10,
9,
10,
10,
9,
8,
8,
8,
8,
7,
6,
6,
6,
6,
6,
6,
5,
5,
5,
5,
4,
4,
5,
5,
5,
4,
2,
4,
5,
6,
4,
4,
4,
6,
6,
5,
6,
5,
8,
8,
8,
6,
8,
8,
8,
8,
8,
8,
10,
9,
9,
9,
9,
10,
10,
10,
11,
11,
12,
12,
12,
12,
13,
13,
13,
13,
13,
13,
14,
14,
15,
14,
14,
15,
16,
16,
16,
16,
15,
13,
12,
12,
11,
10,
9,
8,
8,
8,
6,
6,
5,
5,
5,
5,
7,
6,
6,
6,
6,
6,
6,
6,
6,
6,
5,
5,
6,
6,
6,
6,
6,
6,
7,
8,
9,
12,
4,
1,
9,
10,
7,
5,
5,
5,
8,
6,
5,
4,
4,
6,
6,
5,
4,
3,
4,
4,
4,
4,
4,
4,
4,
3,
4,
4,
5,
5,
7,
8,
9,
10,
10,
11,
12,
13,
14,
13,
12,
13,
15,
16,
16,
16,
15,
16,
16,
16,
16,
16,
16,
16,
16,
16,
16,
16,
16,
14,
15,
14,
14,
13,
12,
11,
11,
12,
12,
10,
10,
9,
10,
9,
9,
9,
10,
10,
10,
10,
10,
10,
11,
10,
9,
10,
10,
10,
10,
11,
11,
11,
13,
13,
13,
14,
13,
14,
16,
12,
12,
15,
18,
14,
11,
13,
17,
15,
8,
9,
12,
12,
9,
7,
9,
9,
7,
5,
6,
6,
7,
5,
2,
2,
4,
5,
5,
4,
2,
4,
4,
4,
6,
4,
5,
6,
8,
9,
11,
6,
4,
11,
14,
10,
10,
16,
8,
16,
19,
14,
10,
12,
13,
16,
17,
14,
10,
13,
17,
17,
11,
10,
15,
24,
4,
9,
26,
24,
12,
24,
26,
21,
21,
23,
24,
22,
21,
22,
24,
24,
24,
22,
20,
21,
20,
20,
18,
17,
17,
16,
16,
14,
13,
12,
12,
11,
10,
8,
7,
6,
6,
5,
4,
2,
1,
0,
0,
0,
-2,
-2,
-3,
-4,
-5,
-4,
-4,
-5,
-6,
-5,
-4,
-6,
-5,
-5,
-4,
-2,
-1,
0,
-1,
0,
1,
2,
4,
4,
4,
5,
8,
9,
10,
12,
12,
12,
14,
14,
16,
17,
18,
18,
18,
18,
20,
21,
22,
22,
22,
21,
22,
22,
21,
22,
22,
21,
20,
19,
18,
17,
16,
15,
14,
13,
13,
12,
11,
8,
6,
6,
8,
5,
4,
4,
3,
3,
4,
3,
3,
4,
5,
5,
6,
6,
6,
8,
12,
5,
2,
9,
10,
6,
4,
2,
4,
5,
4,
3,
3,
4,
5,
4,
4,
3,
4,
4,
3,
2,
2,
2,
4,
4,
4,
4,
6,
8,
8,
8,
10,
14,
14,
16,
17,
18,
18,
20,
22,
22,
22,
22,
25,
26,
26,
26,
26,
27,
28,
26,
26,
25,
24,
24,
22,
23,
22,
21,
19,
18,
18,
16,
14,
12,
11,
10,
9,
8,
6,
5,
3,
3,
2,
1,
0,
-2,
-2,
-2,
-2,
-3,
-4,
-4,
-4,
-4,
-4,
-5,
-5,
-5,
-4,
-4,
-4,
-4,
-3,
-3,
-2,
-3,
-2,
-2,
-1,
0,
0,
1,
1,
2,
2,
4,
3,
4,
5,
6,
6,
8,
8,
9,
9,
9,
10,
10,
10,
11,
12,
13,
12,
13,
14,
18,
21,
17,
11,
16,
21,
21,
18,
17,
19,
21,
21,
20,
19,
18,
19,
18,
17,
18,
20,
10,
15,
17,
13,
10,
10,
8,
9,
10,
8,
5,
5,
6,
7,
5,
4,
4,
5,
6,
6,
5,
5,
6,
8,
8,
8,
8,
9,
10,
10,
12,
13,
13,
13,
14,
15,
16,
16,
17,
16,
16,
17,
16,
16,
16,
16,
15,
13,
13,
12,
13,
12,
12,
12,
10,
10,
10,
10,
10,
9,
6,
6,
5,
4,
3,
1,
1,
1,
2,
3,
2,
2,
3,
4,
6,
8,
8,
8,
10,
10,
12,
12,
13,
14,
14,
14,
14,
14,
14,
14,
14,
14,
15,
15,
14,
14,
14,
14,
13,
13,
11,
11,
11,
10,
10,
9,
7,
7,
8,
6,
5,
4,
4,
4,
4,
4,
2,
2,
3,
2,
2,
3,
3,
4,
3,
4,
4,
5,
6,
7,
8,
8,
10,
10,
12,
13,
13,
14,
14,
15,
14,
16,
16,
17,
20,
12,
10,
18,
20,
14,
12,
12,
14,
17,
15,
13,
12,
13,
14,
14,
13,
12,
12,
12,
13,
13,
12,
12,
12,
12,
12,
12,
14,
14,
14,
14,
14,
16,
16,
16,
15,
17,
17,
17,
16,
16,
16,
18,
16,
14,
15,
14,
14,
13,
12,
12,
12,
12,
11,
10,
10,
10,
8,
6,
8,
6,
5,
4,
4,
3,
4,
2,
2,
2,
1,
1,
0,
0,
-2,
0,
0,
0,
0,
0,
1,
0,
2,
3,
4,
3,
4,
5,
6,
6,
8,
8,
9,
10,
11,
11,
11,
11,
12,
13,
13,
13,
13,
13,
15,
14,
14,
14,
14,
16,
16,
16,
14,
14,
14,
14,
17,
19,
14,
10,
12,
16,
17,
13,
12,
12,
13,
14,
14,
12,
11,
12,
12,
12,
12,
12,
11,
10,
10,
10,
11,
10,
9,
9,
9,
10,
9,
-1,
4,
6,
4,
1,
0,
-1,
2,
1,
0,
-2,
-2,
0,
1,
1,
1,
0,
0,
2,
4,
4,
5,
6,
7,
8,
8,
11,
12,
13,
13,
14,
18,
18,
17,
18,
18,
18,
18,
20,
19,
18,
19,
19,
18,
17,
16,
16,
16,
16,
14,
13,
12,
12,
11,
10,
10,
10,
9,
9,
9,
8,
7,
6,
7,
6,
6,
6,
6,
7,
6,
5,
8,
8,
7,
7,
6,
8,
9,
8,
7,
6,
6,
8,
8,
6,
5,
5,
5,
5,
4,
2,
3,
4,
4,
3,
3,
4,
4,
3,
3,
3,
4,
3,
4,
5,
5,
7,
9,
10,
12,
13,
15,
17,
18,
19,
20,
23,
24,
23,
24,
25,
26,
26,
26,
26,
26,
26,
26,
27,
27,
26,
24,
23,
24,
23,
21,
20,
20,
20,
19,
17,
17,
16,
17,
19,
10,
9,
13,
14,
10,
8,
6,
8,
9,
8,
6,
4,
5,
5,
5,
5,
4,
4,
4,
4,
4,
4,
4,
2,
2,
3,
3,
4,
4,
4,
4,
4,
6,
5,
5,
5,
5,
5,
5,
5,
4,
4,
4,
3,
2,
2,
3,
1,
1,
1,
0,
-2,
-2,
-2,
-1,
-2,
-2,
-3,
-2,
-2,
-2,
0,
0,
1,
1,
1,
1,
4,
4,
5,
5,
6,
9,
9,
9,
9,
10,
12,
13,
14,
13,
14,
15,
16,
16,
16,
17,
18,
19,
18,
18,
18,
18,
19,
19,
18,
18,
17,
17,
16,
16,
15,
14,
13,
12,
14,
17,
15,
9,
9,
13,
14,
13,
10,
10,
12,
13,
12,
12,
12,
12,
12,
12,
14,
13,
13,
13,
14,
13,
13,
13,
14,
14,
13,
13,
13,
12,
12,
12,
11,
10,
9,
8,
8,
9,
10,
1,
6,
8,
6,
2,
3,
2,
3,
4,
0,
-1,
-2,
-2,
-3,
-3,
-4,
-6,
-5,
-3,
-3,
-3,
-2,
-1,
1,
2,
4,
4,
5,
6,
8,
10,
12,
12,
13,
13,
15,
15,
16,
16,
16,
16,
17,
17,
18,
18,
17,
17,
17,
16,
14,
14,
14,
13,
12,
12,
12,
13,
11,
10,
9,
9,
9,
9,
9,
9,
7,
7,
7,
8,
6,
6,
5,
6,
5,
4,
4,
4,
5,
4,
4,
4,
4,
5,
6,
6,
6,
8,
8,
8,
9,
10,
10,
10,
10,
12,
12,
13,
13,
13,
13,
14,
16,
16,
16,
16,
16,
16,
16,
16,
18,
16,
16,
16,
17,
16,
16,
16,
14,
15,
14,
14,
14,
12,
12,
12,
12,
12,
10,
10,
10,
10,
10,
10,
10,
10,
10,
10,
10,
9,
10,
10,
10,
11,
11,
13,
6,
5,
12,
11,
7,
5,
4,
6,
9,
8,
5,
5,
6,
9,
8,
8,
6,
6,
6,
8,
8,
8,
8,
8,
8,
6,
7,
8,
8,
8,
8,
9,
10,
9,
9,
10,
10,
9,
10,
9,
10,
9,
10,
8,
8,
8,
8,
8,
8,
8,
7,
8,
9,
9,
8,
8,
8,
8,
10,
10,
10,
10,
10,
10,
12,
12,
12,
12,
12,
12,
13,
14,
13,
14,
14,
14,
14,
13,
14,
14,
14,
14,
13,
14,
13,
12,
12,
10,
10,
9,
8,
7,
5,
4,
5,
8,
5,
0,
0,
3,
5,
2,
1,
1,
2,
4,
4,
4,
2,
4,
5,
6,
8,
8,
9,
10,
10,
10,
11,
12,
12,
12,
12,
14,
16,
16,
16,
17,
17,
17,
17,
18,
17,
18,
17,
16,
17,
18,
16,
15,
16,
16,
16,
14,
17,
16,
5,
11,
16,
12,
8,
7,
8,
9,
10,
8,
6,
6,
8,
9,
8,
7,
8,
8,
8,
8,
8,
8,
9,
8,
8,
9,
9,
9,
8,
8,
9,
10,
9,
8,
9,
10,
9,
7,
6,
5,
5,
5,
5,
5,
5,
4,
5,
4,
4,
6,
6,
7,
8,
8,
9,
9,
10,
10,
10,
11,
12,
12,
13,
14,
14,
14,
15,
16,
18,
17,
17,
17,
16,
17,
19,
19,
18,
18,
17,
17,
17,
