data/ALL0004/A0004CH2.CSV

Memory Length,4000,
Trigger Level,0.000E+00,
Source,CH2,
Probe,1X,
Vertical Units,V,
Vertical Scale,1.000E-02,
Vertical Position,0.000E+00,
Horizontal Units,s,
Horizontal Scale,2.500E-05,
Horizontal Position,4.000E-06,
Horizontal Mode,Main,
Sampling Period,1.000E-07,
Firmware,V1.13,
Time, ,
Mode,Fast,
Waveform Data,
12,
12,
12,
10,
10,
10,
13,
16,
24,
28,
33,
34,
36,
29,
32,
21,
18,
13,
8,
2,
-2,
-4,
-7,
-10,
-7,
-10,
-13,
-11,
-10,
-10,
-5,
-4,
0,
2,
4,
6,
8,
10,
9,
10,
9,
8,
9,
9,
12,
14,
16,
20,
23,
24,
25,
26,
25,
24,
23,
21,
20,
20,
19,
17,
15,
13,
10,
6,
4,
1,
0,
-2,
-1,
-1,
1,
4,
6,
10,
12,
13,
13,
10,
8,
4,
1,
-2,
0,
-4,
-2,
1,
7,
8,
15,
16,
19,
21,
24,
24,
27,
26,
27,
30,
22,
18,
12,
8,
0,
-5,
-9,
-16,
-16,
-16,
-15,
-11,
-6,
-2,
3,
5,
10,
12,
14,
18,
21,
26,
30,
34,
37,
38,
38,
40,
40,
40,
38,
36,
35,
32,
30,
24,
18,
10,
3,
-4,
-11,
-18,
-24,
-36,
-35,
-42,
-43,
-47,
-42,
-41,
-34,
-27,
-19,
-11,
-1,
10,
17,
25,
30,
37,
40,
43,
44,
45,
45,
43,
40,
37,
34,
29,
26,
21,
16,
17,
14,
14,
12,
9,
8,
4,
0,
-2,
-4,
-12,
-4,
-13,
-6,
-10,
-5,
-4,
0,
4,
8,
13,
18,
22,
26,
27,
29,
25,
25,
15,
19,
10,
9,
1,
1,
-1,
0,
2,
5,
10,
16,
20,
24,
24,
22,
18,
12,
5,
-3,
-10,
-12,
-14,
-9,
-2,
8,
17,
25,
32,
34,
34,
30,
25,
20,
14,
10,
6,
5,
5,
5,
6,
8,
9,
8,
8,
6,
4,
2,
0,
-2,
-3,
-3,
-2,
-2,
-1,
1,
2,
2,
-2,
3,
-3,
-1,
-4,
-4,
-2,
-2,
3,
5,
10,
15,
20,
26,
28,
30,
28,
36,
28,
33,
29,
30,
29,
28,
28,
25,
22,
20,
17,
14,
10,
8,
4,
4,
1,
0,
-2,
-3,
-4,
-5,
-7,
-8,
-11,
-15,
-10,
-19,
-11,
-14,
-7,
-3,
3,
10,
18,
26,
32,
36,
41,
44,
47,
46,
40,
37,
30,
21,
12,
1,
-9,
-18,
-23,
-23,
-20,
-16,
-10,
-4,
1,
5,
10,
14,
16,
20,
20,
22,
24,
23,
24,
24,
24,
26,
26,
25,
28,
28,
29,
27,
28,
26,
28,
19,
21,
16,
14,
8,
1,
-6,
-15,
-23,
-34,
-41,
-50,
-45,
-51,
-44,
-40,
-31,
-22,
-12,
0,
7,
14,
22,
30,
36,
43,
48,
53,
56,
60,
58,
58,
54,
49,
44,
37,
30,
23,
18,
12,
6,
1,
-3,
-6,
-10,
-14,
-18,
-19,
-22,
-20,
-21,
-17,
-18,
-11,
-10,
-6,
-1,
4,
8,
14,
18,
22,
25,
30,
32,
36,
35,
37,
36,
36,
33,
28,
22,
15,
8,
1,
-4,
-7,
-11,
-11,
-11,
-6,
-7,
-2,
-2,
2,
4,
6,
9,
9,
12,
14,
12,
16,
14,
18,
20,
22,
24,
25,
24,
24,
22,
17,
24,
14,
18,
14,
14,
10,
7,
3,
-2,
-6,
-10,
-14,
-15,
-18,
-19,
-18,
-18,
-16,
-14,
-11,
-7,
-3,
0,
2,
5,
8,
10,
14,
17,
21,
26,
30,
29,
40,
38,
43,
40,
41,
38,
36,
34,
30,
28,
25,
23,
20,
14,
10,
3,
-2,
-10,
-15,
-20,
-22,
-23,
-22,
-20,
-15,
-10,
-4,
0,
6,
8,
11,
12,
12,
12,
11,
10,
12,
13,
17,
21,
24,
29,
30,
30,
27,
21,
16,
7,
-1,
-9,
-15,
-19,
-19,
-16,
-11,
-6,
1,
1,
10,
14,
16,
20,
24,
28,
30,
32,
33,
32,
32,
32,
29,
30,
29,
28,
27,
25,
22,
18,
14,
10,
4,
-3,
-7,
-12,
-16,
-18,
-18,
-18,
-16,
-14,
-13,
-11,
-9,
-8,
-7,
-7,
-6,
-3,
0,
4,
9,
15,
20,
25,
28,
30,
32,
32,
30,
30,
29,
28,
26,
24,
22,
17,
16,
15,
6,
4,
-2,
-3,
-6,
-6,
-5,
-4,
0,
2,
5,
8,
10,
13,
16,
16,
17,
18,
17,
19,
15,
16,
13,
10,
9,
7,
6,
6,
8,
9,
10,
8,
14,
6,
9,
4,
3,
1,
0,
0,
0,
0,
0,
2,
4,
9,
11,
17,
20,
25,
25,
26,
25,
22,
18,
18,
14,
9,
10,
10,
9,
10,
9,
9,
8,
8,
6,
8,
8,
9,
10,
10,
11,
10,
8,
4,
0,
-5,
-8,
-11,
-11,
-10,
-9,
-5,
-2,
4,
6,
11,
14,
17,
20,
20,
19,
19,
19,
17,
16,
14,
13,
13,
12,
16,
15,
17,
19,
20,
20,
21,
21,
20,
17,
16,
14,
13,
8,
5,
2,
4,
0,
1,
-2,
-2,
-6,
-5,
-4,
-4,
0,
0,
3,
6,
10,
14,
18,
18,
19,
19,
14,
10,
4,
0,
-6,
-8,
-8,
-5,
0,
7,
13,
17,
20,
20,
17,
13,
9,
9,
5,
9,
9,
13,
17,
21,
26,
29,
30,
30,
29,
28,
24,
21,
17,
14,
13,
13,
6,
10,
6,
8,
5,
6,
4,
2,
0,
-3,
-6,
-8,
-8,
-8,
-5,
-3,
2,
8,
12,
17,
17,
18,
18,
16,
12,
10,
6,
5,
5,
8,
12,
12,
18,
18,
18,
18,
17,
16,
14,
13,
11,
9,
2,
8,
-4,
-1,
-8,
-8,
-10,
-9,
-9,
-6,
-2,
2,
6,
12,
16,
19,
17,
28,
26,
30,
28,
30,
28,
28,
26,
24,
22,
20,
19,
16,
14,
10,
5,
-1,
-6,
-10,
-13,
-15,
-15,
-11,
-8,
-2,
3,
9,
12,
15,
16,
18,
17,
18,
18,
17,
18,
17,
17,
16,
16,
16,
16,
14,
14,
14,
13,
13,
12,
12,
11,
12,
12,
10,
11,
11,
11,
10,
5,
10,
3,
2,
-4,
0,
-8,
-6,
-8,
-3,
-3,
1,
5,
9,
10,
12,
12,
8,
21,
8,
13,
10,
13,
14,
16,
18,
18,
18,
17,
18,
16,
16,
16,
16,
14,
14,
13,
10,
8,
3,
0,
-2,
-6,
-6,
-6,
-4,
-2,
1,
5,
6,
10,
11,
13,
14,
15,
16,
16,
15,
14,
14,
6,
6,
1,
1,
0,
0,
0,
2,
6,
11,
16,
18,
22,
22,
22,
21,
18,
16,
12,
8,
4,
2,
0,
1,
2,
5,
6,
9,
10,
12,
16,
18,
22,
24,
28,
30,
32,
30,
29,
27,
24,
19,
16,
10,
8,
6,
5,
4,
3,
1,
4,
-1,
0,
-5,
-6,
-8,
-8,
-10,
-14,
-11,
-5,
-4,
6,
8,
17,
20,
24,
26,
28,
25,
21,
17,
13,
8,
4,
1,
0,
0,
1,
1,
4,
6,
10,
10,
10,
9,
9,
6,
5,
5,
5,
6,
6,
8,
10,
10,
12,
11,
10,
12,
10,
10,
9,
8,
8,
8,
12,
14,
17,
22,
24,
24,
25,
21,
21,
15,
12,
8,
8,
6,
6,
6,
7,
6,
5,
6,
5,
6,
4,
6,
9,
10,
12,
13,
13,
12,
10,
8,
4,
0,
-4,
0,
-6,
-2,
-2,
4,
8,
15,
22,
29,
36,
40,
41,
41,
38,
34,
29,
24,
20,
16,
12,
8,
13,
0,
6,
-4,
-3,
-11,
-12,
-18,
-20,
-23,
-23,
-27,
-19,
-19,
-10,
-7,
1,
6,
12,
16,
18,
21,
23,
23,
25,
26,
28,
30,
30,
29,
29,
26,
24,
19,
16,
14,
12,
9,
5,
2,
0,
-4,
-5,
-7,
-6,
-6,
-3,
-1,
2,
2,
5,
6,
5,
6,
6,
8,
8,
8,
12,
15,
18,
21,
22,
24,
24,
22,
21,
19,
16,
4,
18,
6,
15,
9,
12,
9,
11,
8,
6,
6,
5,
6,
4,
2,
1,
0,
0,
1,
2,
5,
10,
14,
20,
24,
30,
33,
36,
38,
38,
36,
33,
28,
22,
24,
9,
14,
4,
4,
-2,
-4,
-7,
-11,
-14,
-17,
-19,
-20,
-22,
-22,
-20,
-19,
-15,
-10,
-4,
2,
9,
14,
21,
22,
29,
24,
28,
22,
21,
20,
17,
17,
17,
19,
22,
24,
26,
28,
28,
26,
24,
22,
20,
18,
16,
14,
9,
6,
0,
-4,
-10,
-12,
-15,
-16,
-12,
-10,
-2,
1,
8,
12,
16,
17,
18,
18,
16,
15,
15,
16,
17,
17,
19,
21,
24,
25,
25,
23,
19,
14,
11,
6,
2,
1,
0,
-6,
-6,
-8,
-11,
-11,
-13,
-12,
-11,
-7,
-1,
5,
12,
18,
24,
26,
29,
29,
29,
36,
27,
33,
30,
34,
34,
35,
34,
34,
32,
29,
24,
18,
12,
6,
0,
-4,
-10,
-14,
-16,
-18,
-19,
-18,
-17,
-14,
-14,
-10,
-8,
-6,
-4,
-2,
-1,
0,
0,
5,
8,
12,
16,
22,
24,
23,
24,
24,
21,
20,
13,
19,
11,
16,
14,
17,
21,
20,
22,
21,
18,
16,
9,
2,
-4,
-9,
-14,
-15,
-16,
-12,
-8,
-2,
4,
10,
16,
21,
23,
26,
26,
26,
25,
24,
22,
20,
17,
15,
13,
12,
10,
8,
8,
8,
5,
8,
4,
4,
3,
6,
10,
13,
17,
20,
17,
15,
9,
5,
1,
-9,
-7,
-10,
-4,
0,
6,
15,
22,
29,
34,
37,
38,
37,
33,
30,
26,
21,
17,
12,
5,
-3,
-8,
-18,
-21,
-27,
-31,
-32,
-31,
-27,
-23,
-18,
-12,
-5,
-2,
6,
12,
18,
25,
28,
32,
36,
38,
40,
38,
35,
33,
29,
24,
18,
14,
12,
9,
11,
2,
12,
8,
12,
9,
10,
6,
5,
1,
-1,
-2,
-2,
0,
4,
10,
17,
22,
25,
24,
23,
20,
14,
10,
8,
6,
8,
9,
10,
10,
10,
9,
6,
4,
1,
0,
-2,
-5,
-10,
-12,
-14,
-15,
-12,
-11,
-6,
-3,
2,
7,
12,
13,
24,
17,
29,
26,
32,
31,
33,
31,
30,
22,
28,
21,
24,
19,
21,
20,
20,
18,
16,
13,
9,
5,
-4,
4,
-4,
2,
2,
8,
11,
14,
17,
18,
18,
17,
16,
12,
9,
6,
4,
4,
3,
3,
3,
2,
4,
2,
3,
2,
0,
-1,
-4,
-5,
-9,
-11,
-11,
-11,
-10,
-6,
-3,
2,
9,
14,
20,
22,
26,
26,
24,
17,
16,
8,
5,
2,
2,
5,
6,
11,
16,
21,
27,
30,
34,
36,
37,
37,
34,
30,
25,
20,
12,
6,
0,
-5,
-11,
-15,
-18,
-19,
-18,
-17,
-13,
-9,
-3,
-1,
8,
12,
15,
14,
16,
17,
18,
24,
27,
32,
32,
40,
38,
38,
34,
28,
21,
15,
8,
2,
-3,
-7,
-8,
-7,
-5,
-9,
-5,
-5,
-4,
-3,
-4,
-4,
-4,
-4,
-3,
-1,
2,
4,
6,
8,
10,
12,
14,
16,
15,
16,
15,
13,
14,
14,
15,
16,
16,
18,
18,
20,
20,
20,
20,
20,
20,
18,
16,
14,
11,
8,
4,
1,
-2,
-4,
-7,
-6,
-7,
-3,
-2,
2,
8,
14,
18,
22,
26,
30,
28,
22,
18,
16,
10,
10,
9,
6,
10,
12,
17,
21,
24,
25,
21,
18,
12,
5,
-2,
-11,
-14,
-13,
-23,
-24,
-28,
-24,
-25,
-19,
-15,
-8,
-4,
3,
8,
12,
18,
25,
30,
36,
40,
43,
46,
47,
48,
48,
45,
42,
36,
30,
23,
16,
10,
5,
0,
-2,
-5,
-8,
-10,
-10,
-13,
-12,
-14,
-11,
-12,
-6,
-4,
2,
8,
15,
22,
28,
33,
36,
38,
37,
34,
32,
28,
24,
20,
18,
13,
8,
2,
-4,
-10,
-12,
-16,
-18,
-19,
-18,
-16,
-15,
-12,
-11,
-10,
-9,
-10,
-9,
-10,
-9,
-9,
-8,
-6,
-2,
4,
9,
16,
24,
32,
36,
49,
46,
52,
48,
48,
44,
34,
34,
26,
24,
18,
16,
13,
16,
8,
12,
7,
8,
4,
2,
-1,
-4,
-9,
-12,
-16,
-18,
-18,
-17,
-14,
-13,
-10,
-6,
-1,
7,
14,
21,
28,
35,
41,
46,
49,
51,
49,
47,
41,
32,
20,
8,
-4,
-17,
-27,
-34,
-38,
-38,
-34,
-28,
-22,
-14,
-7,
0,
2,
5,
8,
8,
3,
9,
5,
10,
8,
13,
17,
21,
26,
33,
37,
42,
44,
46,
48,
44,
42,
35,
30,
24,
18,
11,
6,
0,
-4,
-10,
-7,
-15,
-14,
-19,
-20,
-22,
-22,
-22,
-18,
-14,
-8,
0,
8,
14,
19,
22,
26,
27,
28,
28,
28,
29,
29,
29,
27,
27,
27,
27,
24,
22,
18,
14,
10,
8,
0,
-2,
-6,
-7,
-8,
-9,
-10,
-11,
-10,
-11,
-8,
-7,
-3,
-2,
2,
5,
8,
11,
12,
14,
16,
18,
19,
20,
21,
24,
24,
24,
25,
24,
24,
24,
22,
21,
18,
16,
14,
12,
9,
8,
6,
4,
3,
-1,
0,
-2,
-2,
0,
2,
4,
8,
9,
11,
14,
12,
15,
19,
20,
18,
22,
24,
24,
27,
23,
22,
18,
16,
14,
12,
9,
8,
4,
1,
-4,
-8,
-14,
-20,
-24,
-28,
-29,
-28,
-27,
-21,
-16,
-9,
-2,
6,
13,
18,
24,
28,
28,
28,
30,
25,
27,
20,
22,
22,
24,
28,
29,
34,
36,
38,
36,
34,
29,
26,
20,
17,
14,
10,
9,
9,
4,
1,
-2,
-2,
-7,
-8,
-11,
-12,
-13,
-15,
-15,
-16,
-12,
-10,
-4,
0,
6,
15,
17,
24,
26,
31,
32,
33,
31,
29,
28,
22,
19,
13,
14,
10,
9,
6,
3,
-1,
-5,
-8,
-13,
-14,
-18,
-17,
-18,
-16,
-14,
-11,
-6,
-2,
2,
7,
13,
18,
24,
29,
33,
40,
44,
49,
47,
51,
49,
50,
44,
41,
33,
24,
15,
5,
-3,
-11,
-16,
-22,
-24,
-24,
-23,
-19,
-15,
-11,
-9,
-6,
-5,
1,
-10,
-3,
-10,
-4,
-4,
2,
9,
16,
24,
33,
40,
46,
49,
49,
50,
48,
45,
41,
35,
28,
20,
13,
5,
0,
-8,
-15,
-19,
-23,
-26,
-24,
-24,
-19,
-14,
-8,
-6,
8,
11,
15,
24,
19,
25,
22,
21,
18,
16,
14,
15,
14,
16,
19,
20,
21,
22,
22,
21,
20,
16,
13,
8,
4,
0,
-4,
-7,
-7,
-8,
-7,
-5,
-3,
0,
4,
7,
11,
14,
20,
22,
26,
28,
30,
31,
31,
28,
24,
19,
14,
12,
8,
6,
4,
1,
0,
-2,
-4,
-11,
-8,
-16,
-12,
-15,
-12,
-8,
-4,
1,
6,
11,
16,
19,
22,
24,
22,
24,
24,
22,
23,
22,
21,
21,
18,
17,
12,
8,
4,
1,
0,
-1,
-1,
2,
5,
8,
8,
16,
13,
18,
18,
20,
21,
22,
23,
25,
24,
24,
19,
16,
12,
8,
3,
0,
-3,
-4,
-6,
-7,
-6,
-5,
0,
-2,
5,
6,
12,
14,
17,
21,
22,
22,
22,
19,
17,
11,
6,
1,
-2,
-7,
-6,
-5,
-2,
0,
2,
5,
5,
5,
4,
1,
-2,
-4,
-7,
-7,
-5,
-2,
2,
9,
16,
22,
29,
34,
39,
41,
42,
42,
41,
40,
36,
33,
27,
21,
13,
4,
-2,
-11,
-12,
-17,
-16,
-11,
-12,
-12,
-10,
-6,
-5,
0,
1,
0,
10,
5,
14,
15,
20,
22,
22,
22,
21,
22,
20,
20,
17,
18,
18,
17,
16,
16,
14,
15,
14,
13,
13,
11,
10,
6,
4,
3,
0,
-3,
-6,
-5,
-4,
-2,
1,
4,
8,
11,
13,
15,
15,
15,
16,
14,
14,
16,
15,
17,
18,
24,
19,
20,
20,
19,
16,
14,
10,
8,
4,
2,
2,
-1,
-2,
-4,
-7,
-7,
-8,
-7,
-6,
-4,
0,
2,
6,
11,
14,
20,
27,
29,
34,
35,
37,
37,
34,
32,
26,
20,
13,
4,
-5,
-10,
-14,
-19,
-19,
-20,
-18,
-14,
-10,
-6,
-2,
4,
8,
14,
19,
26,
32,
37,
42,
46,
42,
48,
42,
41,
34,
31,
24,
18,
12,
8,
3,
-1,
-3,
-7,
-10,
-13,
-16,
-19,
-20,
-19,
-19,
-16,
-14,
-10,
-5,
0,
2,
9,
13,
17,
20,
24,
26,
29,
32,
34,
34,
35,
34,
33,
30,
24,
16,
9,
2,
-3,
-6,
-8,
-7,
-4,
-2,
3,
6,
12,
14,
17,
17,
18,
8,
14,
2,
0,
-10,
-14,
-18,
-20,
-18,
-16,
-10,
-3,
5,
16,
19,
29,
30,
34,
32,
32,
30,
26,
21,
17,
11,
14,
0,
5,
-3,
0,
-4,
-3,
-2,
0,
0,
0,
1,
1,
3,
5,
8,
11,
14,
18,
19,
20,
20,
20,
20,
20,
19,
21,
24,
28,
32,
34,
37,
38,
34,
37,
26,
22,
10,
0,
-10,
-19,
-26,
-32,
-36,
-35,
-32,
-27,
-19,
-11,
-3,
5,
12,
18,
24,
26,
28,
28,
28,
27,
28,
28,
28,
26,
28,
22,
23,
18,
16,
12,
9,
7,
5,
3,
2,
1,
-1,
-3,
5,
-2,
7,
6,
12,
14,
16,
18,
20,
21,
21,
20,
18,
14,
10,
5,
-5,
-10,
-12,
-15,
-14,
-10,
-3,
2,
8,
20,
16,
26,
19,
21,
16,
11,
8,
3,
1,
-1,
-2,
-3,
-3,
-3,
-1,
-1,
1,
5,
6,
11,
13,
18,
24,
26,
30,
32,
33,
33,
33,
32,
29,
28,
26,
25,
24,
22,
21,
22,
20,
18,
19,
15,
13,
8,
4,
-2,
-3,
-12,
-19,
-23,
-26,
-31,
-30,
-32,
-29,
-26,
-22,
-16,
-8,
1,
9,
16,
22,
33,
34,
41,
42,
44,
42,
41,
39,
37,
33,
29,
24,
17,
10,
2,
-3,
-7,
-8,
-8,
-6,
-3,
0,
1,
3,
4,
5,
5,
5,
5,
5,
4,
4,
2,
2,
4,
4,
6,
7,
17,
11,
22,
22,
25,
26,
25,
26,
22,
20,
16,
13,
9,
6,
4,
2,
0,
-4,
-9,
-14,
-19,
-23,
-24,
-24,
-20,
-14,
-4,
5,
16,
24,
30,
36,
36,
36,
33,
33,
31,
30,
29,
30,
29,
30,
29,
29,
28,
25,
22,
20,
17,
12,
14,
6,
4,
1,
-6,
-10,
-18,
-22,
-27,
-29,
-30,
-28,
-30,
-17,
-13,
-2,
3,
13,
18,
22,
26,
29,
29,
29,
31,
32,
32,
30,
28,
24,
21,
18,
16,
14,
11,
12,
8,
8,
6,
5,
5,
4,
4,
6,
6,
9,
9,
12,
13,
14,
15,
15,
13,
21,
8,
11,
6,
6,
3,
5,
4,
7,
9,
12,
12,
12,
10,
5,
0,
-4,
-14,
-12,
-18,
-15,
-15,
-9,
-4,
3,
10,
16,
22,
27,
30,
31,
31,
29,
26,
24,
17,
24,
14,
17,
13,
13,
12,
12,
14,
14,
16,
19,
20,
22,
22,
20,
18,
14,
10,
5,
2,
0,
0,
0,
1,
4,
8,
10,
12,
14,
14,
14,
12,
9,
6,
4,
1,
-2,
-4,
-8,
-8,
-9,
-14,
-11,
-10,
-7,
-2,
2,
7,
10,
14,
18,
22,
27,
30,
30,
32,
30,
29,
26,
25,
23,
20,
16,
11,
2,
-1,
-8,
-8,
-11,
-8,
-5,
1,
9,
14,
18,
21,
16,
14,
8,
3,
-1,
-4,
-6,
-4,
-1,
4,
9,
10,
10,
16,
12,
14,
10,
10,
7,
5,
3,
7,
4,
2,
5,
10,
13,
17,
20,
22,
21,
18,
13,
9,
7,
4,
4,
5,
9,
12,
17,
21,
25,
25,
26,
22,
19,
14,
9,
6,
1,
-2,
-3,
-3,
-3,
-2,
0,
2,
7,
10,
14,
18,
21,
21,
21,
17,
14,
12,
6,
3,
-1,
-4,
-6,
-8,
-8,
-8,
-6,
-3,
1,
5,
5,
7,
9,
12,
11,
15,
16,
19,
21,
24,
23,
23,
32,
20,
22,
20,
20,
18,
18,
17,
14,
20,
14,
19,
14,
14,
12,
9,
6,
6,
3,
2,
0,
-1,
-4,
-8,
-12,
-16,
-20,
-21,
-20,
-16,
-11,
-1,
4,
13,
21,
29,
33,
37,
37,
38,
36,
33,
29,
25,
24,
21,
13,
18,
12,
13,
8,
6,
2,
1,
-3,
-4,
-4,
-6,
-7,
-8,
-8,
-9,
-10,
-10,
-9,
-6,
-3,
4,
8,
17,
25,
33,
37,
41,
42,
43,
40,
37,
33,
30,
26,
22,
18,
16,
15,
13,
10,
5,
2,
-2,
-5,
-10,
-14,
-18,
-20,
-23,
-27,
-23,
-22,
-18,
-15,
-8,
6,
4,
6,
17,
20,
24,
25,
28,
28,
30,
34,
35,
38,
40,
41,
40,
36,
31,
24,
17,
12,
6,
2,
-3,
-5,
-8,
-11,
-12,
-16,
-18,
-20,
-20,
-21,
-20,
-19,
-15,
-12,
-8,
-3,
0,
4,
10,
14,
19,
26,
32,
36,
42,
46,
50,
50,
50,
46,
42,
37,
30,
24,
19,
13,
9,
2,
4,
-5,
-8,
-14,
-18,
-22,
-24,
-24,
-23,
-20,
-16,
-9,
-4,
3,
6,
11,
13,
16,
17,
18,
19,
20,
19,
26,
22,
27,
26,
29,
29,
30,
29,
29,
26,
22,
16,
9,
1,
-8,
-16,
-22,
-25,
-18,
-23,
-18,
-15,
-10,
-6,
-2,
1,
5,
9,
13,
16,
18,
20,
20,
22,
26,
28,
22,
26,
26,
26,
28,
28,
29,
29,
29,
28,
26,
22,
18,
13,
9,
4,
1,
-4,
-10,
-15,
-20,
-21,
-23,
-22,
-19,
-16,
-10,
-3,
4,
10,
16,
22,
27,
31,
34,
36,
35,
35,
32,
29,
28,
25,
24,
22,
21,
20,
18,
17,
13,
9,
4,
-5,
-1,
-12,
-10,
-15,
-12,
-15,
-17,
-16,
-13,
-14,
-10,
-10,
-6,
-3,
0,
2,
6,
11,
14,
20,
25,
32,
37,
44,
48,
51,
52,
51,
47,
41,
34,
26,
26,
8,
11,
-1,
0,
-6,
-7,
-8,
-8,
-9,
-10,
-11,
-12,
-12,
-12,
-12,
-10,
-7,
-4,
0,
4,
6,
8,
8,
8,
9,
12,
16,
20,
23,
29,
28,
32,
32,
35,
32,
33,
30,
29,
24,
21,
16,
12,
7,
2,
-2,
-6,
-12,
-16,
-20,
-24,
-28,
-30,
-31,
-30,
-31,
-16,
-18,
0,
5,
18,
28,
36,
41,
44,
44,
45,
42,
41,
39,
38,
37,
36,
36,
34,
31,
29,
24,
19,
15,
9,
3,
-3,
-10,
-16,
-24,
-30,
-36,
-39,
-45,
-38,
-38,
-28,
-23,
-11,
0,
10,
19,
28,
34,
37,
41,
50,
41,
46,
40,
41,
36,
33,
29,
27,
22,
20,
14,
10,
7,
4,
0,
-4,
-8,
-12,
-17,
-20,
-22,
-22,
-20,
-16,
-11,
-6,
-2,
6,
8,
13,
15,
18,
20,
21,
22,
26,
26,
29,
32,
32,
30,
36,
29,
30,
19,
20,
8,
5,
-2,
-3,
-7,
-7,
-5,
-2,
0,
4,
6,
9,
10,
10,
9,
7,
5,
4,
2,
1,
1,
2,
4,
8,
9,
14,
17,
21,
25,
27,
29,
31,
32,
30,
29,
28,
25,
22,
20,
16,
13,
11,
8,
4,
2,
-3,
-7,
-12,
-14,
-18,
-18,
-18,
-16,
-13,
-11,
-10,
1,
-4,
-4,
-2,
0,
1,
5,
8,
13,
16,
21,
26,
32,
38,
42,
45,
46,
46,
45,
42,
37,
33,
27,
21,
15,
8,
2,
-3,
-9,
-13,
-18,
-20,
-23,
-22,
-20,
-17,
-14,
-11,
-8,
-4,
-1,
3,
8,
14,
17,
21,
26,
30,
34,
37,
38,
39,
39,
37,
34,
31,
26,
21,
18,
13,
6,
2,
-1,
-6,
-8,
-14,
-18,
-23,
-27,
-28,
-28,
-23,
-20,
-14,
-8,
-3,
2,
9,
13,
17,
23,
28,
34,
40,
45,
50,
53,
55,
53,
50,
42,
36,
26,
17,
8,
3,
-3,
-6,
-8,
-9,
-8,
-7,
0,
-4,
-2,
-3,
-3,
-8,
-9,
-11,
-12,
-12,
-10,
-11,
0,
0,
12,
10,
15,
18,
22,
22,
26,
24,
26,
25,
25,
27,
28,
32,
32,
32,
33,
30,
26,
18,
8,
0,
-10,
-16,
-22,
-26,
-28,
-27,
-23,
-17,
-9,
0,
8,
16,
24,
27,
30,
27,
28,
24,
22,
17,
16,
14,
14,
12,
12,
12,
12,
13,
13,
13,
14,
12,
12,
9,
8,
6,
5,
-3,
2,
-2,
0,
-3,
-1,
-1,
1,
2,
6,
9,
13,
17,
21,
26,
31,
33,
34,
34,
34,
31,
29,
25,
21,
17,
12,
5,
9,
-2,
9,
-6,
0,
-6,
-3,
-6,
-5,
-4,
-4,
-3,
0,
2,
3,
6,
8,
9,
8,
6,
4,
1,
0,
-1,
-1,
0,
1,
4,
5,
8,
10,
5,
16,
12,
16,
13,
14,
13,
13,
12,
12,
11,
12,
13,
14,
16,
17,
20,
22,
24,
26,
26,
28,
26,
22,
20,
16,
12,
10,
6,
6,
8,
9,
9,
10,
8,
8,
6,
5,
2,
2,
2,
4,
4,
6,
6,
8,
7,
6,
8,
8,
10,
12,
16,
18,
21,
20,
17,
17,
4,
7,
-7,
-7,
-16,
-15,
-15,
-11,
-6,
0,
5,
12,
17,
21,
22,
30,
18,
26,
17,
18,
12,
11,
8,
6,
4,
5,
5,
6,
7,
8,
9,
9,
9,
12,
13,
16,
18,
21,
22,
23,
22,
20,
15,
9,
4,
-2,
-5,
-8,
-8,
-8,
-6,
-3,
0,
2,
4,
5,
7,
8,
11,
13,
10,
13,
16,
20,
24,
28,
31,
34,
35,
35,
32,
29,
20,
14,
10,
5,
2,
-2,
-3,
-4,
-4,
-4,
-3,
-3,
-2,
-8,
-1,
-8,
-3,
-4,
-2,
0,
2,
5,
6,
9,
10,
12,
13,
14,
17,
18,
20,
22,
24,
24,
24,
25,
24,
25,
22,
22,
19,
17,
15,
12,
12,
9,
5,
6,
5,
4,
6,
4,
6,
6,
8,
10,
11,
14,
15,
16,
18,
18,
18,
17,
