data/ALL0018/A0018CH2.CSV

Memory Length,4000,
Trigger Level,0.000E+00,
Source,CH2,
Probe,1X,
Vertical Units,V,
Vertical Scale,1.000E-02,
Vertical Position,0.000E+00,
Horizontal Units,s,
Horizontal Scale,1.000E-05,
Horizontal Position,4.000E-06,
Horizontal Mode,Main,
Sampling Period,4.000E-08,
Firmware,V1.13,
Time, ,
Mode,Fast,
Waveform Data,
20,
20,
21,
22,
24,
22,
21,
21,
21,
21,
20,
19,
17,
17,
16,
15,
13,
11,
10,
9,
8,
5,
2,
1,
0,
-1,
-2,
-4,
-4,
-6,
-6,
-8,
-9,
-9,
-10,
-11,
-11,
-11,
-10,
-10,
-10,
-10,
-11,
-9,
-8,
-7,
-6,
-6,
-6,
-3,
-3,
-2,
0,
2,
2,
7,
-1,
-1,
10,
10,
6,
4,
6,
9,
13,
12,
12,
10,
12,
14,
16,
17,
17,
16,
17,
19,
21,
22,
21,
21,
22,
24,
26,
26,
26,
28,
28,
29,
29,
29,
29,
29,
28,
26,
26,
25,
22,
21,
20,
19,
17,
16,
14,
13,
12,
11,
9,
8,
8,
8,
6,
6,
5,
5,
5,
5,
5,
5,
6,
6,
5,
5,
5,
6,
5,
6,
5,
5,
5,
6,
8,
6,
5,
6,
7,
8,
8,
6,
6,
8,
9,
9,
9,
9,
9,
10,
10,
10,
10,
10,
11,
10,
10,
9,
9,
12,
10,
5,
6,
10,
12,
10,
8,
9,
12,
13,
14,
14,
14,
16,
17,
18,
17,
17,
17,
17,
20,
24,
23,
20,
19,
19,
20,
20,
16,
16,
15,
14,
14,
13,
12,
11,
10,
9,
9,
9,
8,
9,
9,
10,
14,
14,
4,
13,
19,
18,
16,
17,
20,
24,
25,
24,
24,
26,
28,
30,
28,
28,
27,
28,
30,
29,
28,
27,
27,
28,
26,
26,
25,
24,
24,
24,
23,
24,
22,
21,
20,
19,
18,
17,
16,
13,
12,
10,
8,
6,
4,
1,
0,
-1,
-3,
-6,
-7,
-9,
-10,
-12,
-15,
-16,
-16,
-18,
-20,
-20,
-22,
-23,
-24,
-23,
-24,
-27,
-26,
-27,
-26,
-26,
-27,
-27,
-26,
-25,
-24,
-24,
-22,
-20,
-20,
-18,
-17,
-16,
-14,
-11,
-10,
-8,
-6,
-3,
0,
2,
2,
5,
6,
9,
10,
13,
16,
18,
19,
20,
22,
24,
26,
28,
28,
29,
30,
30,
33,
34,
33,
33,
34,
34,
34,
33,
33,
32,
31,
30,
29,
28,
25,
24,
22,
22,
20,
18,
17,
17,
15,
15,
14,
14,
14,
13,
12,
12,
13,
12,
12,
12,
13,
12,
19,
9,
4,
8,
10,
9,
7,
2,
3,
7,
9,
8,
4,
2,
5,
9,
10,
10,
8,
5,
7,
12,
16,
14,
10,
9,
12,
16,
17,
16,
14,
17,
18,
19,
19,
18,
19,
20,
20,
20,
20,
18,
18,
18,
18,
16,
16,
16,
14,
13,
11,
8,
5,
3,
2,
0,
-4,
-8,
-10,
-10,
-14,
-18,
-20,
-21,
-22,
-24,
-25,
-26,
-26,
-25,
-25,
-24,
-23,
-20,
-19,
-17,
-16,
-14,
-10,
-7,
-4,
-2,
1,
3,
6,
8,
10,
13,
16,
17,
18,
20,
22,
24,
26,
27,
28,
29,
31,
33,
34,
36,
37,
38,
40,
42,
43,
44,
46,
47,
49,
50,
52,
53,
54,
56,
56,
54,
55,
56,
54,
53,
51,
50,
48,
47,
44,
41,
39,
35,
32,
29,
26,
22,
18,
15,
12,
8,
5,
1,
-2,
-6,
-8,
-10,
-14,
-16,
-18,
-32,
-26,
-26,
-31,
-36,
-39,
-40,
-38,
-39,
-43,
-45,
-45,
-41,
-40,
-40,
-39,
-38,
-34,
-31,
-27,
-24,
-21,
-16,
-12,
-9,
-4,
0,
5,
8,
12,
17,
23,
28,
30,
32,
36,
40,
42,
42,
44,
46,
48,
49,
48,
49,
48,
48,
48,
47,
45,
44,
42,
40,
37,
36,
34,
32,
29,
26,
22,
20,
17,
14,
12,
9,
5,
3,
0,
-2,
-4,
-8,
-11,
-13,
-15,
-18,
-20,
-23,
-24,
-26,
-27,
-29,
-30,
-31,
-32,
-33,
-31,
-29,
-32,
-35,
-32,
-27,
-24,
-26,
-26,
-24,
-22,
-19,
-17,
-16,
-12,
-10,
-6,
-4,
-2,
-2,
0,
4,
12,
15,
15,
14,
18,
24,
29,
29,
29,
30,
33,
36,
37,
38,
38,
40,
41,
42,
42,
43,
44,
43,
44,
43,
42,
42,
42,
41,
39,
36,
34,
33,
31,
28,
25,
24,
22,
21,
9,
6,
12,
12,
3,
-1,
0,
2,
0,
-6,
-8,
-6,
-6,
-6,
-9,
-10,
-9,
-8,
-8,
-10,
-10,
-9,
-9,
-9,
-11,
-10,
-8,
-7,
-8,
-6,
-6,
-3,
-3,
-3,
-1,
0,
1,
2,
4,
5,
6,
8,
9,
9,
10,
11,
13,
14,
14,
15,
16,
16,
17,
16,
17,
16,
16,
17,
18,
17,
17,
17,
17,
17,
18,
17,
18,
20,
20,
19,
20,
21,
22,
22,
22,
23,
22,
21,
22,
22,
20,
18,
17,
16,
15,
12,
10,
9,
8,
6,
5,
4,
4,
2,
2,
2,
4,
5,
5,
8,
9,
12,
14,
16,
18,
21,
22,
26,
27,
29,
30,
32,
32,
34,
34,
33,
34,
34,
34,
32,
33,
32,
32,
32,
32,
31,
30,
29,
29,
28,
27,
25,
24,
28,
25,
17,
15,
17,
18,
14,
9,
6,
6,
6,
5,
0,
-11,
-4,
-2,
-6,
-14,
-16,
-20,
-19,
-18,
-17,
-21,
-26,
-27,
-26,
-24,
-25,
-28,
-28,
-27,
-27,
-26,
-26,
-27,
-25,
-24,
-25,
-23,
-20,
-20,
-19,
-17,
-15,
-13,
-11,
-8,
-6,
-3,
-1,
2,
3,
6,
9,
12,
15,
17,
20,
22,
25,
27,
29,
30,
30,
32,
32,
32,
32,
32,
32,
30,
30,
30,
28,
27,
26,
25,
22,
22,
22,
22,
21,
20,
20,
19,
20,
19,
17,
17,
16,
16,
15,
14,
13,
12,
12,
10,
9,
8,
7,
6,
4,
2,
2,
2,
1,
0,
0,
0,
0,
0,
0,
0,
1,
2,
2,
2,
4,
5,
6,
6,
8,
8,
9,
10,
12,
12,
13,
13,
15,
17,
17,
18,
18,
18,
20,
21,
22,
22,
22,
22,
22,
22,
21,
21,
20,
20,
19,
17,
16,
17,
16,
14,
12,
12,
11,
10,
2,
4,
8,
4,
-3,
-4,
-3,
-2,
-4,
-8,
-11,
-10,
-11,
-11,
-14,
-15,
-15,
-14,
-15,
-15,
-14,
-14,
-15,
-14,
-14,
-12,
-11,
-10,
-8,
-7,
-6,
-3,
-3,
-4,
1,
0,
-5,
-4,
1,
3,
2,
-2,
-2,
1,
2,
2,
2,
4,
6,
9,
9,
10,
12,
13,
15,
20,
28,
30,
30,
30,
34,
40,
42,
44,
45,
45,
47,
48,
49,
49,
49,
48,
49,
48,
49,
49,
49,
48,
48,
49,
49,
48,
48,
48,
49,
49,
49,
48,
48,
49,
48,
47,
46,
45,
42,
39,
37,
34,
30,
27,
24,
19,
17,
13,
8,
3,
-1,
-4,
-8,
-12,
-16,
-21,
-24,
-26,
-30,
-34,
-36,
-38,
-41,
-43,
-46,
-48,
-50,
-49,
-49,
-49,
-50,
-50,
-48,
-46,
-44,
-43,
-40,
-38,
-33,
-30,
-26,
-24,
-20,
-16,
-11,
-7,
-4,
0,
6,
9,
1,
13,
20,
21,
19,
20,
24,
30,
34,
32,
33,
35,
38,
41,
41,
41,
42,
42,
44,
44,
43,
42,
42,
42,
39,
38,
38,
38,
35,
33,
32,
30,
28,
25,
24,
23,
20,
18,
14,
13,
11,
9,
6,
4,
1,
0,
-2,
-3,
-4,
-6,
-8,
-10,
-11,
-12,
-14,
-15,
-16,
-17,
-18,
-17,
-17,
-18,
-18,
-19,
-18,
-18,
-18,
-16,
-15,
-14,
-12,
-12,
-11,
-8,
-8,
-6,
-3,
-2,
0,
9,
7,
4,
4,
10,
13,
14,
14,
15,
17,
21,
22,
22,
24,
26,
28,
30,
28,
28,
28,
28,
31,
34,
33,
29,
28,
29,
30,
29,
28,
26,
26,
25,
24,
22,
21,
20,
18,
17,
17,
15,
13,
12,
10,
9,
6,
6,
5,
3,
2,
0,
-1,
-2,
-2,
-3,
-4,
-5,
-6,
-6,
-5,
-7,
-9,
-6,
-5,
-7,
-5,
-11,
-8,
0,
-3,
-8,
-8,
-4,
-2,
1,
-2,
-2,
0,
3,
6,
5,
6,
6,
8,
10,
10,
10,
10,
10,
11,
12,
12,
12,
13,
13,
13,
15,
17,
17,
18,
19,
21,
22,
24,
24,
26,
26,
28,
28,
29,
30,
29,
30,
29,
29,
30,
28,
28,
28,
28,
28,
26,
26,
26,
27,
27,
26,
26,
26,
28,
28,
28,
27,
28,
28,
28,
27,
26,
26,
26,
26,
24,
24,
23,
22,
22,
22,
21,
20,
20,
19,
17,
16,
16,
15,
14,
12,
11,
10,
9,
8,
8,
6,
3,
3,
2,
1,
-1,
-3,
-3,
-5,
-7,
-8,
-10,
-10,
-11,
-12,
-12,
-12,
-12,
-14,
-15,
-16,
-16,
-16,
-16,
-17,
-18,
-19,
-18,
-18,
-18,
-18,
-17,
-16,
-15,
-15,
-14,
-13,
-11,
-10,
-9,
-8,
-6,
-5,
-3,
0,
0,
-1,
1,
5,
4,
-3,
4,
8,
6,
3,
4,
5,
9,
9,
8,
8,
9,
11,
14,
13,
14,
16,
17,
18,
20,
21,
28,
30,
24,
24,
30,
35,
36,
34,
34,
37,
40,
40,
38,
38,
40,
40,
39,
38,
37,
34,
33,
34,
36,
34,
28,
23,
24,
24,
22,
20,
16,
15,
14,
13,
11,
9,
7,
6,
4,
2,
2,
0,
-2,
-2,
-2,
-3,
-4,
-7,
-8,
-9,
-10,
-10,
-11,
-11,
-12,
-14,
-13,
-13,
-14,
-15,
-15,
-15,
-15,
-14,
-14,
-13,
-12,
-11,
-10,
-10,
-8,
-8,
-7,
-6,
-4,
-3,
-2,
-1,
0,
0,
0,
1,
3,
4,
4,
5,
7,
7,
8,
8,
9,
11,
12,
12,
13,
14,
17,
18,
18,
19,
20,
22,
24,
21,
22,
22,
22,
23,
24,
22,
21,
20,
20,
19,
16,
19,
21,
14,
9,
10,
12,
10,
8,
10,
-1,
0,
7,
4,
-2,
-4,
-3,
1,
2,
0,
-2,
-1,
1,
4,
4,
4,
4,
6,
9,
9,
9,
10,
12,
12,
13,
14,
15,
17,
18,
20,
21,
25,
26,
28,
30,
33,
34,
36,
38,
40,
41,
42,
42,
43,
44,
44,
43,
42,
42,
40,
38,
37,
36,
34,
32,
30,
28,
28,
26,
25,
23,
22,
21,
22,
21,
20,
20,
18,
20,
22,
17,
10,
10,
13,
13,
9,
4,
1,
1,
-1,
-4,
-8,
-11,
-14,
-16,
-18,
-21,
-23,
-28,
-30,
-28,
-24,
-27,
-31,
-32,
-30,
-27,
-26,
-27,
-27,
-24,
-23,
-20,
-19,
-19,
-17,
-15,
-14,
-12,
-11,
-10,
-10,
-8,
-6,
-5,
-5,
-4,
-2,
-2,
0,
2,
3,
5,
6,
8,
10,
12,
14,
16,
18,
19,
21,
22,
26,
28,
29,
29,
30,
32,
32,
33,
33,
33,
34,
36,
33,
26,
33,
35,
31,
27,
26,
26,
29,
29,
24,
21,
20,
22,
22,
19,
17,
15,
14,
13,
12,
11,
8,
6,
5,
4,
3,
2,
0,
-1,
-1,
-1,
-2,
-3,
-4,
-4,
-4,
-6,
-6,
-6,
-6,
-6,
-7,
-6,
-6,
-6,
-6,
-5,
-4,
-4,
-4,
-3,
-3,
-2,
0,
0,
0,
0,
1,
2,
1,
1,
2,
3,
4,
4,
4,
5,
6,
6,
8,
8,
9,
10,
12,
12,
13,
14,
15,
16,
17,
17,
18,
18,
20,
20,
20,
20,
19,
20,
19,
20,
19,
18,
18,
17,
15,
15,
14,
14,
14,
12,
10,
10,
9,
8,
6,
6,
6,
5,
5,
5,
4,
4,
2,
4,
6,
12,
1,
-2,
2,
7,
6,
5,
4,
5,
7,
6,
6,
5,
6,
7,
9,
10,
8,
4,
2,
6,
13,
14,
8,
4,
8,
13,
16,
19,
8,
10,
20,
22,
18,
17,
18,
24,
27,
27,
26,
28,
30,
32,
32,
32,
32,
32,
32,
32,
31,
30,
29,
29,
28,
28,
28,
28,
28,
28,
26,
28,
28,
26,
27,
26,
26,
25,
24,
24,
24,
22,
22,
21,
20,
18,
16,
14,
13,
14,
11,
8,
8,
5,
4,
2,
1,
0,
-2,
-3,
-4,
-6,
-7,
-8,
-10,
-11,
-12,
-12,
-12,
-14,
-15,
-15,
-15,
-16,
-16,
-16,
-16,
-16,
-16,
-17,
-16,
-16,
-16,
-16,
-16,
-17,
-16,
-14,
-14,
-14,
-13,
-12,
-11,
-8,
-6,
-6,
-4,
0,
1,
3,
5,
8,
10,
12,
15,
17,
18,
20,
21,
24,
25,
26,
26,
27,
28,
28,
28,
28,
27,
27,
28,
27,
28,
27,
27,
26,
26,
27,
26,
24,
24,
24,
22,
22,
22,
20,
20,
19,
18,
17,
16,
14,
13,
12,
15,
12,
2,
10,
11,
5,
2,
2,
2,
5,
4,
1,
1,
0,
2,
2,
2,
0,
2,
5,
0,
-3,
1,
5,
8,
5,
2,
6,
8,
10,
10,
10,
12,
16,
15,
17,
16,
14,
13,
14,
18,
20,
17,
14,
13,
17,
18,
17,
15,
16,
15,
16,
14,
14,
13,
13,
10,
9,
9,
9,
6,
4,
2,
1,
-2,
-3,
-5,
-7,
-8,
-9,
-11,
-14,
-16,
-16,
-17,
-17,
-18,
-18,
-19,
-18,
-17,
-16,
-16,
-15,
-15,
-12,
-12,
-11,
-10,
-8,
-8,
-6,
-4,
-3,
-2,
0,
2,
2,
2,
4,
5,
8,
9,
9,
11,
12,
14,
16,
17,
19,
22,
24,
26,
28,
30,
33,
34,
37,
38,
40,
41,
42,
44,
44,
46,
47,
47,
46,
46,
49,
48,
44,
43,
45,
45,
45,
41,
40,
38,
38,
37,
34,
33,
32,
30,
29,
30,
16,
18,
22,
19,
12,
9,
6,
8,
7,
2,
-2,
-3,
-3,
-4,
-7,
-8,
-10,
-11,
-11,
-12,
-11,
-12,
-12,
-11,
-11,
-10,
-10,
-9,
-8,
-7,
-6,
-4,
-3,
-2,
-2,
0,
0,
1,
4,
4,
5,
5,
6,
8,
8,
8,
9,
10,
11,
11,
12,
12,
14,
14,
15,
15,
17,
17,
16,
18,
18,
18,
19,
26,
24,
18,
14,
19,
23,
22,
18,
17,
18,
20,
20,
18,
17,
17,
17,
17,
16,
14,
12,
10,
12,
15,
14,
9,
5,
6,
7,
6,
3,
1,
0,
-1,
-2,
-4,
-6,
-8,
-9,
-10,
-11,
-12,
-14,
-16,
-16,
-17,
-18,
-19,
-18,
-20,
-18,
-16,
-16,
-16,
-16,
-14,
-12,
-11,
-10,
-10,
-7,
-4,
-4,
-2,
0,
1,
2,
4,
5,
8,
10,
12,
12,
13,
16,
17,
18,
20,
22,
23,
24,
26,
32,
27,
21,
32,
34,
30,
28,
28,
30,
32,
31,
28,
27,
28,
30,
29,
26,
24,
22,
22,
22,
20,
18,
16,
15,
13,
10,
10,
8,
8,
5,
5,
4,
3,
2,
1,
0,
0,
0,
0,
-2,
-1,
-2,
-2,
-2,
-3,
-3,
-3,
-3,
-3,
-4,
-4,
-4,
-4,
-4,
-4,
-3,
-4,
-4,
-3,
-2,
-2,
-1,
0,
0,
0,
0,
1,
1,
2,
3,
3,
4,
4,
6,
6,
6,
7,
9,
9,
10,
9,
12,
13,
15,
16,
17,
17,
19,
21,
22,
22,
24,
26,
26,
26,
27,
28,
28,
28,
29,
28,
29,
30,
32,
32,
33,
33,
33,
34,
36,
38,
33,
29,
33,
37,
38,
34,
30,
29,
30,
29,
25,
25,
24,
20,
16,
14,
13,
11,
6,
2,
5,
6,
4,
-2,
-4,
-2,
0,
0,
-3,
-5,
-4,
-2,
-2,
-2,
0,
-12,
-7,
0,
-3,
-8,
-8,
-7,
-3,
-2,
-4,
-6,
-5,
-3,
-1,
-2,
-2,
-2,
0,
0,
0,
0,
0,
-1,
1,
0,
0,
1,
1,
1,
2,
4,
4,
4,
5,
7,
8,
9,
11,
11,
12,
14,
16,
16,
17,
18,
19,
19,
22,
21,
21,
21,
22,
22,
22,
22,
21,
21,
20,
20,
20,
18,
18,
18,
17,
16,
16,
15,
14,
14,
14,
12,
12,
10,
10,
10,
9,
9,
7,
6,
5,
5,
5,
4,
4,
3,
4,
2,
2,
3,
3,
2,
3,
3,
4,
4,
4,
4,
4,
5,
6,
5,
5,
5,
6,
8,
5,
5,
6,
7,
6,
5,
5,
6,
7,
6,
6,
5,
6,
6,
7,
6,
6,
6,
5,
6,
8,
8,
8,
7,
8,
8,
9,
9,
9,
9,
9,
10,
12,
13,
14,
13,
13,
15,
16,
21,
13,
8,
17,
19,
15,
13,
12,
14,
17,
16,
14,
14,
15,
16,
18,
18,
17,
16,
18,
18,
18,
18,
17,
18,
18,
16,
16,
16,
15,
14,
13,
14,
13,
12,
10,
9,
8,
6,
6,
5,
4,
2,
1,
1,
0,
-2,
-2,
-4,
-5,
-6,
-7,
-9,
-8,
-11,
-18,
-16,
-15,
-15,
-18,
-22,
-23,
-23,
-22,
-23,
-23,
-23,
-23,
-23,
-20,
-19,
-20,
-19,
-16,
-10,
-2,
-2,
-2,
2,
8,
12,
15,
18,
20,
24,
30,
32,
35,
37,
40,
44,
46,
48,
49,
52,
53,
54,
56,
56,
57,
58,
58,
58,
58,
56,
56,
55,
53,
52,
52,
50,
47,
45,
43,
40,
37,
34,
32,
29,
29,
27,
19,
13,
12,
10,
7,
2,
-4,
-7,
-8,
-11,
-15,
-20,
-23,
-26,
-28,
-32,
-35,
-36,
-38,
-38,
-39,
-39,
-40,
-38,
-36,
-32,
-43,
-34,
-27,
-26,
-27,
-24,
-20,
-14,
-8,
-7,
-5,
-3,
2,
6,
9,
10,
13,
17,
19,
22,
24,
27,
31,
32,
35,
38,
42,
44,
47,
50,
53,
57,
57,
59,
62,
64,
65,
65,
65,
65,
65,
62,
60,
58,
55,
52,
49,
45,
41,
36,
32,
28,
22,
18,
14,
9,
3,
0,
-4,
-8,
-12,
-15,
-18,
-22,
-24,
-27,
-30,
-30,
-34,
-36,
-40,
-40,
-41,
-42,
-44,
-44,
-45,
-45,
-44,
-44,
-45,
-46,
-44,
-43,
-43,
-40,
-39,
-38,
-35,
-32,
-31,
-28,
-24,
-22,
-19,
-16,
-13,
-9,
-5,
2,
1,
0,
7,
14,
18,
19,
21,
25,
30,
34,
37,
38,
42,
44,
46,
49,
49,
49,
48,
49,
52,
56,
55,
51,
49,
49,
50,
50,
48,
45,
44,
43,
41,
40,
37,
35,
33,
32,
29,
26,
24,
21,
19,
17,
18,
5,
2,
8,
6,
-2,
-6,
-8,
-8,
-8,
-12,
-16,
-18,
-20,
-20,
-23,
-26,
-28,
-27,
-27,
-29,
-30,
-30,
-30,
-29,
-27,
-27,
-25,
-23,
-21,
-18,
-16,
-12,
-11,
-8,
-4,
0,
3,
4,
8,
10,
14,
16,
19,
22,
24,
26,
28,
29,
31,
32,
33,
34,
36,
37,
37,
37,
37,
40,
39,
38,
38,
37,
37,
38,
38,
36,
35,
35,
36,
36,
34,
33,
33,
33,
31,
30,
29,
29,
28,
26,
24,
24,
22,
21,
20,
18,
15,
14,
13,
10,
8,
6,
4,
1,
-2,
-4,
-4,
-6,
-8,
-9,
-11,
-11,
-12,
-14,
-15,
-16,
-18,
-18,
-17,
-17,
-19,
-19,
-20,
-16,
-15,
-16,
-18,
-16,
-12,
-9,
-8,
-9,
-7,
-3,
0,
2,
2,
4,
6,
9,
10,
11,
13,
16,
17,
18,
18,
20,
21,
22,
24,
23,
25,
25,
28,
29,
17,
30,
32,
24,
21,
26,
28,
30,
28,
24,
23,
24,
26,
26,
24,
22,
22,
22,
21,
20,
16,
14,
16,
19,
17,
13,
12,
11,
13,
13,
12,
11,
10,
9,
9,
8,
6,
5,
5,
5,
3,
2,
2,
0,
-2,
-2,
-2,
-3,
-3,
-4,
-6,
-6,
-5,
-5,
-6,
-7,
-6,
-6,
-4,
-4,
-4,
-3,
-2,
0,
1,
1,
1,
1,
3,
4,
4,
5,
6,
8,
8,
9,
10,
12,
13,
13,
14,
15,
16,
16,
16,
17,
18,
18,
18,
18,
19,
20,
20,
20,
20,
20,
20,
20,
20,
20,
18,
17,
18,
17,
16,
13,
12,
12,
10,
9,
8,
8,
8,
6,
5,
5,
5,
5,
6,
6,
6,
6,
6,
6,
7,
8,
8,
8,
8,
8,
8,
8,
9,
8,
8,
8,
7,
8,
7,
8,
8,
8,
8,
9,
14,
5,
5,
15,
16,
12,
12,
12,
16,
18,
18,
16,
16,
19,
20,
19,
17,
16,
16,
15,
14,
13,
12,
10,
9,
9,
8,
6,
5,
5,
6,
6,
6,
6,
8,
8,
8,
9,
9,
9,
9,
9,
8,
9,
8,
8,
5,
5,
3,
4,
9,
-1,
-6,
-3,
2,
2,
0,
-3,
-2,
2,
2,
2,
3,
4,
5,
8,
9,
10,
10,
9,
12,
14,
19,
19,
17,
16,
18,
22,
23,
22,
22,
22,
24,
25,
24,
24,
24,
24,
24,
24,
24,
23,
23,
24,
24,
23,
21,
20,
20,
20,
18,
16,
14,
13,
10,
9,
6,
5,
4,
0,
-5,
-6,
-5,
-5,
-7,
-10,
-11,
-11,
-10,
-10,
-9,
-9,
-7,
-4,
-3,
-2,
0,
2,
4,
6,
8,
8,
10,
13,
16,
17,
17,
17,
20,
21,
22,
22,
24,
26,
27,
31,
30,
22,
32,
37,
36,
32,
34,
35,
39,
40,
38,
37,
37,
39,
40,
39,
37,
36,
34,
34,
32,
30,
28,
26,
22,
18,
17,
16,
12,
9,
8,
8,
3,
0,
-2,
-3,
-6,
-8,
-11,
-13,
-15,
-18,
-21,
-22,
-23,
-26,
-28,
-30,
-32,
-32,
-34,
-35,
-36,
-36,
-36,
-36,
-36,
-36,
-35,
-34,
-33,
-32,
-31,
-28,
-27,
-24,
-22,
-20,
-16,
-14,
-12,
-9,
-5,
-2,
0,
2,
4,
7,
10,
13,
16,
17,
18,
22,
22,
24,
26,
27,
29,
31,
32,
34,
35,
36,
37,
38,
46,
46,
38,
38,
41,
44,
42,
40,
37,
38,
37,
35,
32,
28,
26,
24,
22,
19,
15,
11,
7,
7,
10,
9,
4,
-2,
0,
2,
2,
1,
-1,
-2,
2,
2,
2,
2,
2,
4,
5,
5,
6,
6,
8,
9,
9,
9,
9,
9,
10,
13,
5,
5,
11,
11,
6,
6,
7,
9,
13,
11,
11,
12,
15,
17,
16,
18,
18,
20,
20,
21,
21,
22,
21,
22,
20,
19,
18,
20,
18,
17,
16,
17,
16,
15,
16,
16,
16,
16,
16,
16,
16,
14,
14,
14,
13,
13,
12,
12,
10,
9,
8,
7,
6,
5,
4,
2,
2,
1,
1,
1,
2,
2,
3,
4,
4,
5,
5,
6,
8,
8,
6,
8,
9,
10,
8,
8,
8,
8,
8,
8,
6,
6,
6,
6,
7,
8,
8,
8,
8,
9,
9,
8,
10,
10,
12,
12,
12,
12,
12,
12,
11,
13,
13,
12,
9,
9,
10,
10,
8,
6,
5,
6,
7,
6,
5,
5,
4,
5,
4,
4,
5,
5,
4,
5,
5,
4,
4,
6,
6,
5,
5,
5,
6,
6,
7,
6,
6,
6,
6,
7,
7,
7,
8,
11,
8,
1,
-3,
11,
14,
6,
1,
4,
8,
10,
9,
6,
6,
7,
10,
12,
10,
9,
6,
9,
14,
16,
13,
10,
10,
13,
15,
14,
12,
12,
13,
14,
14,
15,
13,
13,
14,
14,
15,
16,
15,
13,
13,
14,
14,
13,
14,
14,
14,
13,
12,
13,
13,
12,
12,
12,
11,
10,
9,
10,
9,
8,
5,
4,
4,
4,
2,
1,
0,
1,
1,
0,
0,
0,
0,
0,
0,
1,
0,
1,
3,
3,
4,
5,
6,
7,
7,
8,
8,
8,
8,
8,
8,
8,
9,
9,
8,
8,
10,
12,
11,
10,
12,
13,
14,
15,
15,
16,
17,
19,
20,
20,
20,
21,
22,
24,
25,
24,
25,
24,
24,
26,
24,
22,
21,
21,
20,
19,
16,
16,
16,
15,
13,
13,
12,
12,
12,
12,
12,
12,
13,
12,
12,
13,
13,
13,
17,
5,
8,
13,
12,
6,
4,
2,
5,
5,
2,
-2,
-3,
-2,
0,
-2,
-3,
-4,
-3,
-1,
0,
0,
0,
0,
2,
3,
4,
5,
6,
8,
9,
10,
13,
13,
12,
13,
14,
14,
14,
14,
13,
14,
13,
12,
11,
14,
11,
6,
7,
11,
12,
9,
5,
5,
8,
8,
7,
5,
4,
5,
5,
4,
3,
2,
0,
-2,
1,
5,
5,
2,
0,
1,
4,
5,
6,
6,
5,
7,
8,
10,
9,
10,
10,
12,
12,
11,
10,
10,
10,
9,
9,
8,
6,
6,
5,
5,
4,
4,
6,
5,
4,
6,
9,
11,
12,
13,
15,
18,
21,
24,
26,
28,
32,
35,
36,
36,
38,
40,
41,
42,
42,
42,
41,
40,
40,
38,
37,
37,
37,
36,
34,
32,
31,
31,
31,
29,
27,
26,
26,
24,
23,
20,
18,
17,
16,
17,
11,
0,
6,
5,
-1,
-6,
-9,
-10,
-11,
-14,
-18,
-23,
-24,
-26,
-27,
-30,
-31,
-33,
-34,
-34,
-34,
-35,
-35,
-35,
-34,
-35,
-33,
-32,
-31,
-30,
-28,
-24,
-21,
-20,
-19,
-16,
-15,
-13,
-8,
-7,
-6,
-5,
-3,
0,
1,
2,
2,
4,
6,
8,
9,
10,
12,
14,
16,
17,
17,
18,
19,
20,
20,
22,
22,
22,
24,
24,
24,
23,
24,
24,
24,
24,
24,
24,
24,
24,
24,
24,
26,
25,
26,
26,
26,
27,
28,
29,
28,
28,
29,
29,
28,
30,
34,
26,
21,
23,
26,
24,
20,
17,
17,
17,
16,
13,
10,
10,
10,
10,
10,
9,
8,
6,
8,
12,
16,
14,
12,
13,
16,
18,
17,
17,
17,
18,
18,
18,
17,
14,
14,
13,
12,
8,
6,
5,
4,
2,
0,
0,
0,
-1,
0,
1,
2,
2,
4,
9,
-2,
5,
13,
13,
10,
12,
13,
19,
22,
21,
19,
20,
21,
23,
22,
20,
