data/ALL0011/A0011CH2.CSV

Memory Length,4000,
Trigger Level,0.000E+00,
Source,CH2,
Probe,1X,
Vertical Units,V,
Vertical Scale,1.000E-02,
Vertical Position,0.000E+00,
Horizontal Units,s,
Horizontal Scale,2.500E-05,
Horizontal Position,4.000E-06,
Horizontal Mode,Main,
Sampling Period,1.000E-07,
Firmware,V1.13,
Time, ,
Mode,Fast,
Waveform Data,
9,
9,
10,
17,
23,
28,
33,
37,
41,
41,
42,
42,
45,
43,
40,
42,
42,
40,
41,
36,
32,
28,
15,
9,
-3,
-11,
-22,
-29,
-34,
-37,
-38,
-35,
-31,
-29,
-20,
-15,
-7,
0,
5,
12,
16,
22,
26,
30,
34,
36,
37,
37,
36,
35,
33,
30,
28,
24,
21,
17,
13,
8,
4,
-3,
-7,
-14,
-16,
-20,
-22,
-22,
-21,
-20,
-16,
-14,
-6,
-8,
-1,
2,
8,
10,
18,
20,
25,
29,
36,
42,
49,
57,
62,
68,
67,
67,
60,
50,
40,
24,
13,
-1,
-11,
-21,
-28,
-32,
-34,
-36,
-36,
-35,
-34,
-32,
-30,
-26,
-21,
-16,
-10,
-3,
4,
11,
18,
24,
28,
30,
34,
34,
36,
37,
37,
37,
36,
36,
34,
33,
29,
24,
26,
12,
17,
6,
6,
-2,
-3,
-6,
-10,
-11,
-14,
-12,
-12,
-10,
-11,
-10,
-13,
-14,
-12,
-8,
-2,
6,
14,
24,
31,
37,
39,
37,
34,
30,
24,
18,
14,
9,
6,
5,
4,
2,
4,
7,
9,
11,
12,
13,
11,
11,
8,
6,
5,
6,
8,
8,
9,
11,
11,
9,
10,
10,
9,
3,
13,
12,
16,
15,
17,
20,
21,
25,
24,
26,
26,
25,
23,
20,
18,
8,
11,
-2,
-4,
-10,
-14,
-17,
-19,
-20,
-20,
-20,
-19,
-16,
-15,
-11,
-8,
-3,
6,
13,
22,
30,
37,
44,
46,
48,
45,
42,
36,
32,
25,
18,
12,
7,
1,
-2,
-4,
-3,
-2,
2,
6,
13,
16,
16,
22,
15,
14,
6,
2,
-2,
-6,
-6,
-7,
-4,
0,
3,
9,
12,
14,
16,
15,
14,
11,
9,
6,
6,
3,
8,
8,
11,
12,
12,
13,
12,
12,
11,
9,
6,
5,
6,
3,
6,
5,
8,
8,
10,
12,
14,
16,
18,
18,
17,
16,
12,
9,
6,
2,
2,
4,
9,
14,
24,
30,
32,
37,
39,
35,
33,
26,
20,
12,
4,
-3,
-6,
-10,
-10,
-12,
-10,
-9,
-6,
-5,
-4,
-1,
0,
0,
1,
1,
2,
2,
4,
4,
6,
6,
8,
8,
11,
13,
16,
18,
22,
24,
28,
29,
32,
33,
33,
30,
27,
21,
16,
9,
1,
-3,
-6,
-7,
-8,
-7,
-6,
0,
1,
4,
2,
5,
10,
11,
16,
15,
17,
16,
15,
9,
12,
10,
9,
12,
11,
13,
14,
16,
14,
12,
10,
5,
2,
-2,
-4,
-7,
-6,
-4,
1,
4,
9,
13,
18,
22,
25,
28,
29,
29,
30,
29,
30,
27,
26,
24,
21,
18,
16,
13,
10,
8,
6,
4,
4,
1,
0,
0,
2,
-4,
0,
-3,
0,
-3,
-2,
-5,
-5,
-5,
-5,
-3,
0,
4,
8,
14,
19,
24,
24,
28,
27,
25,
23,
19,
17,
14,
13,
11,
10,
9,
8,
10,
6,
9,
5,
4,
2,
-1,
-3,
-6,
-6,
-6,
-4,
-1,
3,
10,
18,
26,
32,
37,
41,
42,
40,
36,
31,
22,
14,
6,
1,
-8,
-3,
-8,
-6,
-7,
-5,
-6,
-6,
-7,
-8,
-8,
-10,
-10,
-8,
-6,
0,
4,
10,
17,
21,
28,
31,
34,
36,
38,
38,
40,
38,
38,
33,
30,
26,
21,
16,
10,
3,
-2,
-10,
-17,
-23,
-27,
-30,
-30,
-26,
-20,
-12,
-2,
3,
21,
22,
33,
34,
35,
33,
30,
28,
24,
20,
14,
17,
11,
12,
10,
10,
9,
9,
10,
10,
9,
8,
8,
5,
5,
0,
-1,
-4,
-6,
-6,
-6,
-4,
0,
1,
4,
8,
10,
11,
11,
12,
12,
12,
14,
17,
21,
24,
28,
31,
33,
32,
30,
26,
22,
17,
14,
10,
7,
5,
4,
3,
4,
0,
0,
-3,
-4,
-4,
-6,
-6,
-6,
-6,
-10,
-8,
-10,
-10,
-10,
-10,
-7,
-2,
6,
17,
25,
38,
44,
51,
52,
50,
45,
40,
34,
26,
20,
12,
5,
5,
-1,
0,
-2,
-3,
-3,
-2,
-2,
-3,
-3,
-2,
-1,
1,
2,
4,
7,
9,
10,
12,
14,
13,
15,
15,
16,
16,
16,
17,
17,
20,
20,
20,
20,
19,
22,
17,
13,
10,
8,
3,
1,
-4,
-5,
-8,
-10,
-10,
-8,
-6,
-6,
-1,
1,
5,
8,
12,
16,
18,
22,
22,
26,
24,
24,
20,
15,
10,
1,
-2,
-7,
-7,
-4,
1,
8,
17,
25,
30,
34,
32,
34,
28,
24,
18,
12,
8,
3,
1,
-2,
-1,
-2,
-2,
-3,
-3,
-3,
-2,
2,
1,
8,
12,
19,
20,
23,
26,
25,
24,
22,
23,
22,
23,
23,
23,
21,
21,
18,
15,
12,
8,
2,
-3,
-10,
-14,
-20,
-23,
-26,
-26,
-24,
-22,
-17,
-12,
-3,
4,
13,
21,
29,
37,
44,
47,
49,
49,
48,
44,
38,
33,
25,
17,
9,
3,
-3,
-8,
-10,
-12,
-14,
-14,
-13,
-18,
-10,
-14,
-10,
-11,
-10,
-5,
-4,
1,
6,
12,
18,
24,
27,
29,
30,
31,
24,
33,
24,
28,
21,
21,
16,
12,
10,
6,
4,
3,
3,
2,
3,
3,
2,
1,
-2,
0,
-4,
-3,
-4,
-2,
-2,
0,
0,
1,
1,
1,
3,
4,
6,
10,
16,
21,
28,
33,
34,
36,
34,
27,
29,
20,
18,
14,
14,
16,
16,
18,
18,
18,
18,
17,
12,
8,
2,
-2,
-6,
-10,
-12,
-15,
-16,
-15,
-16,
-12,
-10,
-4,
1,
8,
14,
22,
30,
37,
42,
44,
47,
48,
45,
42,
35,
29,
20,
13,
5,
0,
-6,
-11,
-13,
-14,
-15,
-13,
-14,
-11,
-11,
-10,
-9,
-8,
-7,
-4,
0,
-3,
1,
2,
5,
8,
10,
14,
16,
21,
24,
28,
32,
33,
34,
33,
29,
26,
21,
15,
7,
0,
-8,
-11,
-16,
-15,
-12,
-4,
4,
14,
22,
30,
35,
36,
34,
31,
26,
18,
13,
8,
6,
6,
8,
11,
12,
17,
17,
20,
20,
19,
16,
14,
12,
9,
8,
8,
1,
6,
-1,
-6,
-9,
-8,
-10,
-7,
-8,
-5,
-5,
-5,
-8,
0,
-4,
1,
1,
6,
9,
16,
20,
25,
28,
28,
30,
26,
25,
22,
20,
18,
18,
19,
22,
24,
25,
25,
22,
18,
10,
4,
-4,
-10,
-18,
-20,
-22,
-20,
-18,
-13,
-7,
0,
5,
12,
17,
22,
26,
29,
30,
29,
28,
30,
21,
21,
17,
17,
15,
14,
12,
9,
6,
1,
-3,
-6,
-10,
-13,
-13,
-13,
-11,
-9,
-6,
-2,
2,
4,
10,
11,
15,
16,
14,
16,
13,
13,
13,
18,
16,
24,
26,
31,
32,
33,
31,
30,
28,
24,
21,
17,
9,
15,
5,
9,
5,
8,
8,
9,
9,
7,
5,
2,
0,
-2,
-8,
-4,
-6,
-5,
-7,
-6,
-6,
-6,
-5,
-2,
0,
4,
8,
14,
20,
26,
30,
32,
33,
32,
32,
27,
25,
22,
18,
15,
12,
12,
9,
7,
6,
4,
4,
0,
-1,
-4,
-4,
-6,
-7,
-9,
-9,
-11,
-10,
-9,
-8,
-5,
-4,
0,
2,
6,
11,
15,
18,
22,
25,
28,
31,
30,
22,
29,
20,
19,
13,
12,
9,
9,
8,
9,
10,
10,
12,
9,
8,
4,
2,
-1,
1,
1,
0,
14,
8,
21,
20,
26,
27,
29,
30,
30,
30,
29,
29,
30,
29,
28,
26,
21,
17,
12,
6,
1,
-4,
-10,
-15,
-18,
-18,
-20,
-18,
-17,
-15,
-13,
-10,
-9,
-8,
-7,
-5,
-4,
-4,
4,
3,
11,
16,
24,
32,
38,
45,
48,
48,
46,
41,
34,
25,
15,
8,
-1,
-6,
-8,
-8,
-4,
-3,
2,
5,
6,
8,
5,
4,
1,
0,
0,
0,
0,
3,
5,
8,
10,
12,
14,
16,
19,
17,
20,
20,
20,
18,
18,
16,
13,
9,
4,
1,
-4,
-11,
-5,
-12,
-6,
-6,
-2,
-3,
1,
3,
5,
8,
8,
9,
8,
10,
10,
13,
18,
21,
26,
30,
32,
34,
32,
32,
30,
26,
22,
20,
17,
15,
14,
13,
13,
12,
11,
10,
6,
5,
1,
-1,
-3,
-2,
-4,
-4,
-3,
-2,
0,
2,
5,
8,
10,
14,
15,
16,
18,
19,
21,
23,
24,
26,
23,
26,
20,
14,
9,
6,
-1,
-4,
-8,
-10,
-11,
-11,
-9,
-6,
-3,
0,
1,
4,
8,
8,
12,
13,
18,
18,
21,
21,
20,
19,
18,
15,
11,
5,
9,
1,
3,
0,
0,
0,
2,
5,
7,
9,
10,
12,
14,
14,
13,
13,
14,
15,
16,
17,
17,
19,
18,
18,
18,
16,
14,
13,
8,
6,
2,
2,
-2,
-3,
-6,
-6,
-5,
-1,
4,
13,
23,
32,
42,
49,
52,
51,
46,
41,
31,
24,
13,
6,
1,
-2,
-6,
-6,
-9,
-10,
-10,
-10,
-12,
-12,
-12,
-12,
-11,
-10,
-8,
-4,
0,
2,
4,
6,
8,
9,
9,
9,
13,
15,
18,
24,
28,
31,
36,
38,
40,
38,
32,
33,
22,
18,
4,
3,
-8,
-10,
-12,
-14,
-9,
-8,
-2,
2,
8,
11,
15,
16,
16,
16,
15,
14,
10,
10,
6,
5,
4,
2,
2,
1,
1,
1,
4,
5,
8,
11,
14,
16,
16,
13,
12,
9,
6,
3,
2,
0,
0,
-2,
-2,
-2,
-2,
-1,
1,
3,
8,
12,
14,
18,
15,
21,
17,
22,
21,
24,
24,
25,
28,
28,
30,
30,
32,
28,
29,
24,
18,
13,
8,
1,
-4,
-7,
-11,
-14,
-15,
-14,
-15,
-9,
-5,
0,
6,
13,
19,
25,
29,
32,
32,
31,
26,
33,
25,
27,
22,
22,
18,
16,
12,
6,
0,
-8,
-12,
-17,
-20,
-21,
-20,
-18,
-14,
-11,
-6,
-3,
-4,
-2,
-1,
3,
6,
10,
14,
17,
24,
28,
32,
36,
38,
38,
38,
36,
37,
33,
31,
25,
18,
12,
5,
-4,
-10,
-16,
-19,
-21,
-18,
-15,
-11,
-6,
0,
3,
6,
9,
12,
13,
14,
17,
18,
20,
21,
24,
25,
26,
26,
26,
27,
26,
24,
22,
19,
16,
12,
6,
5,
-1,
-6,
-6,
-4,
0,
6,
12,
20,
26,
28,
28,
26,
18,
16,
8,
4,
-1,
-4,
-4,
-4,
-2,
0,
-1,
1,
1,
-1,
-2,
-4,
-5,
-6,
-6,
-4,
-1,
4,
9,
14,
20,
25,
32,
37,
41,
44,
46,
45,
42,
40,
33,
27,
18,
12,
2,
-4,
-10,
-17,
-20,
-23,
-24,
-22,
-22,
-19,
-14,
-6,
0,
8,
12,
18,
22,
25,
25,
24,
24,
20,
19,
16,
15,
14,
13,
13,
13,
12,
9,
6,
5,
2,
2,
2,
3,
2,
2,
1,
-1,
-2,
-4,
-4,
-4,
-2,
0,
5,
9,
13,
16,
19,
22,
24,
25,
30,
28,
31,
28,
29,
26,
26,
22,
20,
17,
14,
6,
8,
1,
1,
-3,
-3,
-4,
-3,
0,
3,
9,
14,
20,
24,
29,
31,
32,
32,
31,
30,
27,
21,
17,
10,
6,
-4,
-6,
-14,
-16,
-17,
-17,
-15,
-12,
-8,
-4,
-1,
3,
6,
8,
9,
8,
8,
8,
5,
5,
4,
7,
8,
12,
14,
17,
21,
24,
25,
26,
27,
26,
25,
16,
20,
14,
10,
5,
0,
-3,
-6,
-8,
-11,
-8,
-8,
-4,
-2,
1,
3,
5,
7,
8,
10,
10,
9,
17,
12,
20,
17,
22,
21,
24,
24,
26,
26,
25,
25,
22,
21,
20,
18,
17,
14,
14,
12,
12,
10,
9,
6,
5,
1,
-2,
-6,
-8,
-9,
-7,
-4,
2,
9,
18,
24,
28,
36,
33,
35,
30,
25,
19,
10,
5,
0,
-4,
-6,
-6,
-5,
-4,
-4,
-2,
-2,
0,
1,
2,
2,
1,
2,
1,
5,
5,
12,
16,
24,
30,
36,
38,
40,
39,
36,
32,
24,
17,
10,
2,
-4,
-10,
-15,
-19,
-20,
-21,
-20,
-16,
-11,
-4,
2,
10,
16,
21,
29,
26,
28,
24,
21,
14,
13,
8,
8,
6,
5,
5,
3,
2,
3,
2,
2,
2,
1,
1,
2,
4,
6,
9,
12,
14,
14,
16,
15,
16,
14,
12,
12,
11,
12,
12,
13,
14,
15,
18,
20,
20,
21,
21,
18,
15,
12,
8,
5,
3,
0,
0,
0,
2,
5,
9,
13,
18,
23,
26,
28,
33,
30,
25,
22,
20,
14,
12,
8,
5,
3,
1,
1,
0,
2,
-2,
-2,
-4,
-4,
-8,
-10,
-10,
-11,
-11,
-7,
-10,
-4,
-4,
1,
1,
9,
14,
19,
28,
31,
38,
41,
43,
42,
41,
37,
32,
26,
19,
12,
6,
2,
-2,
-3,
-6,
-7,
-9,
-8,
-10,
-11,
-11,
-11,
-11,
-10,
-6,
-11,
-8,
-8,
-2,
-2,
2,
6,
9,
16,
20,
28,
33,
40,
44,
48,
49,
48,
46,
42,
37,
29,
23,
16,
9,
5,
-2,
-3,
-6,
-8,
-9,
-10,
-10,
-8,
-8,
-6,
-3,
0,
3,
6,
9,
12,
13,
16,
16,
17,
17,
20,
23,
25,
30,
34,
35,
35,
32,
28,
19,
12,
5,
-6,
-7,
-19,
-12,
-22,
-16,
-18,
-16,
-16,
-15,
-15,
-15,
-11,
-9,
-3,
4,
10,
17,
25,
30,
35,
37,
39,
40,
40,
38,
32,
29,
22,
18,
12,
9,
4,
1,
0,
-3,
-3,
-3,
-2,
0,
3,
7,
10,
13,
14,
16,
18,
16,
15,
12,
6,
3,
-3,
-8,
-8,
-12,
-9,
-8,
-10,
3,
3,
12,
12,
16,
18,
18,
18,
17,
17,
16,
17,
16,
18,
16,
18,
17,
18,
16,
14,
12,
9,
6,
6,
1,
3,
2,
5,
8,
12,
15,
19,
19,
20,
14,
18,
6,
6,
0,
-2,
-4,
-4,
-2,
1,
6,
12,
16,
20,
21,
25,
24,
25,
22,
20,
17,
15,
12,
7,
6,
1,
0,
-2,
-1,
-1,
-1,
1,
1,
2,
2,
3,
3,
4,
4,
4,
4,
4,
6,
9,
12,
14,
21,
20,
26,
24,
26,
26,
25,
24,
22,
21,
18,
17,
16,
12,
10,
6,
2,
-1,
-4,
-7,
-9,
-12,
-12,
-13,
-14,
-12,
-11,
-10,
-9,
-4,
-2,
4,
5,
12,
14,
20,
24,
22,
26,
30,
30,
33,
33,
34,
29,
33,
24,
25,
21,
17,
12,
9,
5,
3,
0,
1,
2,
6,
9,
12,
15,
16,
19,
18,
19,
18,
17,
14,
10,
6,
3,
-2,
-4,
-6,
-6,
-4,
-2,
1,
6,
10,
15,
18,
18,
18,
16,
11,
6,
0,
-3,
-6,
-8,
-8,
-8,
-4,
-5,
-4,
0,
4,
5,
12,
16,
20,
24,
28,
30,
33,
33,
32,
28,
23,
16,
12,
6,
4,
3,
2,
6,
2,
8,
6,
6,
6,
5,
6,
6,
9,
11,
14,
17,
19,
18,
14,
12,
7,
0,
-2,
-2,
-3,
-1,
0,
1,
1,
1,
2,
2,
4,
5,
8,
10,
11,
13,
13,
10,
11,
8,
9,
6,
8,
8,
9,
13,
16,
22,
28,
31,
33,
33,
31,
28,
21,
14,
7,
2,
-1,
-5,
-9,
-10,
-13,
-10,
-10,
-8,
-8,
-7,
-4,
-2,
1,
5,
9,
16,
21,
26,
30,
33,
35,
37,
37,
38,
37,
36,
34,
31,
27,
21,
14,
9,
1,
-5,
-12,
-15,
-18,
-26,
-19,
-22,
-18,
-17,
-13,
-10,
-5,
0,
2,
7,
9,
15,
15,
19,
19,
28,
24,
31,
30,
32,
29,
28,
25,
20,
20,
13,
13,
10,
8,
10,
6,
5,
2,
-1,
-4,
-8,
-10,
-14,
-12,
-10,
-6,
-3,
1,
5,
6,
6,
5,
4,
1,
0,
-1,
-1,
1,
5,
12,
20,
28,
31,
44,
44,
49,
48,
48,
46,
44,
42,
37,
34,
32,
28,
23,
20,
14,
11,
6,
3,
-4,
-10,
-16,
-20,
-24,
-29,
-31,
-34,
-34,
-35,
-34,
-32,
-26,
-20,
-11,
1,
13,
28,
40,
50,
56,
60,
59,
56,
49,
40,
30,
20,
8,
9,
-4,
-3,
-7,
-6,
-4,
-2,
1,
4,
8,
9,
11,
6,
4,
2,
-2,
-3,
-7,
-6,
-5,
-2,
2,
9,
14,
18,
22,
24,
24,
25,
23,
21,
19,
16,
16,
14,
17,
20,
24,
28,
30,
30,
28,
24,
17,
10,
1,
-6,
-11,
-15,
-18,
-19,
-20,
-19,
-16,
-14,
-11,
-7,
-2,
4,
9,
14,
18,
22,
25,
26,
26,
26,
25,
26,
22,
19,
18,
16,
13,
12,
8,
6,
3,
0,
-4,
-7,
-8,
-7,
-7,
-2,
0,
4,
8,
10,
10,
18,
15,
19,
17,
21,
20,
21,
22,
22,
24,
25,
27,
28,
28,
29,
29,
26,
23,
20,
14,
10,
5,
0,
-4,
-8,
-11,
-14,
-15,
-16,
-16,
-17,
-15,
-14,
-9,
-6,
1,
5,
9,
17,
20,
24,
24,
27,
24,
24,
21,
18,
18,
16,
17,
16,
20,
19,
22,
20,
21,
20,
19,
16,
14,
13,
9,
8,
3,
0,
-4,
-8,
-11,
-15,
-14,
-16,
-14,
-12,
-8,
-3,
1,
8,
14,
18,
24,
28,
30,
33,
34,
34,
33,
31,
31,
28,
24,
28,
21,
24,
19,
17,
10,
13,
8,
8,
4,
3,
-1,
-4,
-8,
-13,
-14,
-18,
-17,
-19,
-18,
-17,
-14,
-12,
-8,
-7,
-2,
0,
3,
6,
10,
13,
19,
24,
33,
37,
44,
47,
50,
48,
44,
37,
29,
18,
10,
2,
-4,
-7,
-7,
-5,
-3,
2,
8,
9,
12,
13,
11,
8,
8,
4,
2,
1,
0,
-1,
-6,
0,
-6,
-3,
-4,
0,
5,
10,
17,
20,
26,
29,
32,
30,
30,
29,
29,
28,
29,
29,
28,
28,
25,
21,
17,
8,
2,
-3,
-12,
-14,
-19,
-18,
-17,
-16,
-11,
-7,
-4,
-1,
1,
1,
2,
2,
3,
1,
4,
4,
7,
9,
12,
16,
18,
21,
22,
25,
25,
25,
25,
23,
22,
20,
13,
12,
9,
6,
5,
2,
0,
0,
0,
2,
3,
5,
8,
9,
11,
12,
13,
13,
16,
17,
20,
20,
22,
22,
22,
22,
20,
18,
16,
14,
10,
8,
5,
2,
0,
-2,
-4,
-4,
-4,
-4,
-4,
-3,
-1,
-2,
0,
1,
2,
3,
5,
8,
10,
13,
16,
18,
18,
16,
25,
18,
16,
16,
14,
13,
13,
12,
14,
14,
15,
18,
20,
22,
24,
21,
20,
16,
15,
12,
8,
6,
5,
6,
6,
6,
10,
9,
10,
6,
6,
4,
1,
1,
2,
4,
6,
11,
13,
16,
17,
17,
16,
14,
10,
10,
6,
6,
5,
5,
8,
9,
10,
12,
12,
12,
12,
12,
15,
9,
8,
5,
6,
2,
2,
0,
2,
1,
2,
2,
3,
5,
3,
4,
2,
2,
2,
4,
5,
10,
16,
22,
30,
36,
40,
44,
38,
36,
28,
17,
18,
6,
7,
4,
6,
8,
10,
12,
12,
12,
9,
6,
2,
-3,
-5,
-8,
-7,
-4,
0,
3,
5,
8,
9,
9,
8,
8,
6,
0,
2,
0,
2,
-1,
2,
1,
3,
8,
12,
19,
25,
34,
38,
44,
46,
45,
41,
35,
26,
15,
8,
-2,
-6,
-12,
-14,
-14,
-15,
-12,
-12,
-9,
-9,
-6,
-4,
-2,
-1,
2,
2,
5,
8,
10,
12,
14,
14,
16,
14,
14,
16,
18,
19,
21,
21,
21,
21,
22,
20,
17,
17,
9,
16,
10,
11,
5,
9,
4,
6,
5,
5,
5,
6,
8,
9,
13,
14,
17,
16,
15,
12,
8,
4,
2,
-1,
-2,
0,
-1,
0,
4,
4,
5,
6,
8,
8,
10,
10,
12,
12,
12,
10,
12,
8,
9,
8,
8,
9,
12,
14,
17,
20,
21,
22,
21,
20,
18,
16,
14,
12,
9,
14,
10,
12,
10,
11,
10,
9,
9,
8,
8,
6,
8,
9,
10,
11,
13,
12,
13,
13,
13,
12,
12,
10,
9,
8,
5,
2,
2,
-1,
-2,
-3,
0,
0,
5,
4,
17,
12,
19,
16,
16,
12,
9,
6,
3,
0,
0,
-2,
-2,
-1,
0,
0,
2,
2,
5,
8,
12,
12,
16,
17,
13,
16,
16,
14,
16,
14,
14,
13,
12,
12,
12,
14,
16,
18,
21,
24,
25,
26,
26,
23,
21,
17,
15,
12,
10,
8,
11,
10,
14,
16,
18,
20,
21,
21,
19,
16,
10,
4,
-3,
-8,
-14,
-15,
-16,
-16,
-15,
-12,
-10,
-8,
-4,
-3,
-2,
1,
0,
2,
1,
3,
5,
6,
8,
14,
22,
28,
37,
41,
42,
49,
45,
46,
40,
37,
32,
26,
20,
14,
9,
5,
-2,
-6,
-10,
-14,
-16,
-19,
-19,
-20,
-19,
-18,
-16,
-13,
-10,
-7,
-5,
-1,
2,
7,
12,
17,
22,
28,
33,
36,
39,
40,
40,
38,
34,
32,
26,
21,
14,
10,
7,
5,
2,
1,
2,
-3,
1,
-2,
-2,
-6,
-4,
-7,
-6,
-6,
-6,
-3,
-2,
0,
2,
5,
7,
9,
9,
9,
11,
12,
13,
15,
15,
20,
24,
25,
28,
28,
29,
28,
27,
26,
24,
22,
18,
16,
14,
8,
8,
6,
3,
5,
2,
4,
2,
2,
1,
0,
-2,
-2,
-4,
-4,
-3,
-2,
0,
5,
9,
8,
17,
17,
20,
20,
22,
22,
22,
22,
21,
22,
20,
21,
18,
16,
12,
10,
7,
8,
5,
6,
4,
6,
5,
5,
4,
0,
-2,
-7,
-8,
-8,
-8,
-5,
-1,
2,
5,
8,
9,
11,
10,
10,
9,
9,
9,
10,
9,
11,
10,
12,
13,
14,
16,
17,
18,
21,
22,
25,
22,
19,
23,
16,
15,
9,
5,
2,
-2,
-1,
0,
2,
8,
15,
26,
31,
40,
43,
44,
42,
37,
31,
25,
18,
12,
5,
-3,
-8,
-14,
-19,
-22,
-23,
-22,
-20,
-16,
-10,
-7,
-2,
1,
4,
6,
7,
6,
6,
5,
3,
1,
-1,
-1,
0,
1,
5,
8,
14,
20,
28,
34,
38,
41,
43,
44,
37,
35,
30,
25,
21,
13,
10,
3,
0,
-4,
-5,
-4,
-3,
-3,
-2,
0,
2,
2,
5,
2,
3,
2,
2,
0,
2,
2,
2,
4,
3,
6,
8,
10,
12,
16,
19,
24,
26,
30,
32,
32,
29,
22,
24,
13,
11,
2,
0,
-3,
-6,
-6,
-7,
-8,
-8,
-9,
-9,
-9,
-6,
-8,
-8,
-6,
-2,
0,
5,
8,
12,
17,
21,
26,
28,
32,
32,
33,
33,
33,
31,
30,
27,
24,
22,
17,
14,
11,
8,
5,
0,
-2,
-5,
-6,
-6,
-6,
-5,
-4,
-2,
0,
2,
4,
6,
8,
12,
14,
18,
21,
22,
24,
24,
24,
23,
20,
19,
16,
14,
12,
10,
8,
8,
4,
6,
1,
4,
1,
1,
0,
0,
2,
2,
3,
6,
9,
9,
9,
6,
11,
8,
12,
11,
13,
12,
12,
8,
6,
4,
2,
2,
1,
5,
5,
9,
10,
12,
12,
11,
10,
8,
5,
3,
3,
1,
4,
5,
9,
11,
13,
17,
18,
18,
17,
15,
13,
11,
9,
7,
6,
8,
5,
14,
18,
28,
32,
41,
45,
46,
46,
42,
36,
26,
17,
9,
5,
0,
0,
-3,
1,
-2,
0,
-3,
-6,
-11,
-16,
-20,
-23,
-27,
-25,
-26,
-22,
-18,
-13,
-9,
-2,
2,
9,
12,
16,
17,
21,
24,
26,
28,
31,
30,
38,
40,
42,
44,
42,
40,
36,
29,
21,
12,
3,
-4,
-13,
-11,
-16,
-12,
-13,
-8,
-6,
-4,
-1,
0,
1,
1,
4,
6,
12,
12,
17,
17,
21,
23,
24,
26,
26,
24,
22,
20,
16,
11,
6,
1,
-1,
-3,
0,
1,
4,
7,
12,
14,
14,
12,
8,
3,
-2,
-6,
-10,
-11,
-10,
-8,
-6,
-3,
1,
4,
8,
10,
14,
16,
17,
20,
20,
22,
18,
19,
17,
16,
15,
14,
13,
12,
13,
15,
16,
17,
18,
20,
19,
19,
14,
19,
10,
12,
8,
6,
4,
2,
3,
3,
7,
6,
9,
12,
12,
14,
14,
14,
15,
14,
16,
16,
17,
17,
18,
18,
16,
14,
12,
9,
5,
2,
-2,
-3,
-6,
-6,
-7,
-6,
-6,
-4,
1,
1,
-2,
0,
1,
2,
8,
10,
14,
16,
18,
18,
20,
21,
21,
23,
22,
23,
22,
20,
19,
17,
14,
11,
9,
6,
2,
1,
0,
0,
-2,
-2,
-3,
-3,
-4,
-3,
-1,
1,
6,
7,
11,
11,
13,
13,
12,
12,
12,
14,
16,
16,
28,
28,
40,
46,
55,
62,
65,
65,
64,
52,
40,
28,
14,
0,
-13,
-24,
-33,
-40,
-45,
-46,
-45,
-41,
-38,
-34,
-30,
-27,
-21,
-16,
-10,
-4,
1,
7,
12,
18,
22,
29,
31,
36,
36,
37,
36,
34,
32,
30,
28,
25,
24,
24,
23,
24,
22,
21,
18,
16,
12,
8,
2,
-2,
-6,
-11,
-14,
-17,
-17,
-16,
-16,
-12,
-8,
-6,
5,
12,
23,
28,
33,
34,
32,
32,
28,
26,
25,
25,
24,
26,
24,
25,
24,
22,
18,
15,
7,
9,
-2,
-2,
-9,
-9,
-12,
-12,
-12,
-12,
-10,
-11,
-10,
-10,
-8,
-4,
-3,
0,
2,
6,
9,
12,
16,
18,
18,
19,
20,
20,
20,
18,
18,
17,
14,
14,
12,
12,
11,
6,
13,
10,
14,
12,
13,
12,
12,
12,
10,
10,
10,
13,
12,
16,
16,
17,
17,
19,
18,
18,
16,
16,
15,
13,
12,
12,
11,
12,
11,
10,
