data/ALL0007/A0007CH2.CSV

Memory Length,4000,
Trigger Level,0.000E+00,
Source,CH2,
Probe,1X,
Vertical Units,V,
Vertical Scale,1.000E-02,
Vertical Position,0.000E+00,
Horizontal Units,s,
Horizontal Scale,2.500E-05,
Horizontal Position,4.000E-06,
Horizontal Mode,Main,
Sampling Period,1.000E-07,
Firmware,V1.13,
Time, ,
Mode,Fast,
Waveform Data,
26,
26,
-7,
-6,
-7,
-8,
-6,
-7,
-6,
-7,
-4,
-3,
-2,
1,
5,
8,
13,
18,
22,
25,
28,
25,
28,
22,
22,
17,
16,
12,
13,
12,
10,
11,
10,
10,
9,
8,
6,
5,
5,
1,
-3,
-4,
-2,
-4,
-2,
-2,
0,
0,
0,
1,
2,
4,
6,
10,
14,
19,
27,
32,
37,
40,
46,
37,
42,
34,
30,
24,
17,
10,
4,
-2,
-6,
-9,
-12,
-16,
-18,
-22,
-23,
-25,
-24,
-24,
-21,
-17,
-10,
-2,
8,
16,
25,
31,
37,
40,
41,
40,
40,
40,
38,
37,
36,
28,
28,
23,
25,
21,
22,
21,
20,
17,
17,
12,
8,
4,
-3,
-10,
-16,
-18,
-24,
-23,
-24,
-20,
-17,
-11,
-6,
-2,
1,
5,
8,
10,
13,
14,
16,
18,
20,
20,
22,
23,
24,
23,
22,
22,
21,
21,
22,
22,
23,
24,
23,
21,
18,
13,
9,
0,
-4,
-10,
-15,
-18,
-18,
-24,
-14,
-13,
-5,
0,
9,
12,
18,
21,
24,
28,
29,
31,
32,
33,
33,
33,
33,
29,
28,
22,
16,
9,
2,
-4,
-10,
-17,
-20,
-23,
-25,
-26,
-25,
-22,
-18,
-10,
-6,
2,
7,
14,
20,
24,
27,
33,
30,
36,
34,
36,
36,
35,
34,
34,
33,
32,
29,
27,
24,
20,
16,
5,
10,
1,
0,
-8,
-10,
-14,
-15,
-15,
-15,
-11,
-9,
-2,
-1,
4,
5,
9,
12,
14,
16,
19,
21,
22,
25,
28,
28,
28,
26,
26,
22,
20,
17,
13,
9,
4,
1,
-2,
-6,
-7,
-9,
-11,
-11,
-10,
-10,
-8,
-8,
-4,
-3,
1,
3,
8,
12,
16,
19,
21,
24,
25,
25,
23,
26,
16,
20,
16,
15,
16,
13,
14,
14,
18,
14,
20,
18,
20,
18,
18,
17,
16,
14,
12,
10,
8,
5,
4,
-1,
-2,
-6,
-8,
-11,
-12,
-14,
-16,
-16,
-15,
-13,
-10,
-4,
2,
9,
16,
23,
29,
33,
38,
38,
40,
38,
38,
37,
37,
36,
34,
32,
31,
28,
23,
17,
13,
6,
-4,
-8,
-12,
-18,
-19,
-22,
-22,
-24,
-25,
-24,
-22,
-20,
-16,
-12,
-6,
-1,
6,
12,
20,
26,
32,
37,
41,
45,
48,
48,
48,
46,
45,
41,
37,
33,
26,
17,
14,
2,
-1,
-11,
-15,
-20,
-25,
-28,
-31,
-32,
-32,
-30,
-27,
-22,
-17,
-11,
-4,
4,
12,
20,
28,
32,
40,
41,
42,
45,
45,
44,
45,
43,
40,
34,
28,
21,
14,
6,
0,
-7,
-11,
-14,
-16,
-19,
-20,
-21,
-21,
-21,
-20,
-16,
-13,
-8,
-3,
2,
10,
16,
22,
29,
33,
36,
37,
40,
40,
42,
42,
43,
42,
41,
37,
33,
26,
17,
10,
2,
-3,
-8,
-12,
-15,
-10,
-18,
-14,
-15,
-10,
-13,
-10,
-12,
-2,
-7,
2,
1,
5,
6,
9,
12,
14,
19,
19,
22,
22,
23,
23,
23,
22,
20,
19,
18,
16,
13,
13,
10,
9,
8,
8,
6,
7,
6,
6,
6,
4,
2,
0,
-3,
-6,
-10,
-12,
-12,
-10,
-7,
-2,
5,
12,
19,
26,
31,
40,
37,
45,
42,
45,
44,
45,
38,
44,
36,
35,
26,
21,
12,
5,
-1,
-7,
-11,
-16,
-17,
-21,
-24,
-28,
-32,
-35,
-34,
-34,
-30,
-19,
-22,
-6,
-6,
5,
12,
18,
24,
35,
38,
46,
49,
52,
53,
54,
52,
49,
45,
41,
36,
31,
27,
19,
14,
7,
1,
-7,
-14,
-23,
-28,
-36,
-38,
-40,
-40,
-38,
-34,
-26,
-21,
-4,
2,
15,
22,
31,
37,
41,
48,
49,
51,
51,
50,
46,
45,
41,
37,
32,
28,
23,
18,
10,
4,
-5,
-12,
-21,
-28,
-36,
-42,
-44,
-44,
-42,
-39,
-35,
-30,
-21,
-12,
-5,
4,
12,
22,
32,
42,
47,
58,
58,
66,
65,
64,
61,
52,
46,
37,
30,
21,
15,
12,
4,
2,
-4,
-14,
-20,
-26,
-32,
-34,
-36,
-32,
-30,
-23,
-16,
-6,
2,
10,
17,
24,
29,
33,
35,
37,
37,
37,
36,
34,
33,
31,
29,
28,
26,
22,
19,
17,
12,
8,
2,
0,
-4,
-8,
-12,
-14,
-16,
-15,
-18,
-15,
-15,
-12,
-10,
-6,
-3,
0,
4,
8,
12,
14,
17,
20,
22,
29,
28,
25,
27,
26,
24,
26,
23,
23,
22,
21,
20,
18,
17,
13,
8,
7,
-6,
-6,
-14,
-16,
-19,
-20,
-23,
-15,
-18,
-11,
-10,
-3,
1,
8,
14,
21,
28,
32,
35,
38,
44,
41,
48,
46,
46,
44,
42,
38,
33,
29,
22,
18,
12,
9,
4,
-1,
-4,
-9,
-14,
-18,
-22,
-22,
-28,
-26,
-23,
-17,
-15,
-9,
-8,
-4,
-1,
1,
2,
5,
12,
16,
21,
25,
28,
30,
33,
34,
36,
35,
34,
32,
28,
24,
19,
14,
8,
1,
-3,
-8,
-10,
-11,
-11,
-10,
-8,
-6,
-4,
-1,
0,
8,
3,
12,
12,
18,
20,
24,
23,
32,
28,
30,
27,
25,
24,
20,
18,
16,
8,
14,
8,
6,
2,
0,
-2,
-6,
-8,
-12,
-12,
-14,
-14,
-15,
-14,
-12,
-10,
-7,
-3,
1,
7,
13,
19,
24,
30,
34,
38,
41,
42,
45,
36,
37,
28,
23,
17,
12,
8,
5,
3,
2,
1,
1,
3,
2,
2,
2,
0,
0,
-2,
-2,
0,
1,
5,
6,
8,
11,
12,
16,
10,
21,
17,
20,
20,
22,
24,
26,
26,
25,
21,
20,
14,
8,
3,
-3,
-7,
-12,
-12,
-16,
-14,
-14,
-9,
-8,
-4,
1,
3,
7,
10,
12,
14,
16,
18,
18,
21,
20,
20,
21,
21,
20,
20,
19,
18,
18,
17,
16,
15,
12,
11,
6,
2,
-1,
-4,
-7,
-10,
-11,
-11,
-8,
-8,
-1,
-2,
6,
8,
13,
14,
16,
17,
16,
14,
13,
14,
13,
15,
16,
20,
20,
25,
26,
27,
28,
29,
23,
28,
25,
26,
24,
24,
24,
24,
23,
22,
20,
18,
16,
8,
9,
0,
-4,
-10,
-16,
-23,
-23,
-24,
-24,
-22,
-19,
-14,
-9,
-3,
4,
10,
14,
18,
22,
22,
24,
24,
21,
13,
13,
10,
8,
9,
8,
11,
11,
13,
12,
14,
15,
15,
17,
16,
14,
13,
10,
9,
8,
9,
10,
11,
14,
18,
19,
22,
21,
21,
20,
17,
15,
12,
10,
8,
5,
4,
2,
1,
0,
-2,
-3,
-2,
-3,
-4,
-4,
-4,
-3,
-2,
1,
1,
4,
8,
10,
13,
14,
18,
14,
13,
16,
11,
12,
12,
14,
16,
18,
17,
26,
20,
25,
19,
24,
14,
17,
13,
15,
15,
16,
17,
15,
14,
12,
8,
6,
2,
3,
3,
5,
8,
10,
12,
14,
14,
14,
12,
11,
9,
7,
6,
5,
4,
6,
6,
8,
8,
8,
6,
4,
2,
0,
-1,
-2,
-2,
-4,
-1,
-7,
0,
0,
4,
4,
8,
10,
13,
14,
15,
18,
18,
21,
20,
22,
20,
20,
20,
19,
20,
20,
18,
19,
18,
17,
14,
12,
6,
6,
-6,
-4,
-10,
-10,
-9,
-6,
-5,
1,
3,
6,
7,
8,
8,
9,
8,
8,
9,
10,
10,
10,
11,
12,
12,
14,
18,
22,
25,
28,
28,
24,
28,
20,
20,
14,
14,
12,
16,
14,
21,
24,
28,
30,
30,
31,
28,
23,
16,
10,
3,
-3,
-9,
-15,
-18,
-22,
-23,
-23,
-20,
-16,
-11,
-4,
1,
8,
12,
16,
17,
19,
18,
18,
17,
17,
15,
14,
14,
12,
12,
13,
12,
11,
10,
8,
5,
5,
4,
9,
0,
10,
6,
5,
12,
8,
8,
10,
6,
8,
8,
8,
9,
11,
13,
16,
17,
21,
21,
22,
20,
19,
16,
13,
10,
6,
4,
2,
1,
1,
2,
4,
4,
4,
3,
5,
3,
5,
5,
5,
6,
6,
8,
8,
9,
11,
12,
10,
11,
13,
13,
16,
18,
22,
24,
25,
26,
25,
22,
20,
17,
14,
17,
5,
11,
6,
8,
8,
9,
12,
12,
14,
17,
18,
19,
18,
18,
17,
14,
12,
10,
6,
2,
3,
-7,
-7,
-12,
-10,
-12,
-8,
-9,
0,
-3,
5,
6,
10,
13,
13,
15,
15,
16,
16,
16,
15,
15,
15,
14,
14,
13,
12,
12,
10,
9,
9,
8,
8,
9,
12,
10,
17,
12,
10,
9,
8,
3,
3,
2,
-1,
-1,
-1,
1,
2,
5,
6,
8,
8,
10,
11,
12,
13,
13,
14,
13,
12,
12,
9,
8,
6,
6,
5,
8,
10,
13,
16,
18,
20,
20,
22,
22,
22,
20,
21,
24,
21,
24,
22,
26,
16,
21,
16,
20,
13,
18,
12,
12,
9,
4,
2,
-8,
-10,
-12,
-14,
-15,
-14,
-13,
-9,
-3,
2,
8,
13,
18,
19,
24,
24,
24,
21,
18,
16,
14,
11,
10,
7,
6,
5,
5,
5,
4,
4,
4,
4,
4,
4,
4,
4,
4,
5,
8,
10,
13,
14,
16,
17,
17,
17,
18,
16,
16,
14,
14,
14,
14,
12,
12,
9,
6,
4,
-4,
1,
-4,
-2,
-6,
-3,
-3,
1,
4,
6,
12,
15,
20,
21,
27,
20,
23,
17,
16,
12,
9,
5,
12,
6,
12,
12,
13,
13,
12,
10,
9,
8,
8,
8,
9,
10,
14,
17,
21,
24,
26,
25,
22,
19,
18,
10,
10,
4,
3,
1,
2,
2,
4,
3,
5,
6,
7,
9,
5,
16,
13,
18,
18,
22,
21,
18,
17,
12,
8,
1,
-2,
-8,
-11,
-12,
-13,
-10,
-7,
-3,
0,
4,
7,
9,
10,
10,
12,
11,
12,
13,
15,
18,
22,
25,
27,
29,
30,
30,
27,
28,
16,
16,
4,
2,
-6,
-10,
-16,
-12,
-15,
-11,
-10,
-6,
-3,
2,
4,
8,
10,
13,
12,
19,
14,
17,
15,
16,
17,
17,
18,
20,
23,
26,
31,
33,
36,
33,
32,
25,
20,
12,
6,
1,
-2,
-3,
-2,
-1,
1,
5,
7,
9,
10,
10,
10,
9,
8,
7,
6,
6,
6,
8,
5,
5,
1,
0,
-4,
-5,
-8,
-6,
-4,
2,
10,
18,
25,
31,
33,
33,
30,
24,
22,
16,
7,
5,
4,
4,
9,
-1,
8,
4,
8,
9,
11,
10,
12,
12,
11,
10,
8,
5,
1,
-4,
-8,
-10,
-13,
-12,
-11,
-6,
0,
8,
16,
25,
32,
37,
39,
36,
33,
26,
20,
14,
8,
6,
2,
2,
0,
1,
1,
0,
-1,
0,
0,
0,
1,
2,
4,
8,
10,
11,
14,
11,
8,
8,
9,
9,
13,
16,
21,
27,
29,
32,
32,
31,
28,
24,
19,
16,
12,
10,
7,
7,
5,
5,
2,
1,
-3,
-3,
-4,
-6,
-2,
-6,
-2,
2,
5,
8,
11,
15,
16,
18,
24,
20,
24,
22,
22,
21,
18,
17,
16,
13,
12,
10,
9,
6,
6,
5,
3,
2,
0,
-8,
-6,
-12,
-11,
-13,
-10,
-8,
-3,
2,
9,
17,
23,
32,
33,
34,
29,
25,
17,
9,
2,
-3,
-7,
-8,
-7,
-3,
1,
7,
9,
15,
17,
20,
20,
21,
20,
19,
17,
16,
14,
11,
9,
6,
4,
4,
4,
5,
7,
11,
16,
20,
24,
26,
27,
26,
23,
20,
16,
18,
4,
2,
4,
1,
2,
0,
-1,
4,
3,
6,
8,
10,
12,
16,
15,
16,
14,
13,
9,
6,
2,
0,
0,
0,
0,
4,
3,
7,
6,
8,
5,
6,
6,
8,
9,
12,
15,
17,
18,
19,
21,
19,
18,
18,
16,
14,
12,
10,
8,
4,
2,
2,
3,
5,
6,
8,
9,
9,
10,
5,
9,
3,
1,
-2,
-4,
-3,
-3,
-1,
0,
0,
3,
4,
5,
6,
6,
9,
12,
15,
21,
24,
28,
30,
32,
29,
33,
30,
30,
26,
23,
18,
13,
14,
6,
6,
2,
2,
1,
0,
-1,
-2,
-2,
-2,
-3,
-4,
-5,
-4,
-4,
-2,
0,
3,
6,
8,
12,
13,
16,
18,
19,
19,
19,
13,
15,
14,
14,
13,
12,
13,
14,
14,
17,
16,
18,
17,
18,
17,
18,
15,
14,
12,
11,
8,
6,
4,
3,
2,
2,
2,
2,
3,
5,
6,
8,
8,
9,
10,
10,
12,
13,
13,
16,
18,
20,
20,
20,
17,
13,
6,
6,
-9,
-9,
-16,
-16,
-19,
-18,
-20,
-10,
-8,
-3,
-3,
4,
9,
14,
20,
23,
26,
28,
30,
30,
32,
29,
30,
29,
28,
28,
24,
22,
20,
18,
15,
12,
12,
11,
12,
13,
14,
16,
14,
12,
9,
5,
1,
-1,
-4,
-3,
-3,
-2,
0,
4,
7,
9,
10,
11,
10,
10,
9,
10,
9,
9,
10,
12,
12,
11,
9,
8,
7,
1,
0,
-3,
-2,
-4,
0,
5,
2,
12,
12,
15,
16,
20,
20,
24,
28,
18,
25,
19,
19,
17,
17,
13,
12,
13,
9,
10,
6,
5,
0,
-2,
-3,
-4,
-3,
-3,
-3,
-2,
0,
1,
4,
7,
9,
10,
12,
14,
15,
15,
14,
12,
9,
6,
4,
1,
-1,
-3,
-3,
-2,
0,
-3,
7,
10,
16,
18,
23,
26,
25,
27,
23,
24,
24,
23,
22,
24,
26,
28,
30,
32,
32,
30,
26,
20,
12,
2,
-7,
-15,
-23,
-29,
-34,
-38,
-38,
-37,
-32,
-23,
-14,
-2,
10,
20,
28,
34,
38,
39,
39,
35,
32,
29,
25,
20,
24,
17,
20,
17,
18,
17,
18,
17,
16,
6,
14,
6,
8,
5,
4,
2,
2,
1,
2,
2,
2,
2,
4,
6,
8,
10,
12,
14,
16,
16,
16,
14,
14,
10,
7,
3,
0,
-3,
-6,
-7,
-7,
-6,
-4,
0,
0,
3,
5,
8,
9,
10,
13,
12,
16,
16,
18,
18,
20,
18,
18,
16,
16,
14,
14,
14,
12,
10,
10,
4,
10,
3,
8,
5,
9,
12,
15,
22,
15,
22,
19,
22,
18,
19,
15,
18,
14,
16,
16,
14,
14,
11,
10,
6,
3,
0,
-4,
-7,
-9,
-11,
-11,
-10,
-8,
-5,
-3,
0,
4,
5,
8,
9,
11,
13,
14,
17,
18,
19,
23,
24,
26,
24,
29,
24,
26,
23,
22,
18,
16,
12,
10,
2,
2,
1,
2,
6,
9,
10,
11,
9,
6,
4,
2,
-1,
-2,
-4,
-3,
-2,
2,
5,
9,
13,
15,
14,
13,
10,
5,
2,
0,
-1,
0,
2,
7,
10,
20,
21,
25,
28,
28,
26,
22,
24,
17,
16,
12,
10,
8,
3,
3,
1,
2,
3,
6,
8,
10,
12,
13,
17,
15,
12,
12,
13,
12,
13,
14,
14,
14,
13,
13,
9,
5,
-1,
-6,
-10,
-12,
-11,
-10,
-7,
-3,
1,
5,
8,
10,
10,
12,
12,
12,
11,
10,
9,
8,
8,
8,
11,
12,
16,
20,
24,
29,
31,
36,
32,
35,
30,
28,
23,
18,
14,
8,
5,
1,
-2,
-3,
-3,
-3,
0,
1,
-4,
0,
-2,
-3,
-4,
-6,
-8,
-4,
-6,
-2,
1,
6,
12,
15,
20,
24,
28,
32,
32,
33,
32,
30,
26,
22,
18,
13,
9,
6,
5,
5,
4,
4,
3,
1,
-2,
-5,
-8,
-9,
-11,
-8,
-7,
-2,
4,
9,
14,
18,
22,
24,
25,
26,
24,
25,
24,
24,
24,
24,
25,
19,
26,
20,
22,
14,
14,
8,
5,
0,
-4,
-7,
-11,
-14,
-16,
-16,
-16,
-15,
-14,
-10,
-8,
-4,
-1,
2,
6,
9,
14,
18,
24,
30,
33,
37,
38,
36,
30,
32,
21,
23,
17,
16,
12,
12,
8,
7,
4,
1,
0,
-2,
-3,
-3,
-2,
-2,
-1,
2,
3,
5,
6,
7,
8,
2,
10,
5,
9,
11,
13,
16,
19,
23,
24,
24,
24,
22,
20,
17,
13,
9,
8,
4,
4,
4,
5,
6,
8,
9,
10,
10,
11,
10,
9,
8,
5,
4,
3,
0,
1,
-2,
-2,
0,
1,
6,
8,
14,
18,
23,
27,
28,
28,
27,
24,
21,
12,
9,
4,
0,
0,
1,
2,
4,
16,
9,
17,
12,
12,
8,
3,
0,
0,
-2,
-2,
1,
3,
5,
6,
6,
6,
6,
6,
9,
11,
14,
16,
18,
18,
18,
18,
15,
15,
11,
13,
11,
14,
13,
14,
13,
12,
9,
6,
1,
-2,
-4,
-8,
-6,
-6,
-5,
-2,
1,
6,
10,
15,
17,
20,
22,
24,
25,
25,
28,
26,
20,
21,
20,
20,
20,
20,
20,
18,
16,
15,
11,
8,
1,
-4,
-8,
-10,
-15,
-7,
-6,
0,
4,
9,
10,
8,
12,
4,
6,
1,
1,
2,
6,
9,
14,
17,
22,
27,
28,
30,
29,
29,
26,
22,
17,
12,
8,
4,
0,
-2,
-3,
-3,
-3,
-2,
-2,
-2,
-2,
-2,
1,
-4,
-2,
0,
5,
7,
13,
14,
20,
24,
26,
30,
33,
36,
35,
36,
32,
28,
22,
18,
11,
5,
5,
-3,
-4,
-8,
-8,
-10,
-8,
-9,
-8,
-7,
-5,
-4,
0,
2,
8,
15,
22,
28,
32,
33,
32,
33,
21,
22,
13,
11,
7,
5,
1,
4,
2,
2,
3,
4,
3,
4,
4,
-3,
1,
-3,
0,
-4,
-2,
-2,
1,
4,
8,
13,
17,
24,
26,
33,
34,
36,
35,
34,
32,
27,
21,
14,
8,
-1,
-5,
-10,
-11,
-11,
-9,
-6,
-3,
0,
2,
4,
5,
6,
8,
8,
9,
11,
14,
16,
20,
22,
24,
25,
26,
25,
26,
25,
25,
24,
24,
21,
20,
13,
8,
-6,
-2,
-12,
-14,
-20,
-20,
-22,
-21,
-20,
-12,
-14,
-4,
-2,
1,
11,
8,
11,
13,
14,
16,
18,
20,
24,
28,
31,
34,
36,
37,
38,
37,
34,
31,
27,
23,
18,
14,
9,
5,
3,
0,
-2,
-3,
-5,
-4,
-5,
-4,
-3,
-2,
-2,
0,
0,
2,
3,
7,
9,
12,
16,
17,
14,
18,
10,
12,
5,
5,
4,
4,
5,
9,
13,
18,
21,
24,
25,
24,
22,
18,
14,
10,
6,
2,
-2,
-4,
-8,
-8,
-8,
-8,
-6,
-2,
0,
4,
6,
9,
16,
11,
18,
14,
16,
14,
12,
11,
13,
15,
17,
21,
24,
29,
30,
34,
34,
34,
31,
26,
19,
11,
4,
-2,
-4,
-8,
-17,
-17,
-21,
-23,
-22,
-20,
-11,
-13,
0,
5,
17,
24,
29,
32,
32,
32,
30,
29,
26,
24,
24,
25,
26,
28,
28,
26,
23,
18,
13,
7,
0,
-5,
-11,
-15,
-20,
-22,
-23,
-22,
-22,
-19,
-16,
-11,
-6,
1,
8,
15,
22,
29,
33,
36,
38,
38,
37,
36,
34,
33,
33,
33,
16,
21,
14,
13,
8,
5,
0,
-3,
-4,
-9,
-10,
-12,
-15,
-16,
-16,
-13,
-10,
-6,
-2,
2,
7,
11,
17,
22,
26,
30,
32,
35,
34,
36,
34,
34,
32,
29,
28,
25,
21,
18,
17,
14,
13,
10,
10,
6,
1,
-7,
-16,
-26,
-36,
-45,
-51,
-52,
-51,
-44,
-36,
-23,
-8,
5,
14,
29,
39,
46,
52,
54,
56,
54,
52,
49,
45,
42,
37,
33,
28,
25,
21,
17,
15,
12,
9,
6,
2,
-1,
-2,
-14,
-12,
-20,
-20,
-21,
-19,
-18,
-14,
-4,
1,
10,
15,
21,
25,
28,
30,
31,
30,
28,
28,
26,
23,
20,
18,
16,
13,
11,
12,
10,
9,
7,
5,
-4,
0,
-8,
-10,
-17,
-19,
-22,
-21,
-19,
-16,
-10,
-3,
3,
9,
16,
20,
22,
24,
24,
22,
20,
18,
18,
19,
20,
22,
23,
26,
28,
29,
28,
28,
24,
21,
14,
9,
4,
0,
-1,
1,
5,
10,
14,
17,
18,
15,
12,
4,
-2,
-6,
-6,
-8,
-8,
-6,
-4,
0,
4,
6,
3,
16,
10,
18,
18,
22,
24,
26,
26,
25,
21,
18,
14,
10,
6,
1,
-3,
-6,
-8,
-8,
-9,
-8,
-6,
-4,
0,
1,
3,
8,
9,
12,
12,
14,
15,
17,
17,
19,
20,
21,
22,
25,
24,
24,
23,
22,
21,
20,
18,
17,
17,
15,
15,
13,
12,
9,
6,
5,
2,
0,
-4,
-6,
-16,
-15,
-20,
-18,
-15,
-11,
-4,
4,
12,
20,
26,
31,
34,
36,
36,
36,
34,
37,
34,
33,
29,
26,
17,
9,
8,
-4,
-6,
-14,
-17,
-22,
-23,
-24,
-24,
-22,
-20,
-16,
-14,
-11,
-8,
-4,
0,
4,
14,
15,
26,
30,
36,
40,
43,
44,
43,
40,
37,
33,
28,
22,
21,
13,
6,
1,
-2,
-7,
-9,
-12,
-12,
-12,
-10,
-6,
0,
7,
12,
18,
20,
21,
20,
20,
18,
16,
14,
13,
14,
14,
17,
18,
21,
21,
22,
22,
19,
16,
10,
5,
-2,
-7,
-11,
-15,
-18,
-18,
-19,
-16,
-10,
-6,
-1,
4,
9,
12,
12,
21,
17,
22,
19,
21,
22,
22,
26,
18,
18,
15,
14,
9,
7,
2,
0,
-2,
-3,
0,
3,
10,
14,
18,
24,
26,
28,
25,
21,
16,
12,
10,
10,
10,
12,
12,
14,
15,
16,
16,
13,
10,
8,
3,
0,
-3,
-8,
-7,
-10,
-8,
-7,
-5,
-2,
0,
1,
5,
6,
10,
12,
14,
18,
20,
22,
22,
26,
27,
28,
20,
25,
18,
18,
13,
12,
8,
6,
6,
10,
2,
4,
0,
1,
0,
0,
-7,
-3,
-7,
-3,
-3,
-1,
1,
4,
10,
15,
20,
22,
25,
27,
26,
27,
21,
21,
17,
18,
16,
16,
15,
14,
12,
10,
6,
2,
-4,
-8,
-12,
-13,
-14,
-11,
-8,
-2,
5,
15,
22,
29,
31,
33,
24,
30,
21,
18,
9,
6,
3,
4,
2,
6,
8,
12,
16,
18,
18,
16,
13,
9,
2,
-1,
-5,
-8,
-8,
-8,
-6,
-2,
4,
9,
15,
16,
20,
20,
18,
16,
17,
9,
12,
9,
9,
8,
7,
4,
3,
1,
0,
0,
0,
3,
6,
10,
14,
18,
20,
21,
21,
21,
19,
18,
14,
21,
17,
24,
23,
27,
28,
28,
27,
23,
19,
16,
10,
6,
1,
-3,
-7,
-9,
-11,
-12,
-12,
-12,
-13,
-12,
-12,
-12,
-9,
-10,
-4,
-2,
4,
11,
17,
24,
31,
36,
37,
37,
34,
29,
23,
16,
10,
4,
1,
1,
1,
2,
4,
5,
5,
6,
6,
8,
6,
5,
5,
5,
6,
12,
-4,
6,
5,
14,
20,
27,
32,
34,
37,
33,
32,
25,
17,
10,
5,
0,
-4,
-7,
-9,
-7,
-10,
-2,
-2,
4,
7,
12,
16,
17,
18,
18,
17,
16,
13,
12,
11,
10,
10,
12,
14,
14,
16,
14,
13,
11,
10,
7,
4,
2,
0,
-2,
-2,
-1,
0,
0,
2,
4,
9,
9,
9,
11,
13,
12,
13,
10,
10,
9,
7,
8,
10,
12,
17,
20,
24,
24,
26,
24,
21,
19,
15,
13,
9,
5,
5,
-1,
4,
0,
3,
2,
5,
4,
4,
10,
6,
10,
8,
6,
5,
5,
5,
3,
3,
4,
5,
6,
8,
11,
14,
15,
19,
20,
23,
24,
26,
26,
26,
19,
17,
10,
8,
1,
-1,
-5,
-6,
-6,
-5,
-4,
0,
2,
8,
5,
13,
10,
14,
12,
14,
13,
13,
12,
10,
10,
11,
12,
16,
18,
22,
22,
22,
20,
17,
13,
9,
7,
4,
3,
4,
4,
6,
6,
8,
8,
9,
9,
9,
8,
7,
6,
4,
8,
6,
6,
9,
8,
9,
1,
14,
5,
14,
9,
15,
15,
18,
18,
16,
17,
12,
11,
6,
3,
1,
0,
1,
4,
10,
13,
17,
17,
18,
16,
13,
9,
6,
4,
1,
0,
0,
0,
2,
3,
5,
5,
8,
8,
9,
8,
8,
9,
10,
14,
17,
18,
19,
18,
16,
14,
11,
8,
5,
5,
6,
8,
10,
6,
14,
8,
11,
10,
10,
12,
12,
17,
16,
21,
23,
27,
26,
26,
23,
20,
18,
13,
14,
10,
10,
10,
9,
8,
4,
9,
0,
2,
-3,
-3,
-4,
-5,
-4,
-6,
-4,
-4,
-3,
-1,
-1,
1,
2,
5,
6,
9,
10,
12,
12,
14,
14,
14,
14,
12,
12,
13,
13,
14,
15,
17,
20,
17,
23,
20,
23,
22,
22,
22,
18,
16,
13,
8,
4,
-1,
-4,
-6,
-8,
-7,
-8,
-7,
-4,
-2,
1,
5,
9,
14,
18,
23,
26,
28,
28,
26,
24,
20,
17,
14,
12,
12,
11,
12,
14,
17,
14,
20,
15,
13,
10,
5,
-2,
-8,
-6,
-14,
-13,
-16,
-11,
-16,
-9,
-4,
-2,
-2,
4,
12,
16,
24,
29,
36,
38,
40,
41,
42,
40,
37,
32,
27,
22,
17,
13,
9,
4,
2,
-2,
-4,
-8,
-11,
-14,
-16,
-19,
-18,
-17,
-14,
-14,
-9,
-4,
0,
5,
10,
15,
21,
24,
28,
32,
34,
36,
38,
40,
41,
42,
41,
38,
36,
30,
25,
14,
7,
-3,
-8,
-23,
-27,
-32,
-31,
-32,
-24,
-21,
-11,
2,
0,
13,
14,
21,
20,
22,
19,
17,
18,
14,
14,
12,
13,
12,
13,
14,
16,
16,
17,
16,
16,
16,
16,
18,
19,
19,
20,
18,
17,
13,
10,
4,
1,
-2,
-2,
-3,
-2,
-2,
0,
7,
5,
14,
14,
17,
18,
18,
18,
17,
17,
9,
16,
14,
19,
19,
