data/ALL0023/A0023CH2.CSV

Memory Length,4000,
Trigger Level,0.000E+00,
Source,CH2,
Probe,1X,
Vertical Units,V,
Vertical Scale,1.000E-02,
Vertical Position,0.000E+00,
Horizontal Units,s,
Horizontal Scale,1.000E-05,
Horizontal Position,4.000E-06,
Horizontal Mode,Main,
Sampling Period,4.000E-08,
Firmware,V1.13,
Time, ,
Mode,Fast,
Waveform Data,
-6,
-6,
-5,
-7,
-8,
-10,
-11,
-11,
-13,
-13,
-15,
-14,
-15,
-15,
-14,
-14,
-15,
-15,
-14,
-14,
-12,
-13,
-13,
-12,
-12,
-11,
-10,
-10,
-9,
-8,
-6,
-4,
-3,
-2,
0,
2,
4,
6,
12,
10,
6,
16,
20,
18,
18,
20,
23,
26,
27,
27,
26,
28,
30,
31,
30,
30,
30,
30,
30,
30,
30,
30,
30,
29,
29,
30,
29,
30,
29,
30,
30,
29,
28,
26,
25,
24,
21,
19,
16,
13,
10,
7,
5,
0,
-3,
-6,
-8,
-12,
-15,
-18,
-19,
-22,
-22,
-23,
-26,
-26,
-26,
-27,
-28,
-27,
-27,
-27,
-27,
-27,
-26,
-25,
-24,
-24,
-24,
-22,
-20,
-19,
-18,
-16,
-14,
-10,
-8,
-4,
-2,
2,
6,
10,
14,
18,
22,
24,
28,
31,
36,
37,
38,
41,
43,
45,
46,
46,
47,
48,
48,
48,
48,
48,
48,
47,
48,
47,
46,
45,
44,
44,
44,
42,
41,
40,
40,
40,
37,
34,
32,
30,
30,
33,
33,
27,
22,
21,
21,
18,
14,
9,
6,
4,
1,
-3,
-7,
-10,
-13,
-16,
-19,
-21,
-24,
-27,
-28,
-28,
-27,
-39,
-34,
-31,
-32,
-38,
-38,
-38,
-35,
-34,
-35,
-36,
-36,
-34,
-33,
-32,
-32,
-31,
-30,
-28,
-26,
-24,
-22,
-19,
-16,
-15,
-12,
-8,
-4,
-1,
2,
6,
12,
17,
21,
25,
29,
34,
38,
42,
48,
52,
52,
52,
55,
58,
61,
60,
59,
58,
58,
59,
57,
55,
53,
52,
52,
51,
49,
47,
46,
44,
43,
42,
41,
37,
36,
34,
32,
29,
24,
21,
18,
14,
10,
8,
2,
0,
-3,
-7,
-10,
-13,
-14,
-16,
-18,
-19,
-20,
-20,
-20,
-20,
-19,
-18,
-18,
-16,
-15,
-12,
-12,
-11,
-10,
-9,
-7,
-6,
-4,
-4,
-4,
-4,
-3,
-2,
-2,
-2,
-2,
0,
0,
1,
2,
2,
2,
5,
6,
8,
8,
9,
10,
11,
11,
12,
12,
12,
12,
12,
11,
12,
12,
12,
12,
12,
12,
13,
14,
15,
15,
16,
18,
18,
20,
25,
23,
19,
28,
29,
27,
27,
28,
28,
31,
31,
29,
29,
29,
31,
30,
28,
27,
27,
26,
24,
22,
21,
20,
18,
17,
16,
14,
13,
11,
9,
9,
9,
9,
5,
4,
3,
5,
3,
0,
-4,
-6,
-5,
-2,
-3,
-8,
-11,
-12,
-10,
-11,
-14,
-16,
-16,
-16,
-16,
-16,
-18,
-18,
-16,
-14,
-14,
-14,
-13,
-9,
-7,
-4,
-3,
-2,
2,
4,
8,
10,
11,
13,
16,
18,
20,
21,
23,
25,
25,
26,
28,
28,
29,
29,
29,
30,
30,
29,
29,
29,
29,
30,
29,
28,
28,
29,
28,
28,
26,
27,
26,
26,
26,
24,
22,
22,
22,
20,
18,
17,
14,
14,
12,
10,
8,
5,
2,
0,
-2,
-4,
-6,
-9,
-12,
-15,
-16,
-18,
-20,
-22,
-24,
-26,
-28,
-30,
-31,
-32,
-32,
-31,
-31,
-32,
-30,
-30,
-28,
-24,
-22,
-20,
-15,
-21,
-13,
-4,
-3,
-4,
0,
4,
10,
13,
16,
17,
20,
24,
27,
29,
30,
32,
34,
36,
37,
38,
38,
38,
38,
39,
38,
39,
40,
41,
41,
40,
40,
39,
41,
42,
42,
40,
40,
40,
41,
41,
40,
40,
40,
38,
38,
37,
36,
34,
31,
30,
28,
26,
21,
18,
14,
12,
9,
6,
2,
-1,
-4,
-6,
-9,
-11,
-14,
-15,
-16,
-18,
-18,
-18,
-16,
-17,
-16,
-14,
-13,
-12,
-11,
-9,
-6,
-4,
-4,
-4,
-1,
1,
2,
3,
4,
4,
5,
6,
8,
9,
10,
10,
10,
12,
13,
14,
15,
16,
17,
18,
19,
19,
19,
22,
26,
26,
24,
22,
24,
26,
26,
22,
21,
21,
20,
19,
16,
14,
12,
9,
7,
4,
1,
-1,
-4,
-6,
-10,
-12,
-14,
-16,
-18,
-19,
-20,
-19,
-18,
-16,
-16,
-14,
-12,
-8,
-6,
0,
-3,
-6,
4,
6,
4,
3,
6,
7,
10,
9,
8,
8,
8,
8,
8,
8,
7,
8,
8,
9,
9,
10,
12,
12,
13,
16,
18,
19,
21,
21,
24,
26,
29,
30,
30,
32,
34,
36,
36,
35,
36,
37,
37,
36,
36,
35,
34,
33,
32,
30,
28,
26,
24,
21,
19,
17,
14,
12,
10,
8,
4,
1,
-1,
-2,
-4,
-8,
-11,
-12,
-14,
-16,
-18,
-18,
-19,
-21,
-22,
-23,
-23,
-23,
-23,
-24,
-24,
-23,
-22,
-19,
-20,
-19,
-17,
-14,
-12,
-10,
-6,
-4,
-2,
2,
6,
9,
12,
17,
21,
25,
29,
32,
36,
37,
41,
42,
42,
44,
45,
44,
42,
41,
37,
35,
32,
29,
25,
21,
17,
14,
11,
9,
6,
2,
0,
-3,
-4,
-6,
-8,
-10,
-12,
-13,
-14,
-14,
-15,
-16,
-16,
-15,
-14,
-11,
-12,
-10,
-8,
-6,
-3,
2,
-6,
2,
8,
9,
8,
10,
13,
16,
18,
19,
20,
20,
22,
26,
28,
28,
28,
29,
33,
35,
34,
31,
32,
33,
34,
33,
36,
37,
37,
34,
34,
37,
38,
37,
36,
35,
36,
35,
34,
32,
29,
26,
24,
22,
18,
15,
12,
10,
6,
2,
0,
-3,
-6,
-10,
-12,
-15,
-18,
-19,
-21,
-22,
-24,
-26,
-27,
-27,
-28,
-28,
-28,
-29,
-28,
-28,
-27,
-26,
-24,
-23,
-22,
-20,
-16,
-14,
-11,
-9,
-5,
-1,
2,
5,
8,
12,
16,
18,
22,
25,
29,
32,
34,
37,
40,
42,
44,
46,
48,
48,
50,
51,
52,
52,
52,
53,
53,
53,
52,
52,
50,
49,
48,
46,
44,
43,
41,
40,
36,
33,
30,
28,
26,
21,
17,
14,
10,
8,
3,
0,
-4,
-7,
-10,
-13,
-16,
-18,
-20,
-22,
-24,
-27,
-28,
-28,
-30,
-30,
-27,
-34,
-37,
-30,
-28,
-32,
-32,
-30,
-27,
-24,
-23,
-22,
-20,
-18,
-14,
-14,
-11,
-8,
-4,
-2,
0,
2,
5,
9,
9,
12,
14,
17,
20,
24,
25,
28,
31,
34,
36,
37,
40,
42,
43,
44,
45,
46,
46,
48,
47,
46,
45,
45,
42,
41,
38,
38,
36,
33,
29,
27,
23,
21,
18,
14,
11,
8,
6,
4,
1,
-2,
-5,
-6,
-7,
-10,
-11,
-12,
-14,
-14,
-15,
-16,
-17,
-18,
-18,
-19,
-18,
-20,
-20,
-21,
-20,
-20,
-20,
-20,
-18,
-18,
-19,
-20,
-18,
-12,
-10,
-11,
-12,
-9,
-4,
-2,
-1,
0,
2,
5,
8,
8,
11,
13,
16,
18,
19,
21,
22,
26,
28,
28,
30,
31,
33,
33,
34,
34,
34,
34,
33,
33,
33,
32,
30,
28,
25,
22,
20,
18,
15,
12,
10,
9,
6,
5,
4,
3,
5,
5,
5,
8,
12,
4,
11,
17,
18,
16,
19,
22,
28,
32,
30,
29,
28,
32,
34,
33,
30,
27,
27,
26,
25,
22,
20,
18,
16,
14,
11,
10,
8,
7,
5,
3,
4,
4,
2,
0,
0,
1,
-2,
-2,
-2,
-2,
-2,
-4,
-5,
-6,
-6,
-7,
-7,
-8,
-7,
-7,
-7,
-6,
-5,
-6,
-5,
-4,
-2,
-1,
0,
1,
2,
3,
4,
4,
5,
6,
6,
6,
6,
6,
6,
6,
5,
5,
5,
7,
8,
8,
9,
9,
12,
14,
14,
16,
17,
18,
20,
20,
21,
22,
22,
24,
23,
22,
22,
24,
22,
22,
21,
20,
20,
20,
19,
18,
18,
18,
18,
18,
18,
18,
17,
17,
17,
17,
17,
16,
16,
16,
14,
13,
13,
12,
10,
10,
10,
8,
6,
6,
6,
5,
3,
2,
2,
0,
0,
-2,
-2,
-3,
-4,
-4,
-6,
-7,
-6,
-3,
-10,
-14,
-7,
-6,
-12,
-12,
-11,
-11,
-11,
-12,
-14,
-11,
-6,
-4,
-8,
-8,
-6,
-3,
0,
0,
1,
2,
6,
7,
9,
11,
14,
16,
17,
19,
23,
26,
28,
29,
30,
33,
36,
36,
37,
38,
39,
41,
41,
41,
40,
40,
38,
37,
36,
33,
30,
28,
24,
20,
17,
13,
9,
5,
2,
1,
-2,
-3,
-4,
-4,
-6,
-6,
-6,
-5,
-4,
-4,
-4,
-3,
-3,
-2,
-3,
-3,
-3,
-3,
-4,
-6,
-7,
-8,
-9,
-11,
-12,
-14,
-14,
-13,
-12,
-12,
-11,
-10,
-7,
-4,
-2,
1,
4,
7,
10,
13,
16,
18,
20,
22,
25,
26,
28,
29,
29,
29,
29,
30,
30,
32,
32,
32,
32,
33,
33,
33,
34,
36,
36,
36,
36,
36,
36,
36,
34,
32,
28,
26,
24,
20,
16,
10,
6,
2,
-3,
-8,
-13,
-17,
-21,
-22,
-23,
-26,
-40,
-34,
-28,
-30,
-34,
-36,
-34,
-27,
-24,
-23,
-22,
-19,
-14,
-9,
-6,
-3,
-1,
4,
6,
10,
14,
16,
18,
21,
24,
27,
29,
31,
33,
35,
36,
40,
42,
42,
43,
43,
44,
44,
44,
42,
41,
41,
40,
37,
35,
33,
31,
29,
28,
25,
23,
20,
18,
16,
14,
12,
12,
10,
8,
6,
6,
5,
5,
4,
4,
2,
2,
1,
0,
0,
0,
0,
-2,
-3,
-6,
-6,
-4,
0,
-3,
-8,
-10,
-8,
-7,
-8,
-10,
-11,
-11,
-11,
-11,
-11,
-11,
-11,
-10,
-10,
-10,
-10,
-8,
-6,
-6,
-4,
-3,
-1,
1,
2,
4,
6,
8,
11,
13,
15,
18,
21,
23,
25,
28,
30,
32,
34,
36,
37,
38,
40,
40,
41,
41,
40,
40,
40,
40,
37,
36,
34,
33,
30,
28,
25,
22,
19,
16,
13,
9,
5,
2,
1,
2,
-9,
-13,
-8,
-9,
-15,
-18,
-19,
-16,
-16,
-15,
-16,
-16,
-14,
-12,
-11,
-10,
-9,
-9,
-8,
-7,
-6,
-6,
-6,
-7,
-8,
-8,
-8,
-8,
-8,
-10,
-10,
-8,
-8,
-9,
-8,
-6,
-4,
-3,
-1,
1,
2,
5,
10,
12,
15,
18,
22,
26,
29,
32,
34,
37,
38,
39,
41,
41,
42,
40,
38,
38,
37,
34,
32,
29,
28,
25,
23,
21,
19,
17,
14,
13,
13,
12,
12,
12,
13,
13,
14,
14,
15,
16,
16,
16,
16,
15,
14,
14,
12,
11,
9,
7,
5,
3,
0,
-1,
-3,
-4,
-5,
-6,
-6,
-6,
-5,
-4,
-3,
0,
1,
3,
6,
9,
14,
17,
21,
25,
29,
32,
34,
37,
38,
41,
41,
41,
40,
40,
38,
36,
32,
28,
24,
19,
14,
10,
5,
0,
-2,
-4,
-11,
-18,
-19,
-20,
-23,
-24,
-23,
-20,
-20,
-19,
-28,
-18,
-12,
-12,
-14,
-11,
-9,
-4,
0,
0,
0,
2,
4,
6,
7,
9,
10,
13,
14,
14,
16,
18,
19,
18,
20,
20,
21,
21,
22,
22,
24,
24,
24,
22,
22,
23,
22,
21,
20,
19,
17,
16,
15,
14,
13,
12,
12,
12,
10,
9,
9,
8,
7,
6,
6,
6,
5,
5,
5,
5,
4,
5,
5,
4,
4,
4,
5,
5,
6,
6,
6,
7,
8,
8,
8,
8,
6,
8,
6,
6,
5,
4,
4,
4,
3,
1,
1,
0,
-2,
-2,
-3,
-4,
-6,
-7,
-8,
-7,
-8,
-10,
-9,
-9,
-9,
-8,
-6,
-6,
-4,
-2,
0,
2,
5,
8,
10,
12,
15,
19,
20,
22,
25,
27,
29,
30,
30,
31,
31,
32,
31,
30,
29,
28,
28,
26,
25,
22,
22,
19,
18,
16,
15,
12,
10,
8,
6,
5,
3,
1,
1,
-6,
-7,
-1,
-2,
-6,
-6,
-4,
-1,
2,
1,
2,
2,
5,
8,
9,
10,
10,
11,
12,
13,
13,
12,
12,
12,
11,
10,
9,
10,
9,
9,
9,
9,
9,
8,
7,
9,
9,
9,
8,
8,
8,
9,
9,
9,
10,
12,
14,
16,
17,
18,
20,
23,
25,
25,
26,
26,
27,
26,
26,
24,
21,
22,
26,
26,
22,
19,
19,
21,
22,
21,
19,
18,
20,
20,
20,
18,
19,
18,
19,
20,
20,
20,
18,
17,
16,
15,
13,
11,
10,
9,
6,
5,
4,
2,
0,
-2,
-2,
-4,
-6,
-7,
-10,
-11,
-11,
-11,
-12,
-13,
-12,
-12,
-11,
-10,
-9,
-8,
-6,
-3,
-3,
0,
0,
3,
5,
6,
8,
9,
10,
13,
15,
13,
12,
12,
16,
16,
15,
12,
13,
14,
14,
13,
13,
13,
14,
13,
12,
12,
11,
12,
12,
12,
2,
9,
12,
9,
5,
5,
5,
8,
6,
4,
3,
2,
4,
4,
4,
2,
2,
2,
3,
3,
3,
4,
4,
5,
5,
6,
9,
9,
10,
12,
13,
17,
17,
17,
18,
21,
22,
22,
22,
22,
22,
24,
24,
24,
23,
24,
23,
22,
22,
22,
21,
21,
21,
21,
20,
19,
18,
18,
17,
16,
16,
15,
14,
13,
12,
12,
10,
10,
9,
9,
8,
8,
7,
6,
5,
4,
3,
2,
1,
0,
0,
0,
0,
-2,
-3,
-4,
-3,
-3,
-4,
-4,
-6,
-5,
-4,
-4,
-3,
-2,
-2,
0,
1,
1,
2,
3,
4,
5,
6,
6,
8,
8,
8,
7,
6,
5,
4,
4,
4,
2,
2,
0,
-1,
-2,
-2,
-4,
-5,
-5,
-7,
-8,
-6,
0,
0,
-3,
-4,
0,
4,
6,
6,
7,
8,
11,
13,
15,
17,
18,
20,
24,
28,
22,
23,
32,
33,
31,
32,
34,
36,
40,
38,
38,
38,
38,
38,
37,
36,
35,
33,
31,
30,
28,
26,
24,
21,
20,
17,
17,
17,
17,
14,
14,
16,
18,
18,
17,
19,
20,
21,
20,
22,
22,
21,
22,
20,
19,
17,
18,
15,
12,
9,
6,
4,
0,
-4,
-7,
-11,
-16,
-18,
-20,
-22,
-24,
-25,
-26,
-27,
-27,
-25,
-24,
-22,
-20,
-18,
-15,
-11,
-7,
-3,
1,
3,
7,
12,
14,
16,
19,
21,
25,
26,
26,
28,
28,
28,
28,
26,
25,
24,
21,
18,
16,
14,
12,
11,
8,
6,
5,
5,
5,
5,
5,
6,
8,
9,
9,
9,
10,
11,
14,
16,
14,
12,
13,
17,
18,
17,
14,
13,
14,
14,
13,
11,
10,
11,
11,
11,
11,
10,
12,
12,
13,
13,
13,
14,
16,
16,
16,
16,
16,
17,
19,
19,
10,
16,
18,
16,
12,
12,
11,
12,
10,
9,
6,
5,
5,
4,
2,
1,
0,
0,
0,
-2,
-2,
-2,
-2,
-2,
-3,
-3,
-2,
-1,
0,
0,
0,
2,
2,
3,
3,
5,
6,
6,
8,
9,
10,
10,
11,
9,
8,
8,
11,
14,
13,
9,
8,
9,
10,
9,
8,
6,
8,
8,
8,
6,
5,
7,
7,
8,
8,
8,
9,
11,
12,
13,
13,
14,
14,
16,
16,
16,
14,
14,
14,
13,
10,
9,
8,
6,
4,
2,
2,
2,
1,
1,
0,
1,
2,
3,
4,
5,
6,
8,
8,
9,
9,
11,
11,
12,
12,
12,
13,
14,
14,
13,
12,
13,
14,
14,
13,
13,
14,
15,
16,
16,
17,
18,
20,
21,
21,
21,
22,
24,
25,
24,
24,
25,
26,
26,
26,
24,
24,
24,
23,
22,
21,
20,
19,
18,
18,
10,
10,
14,
14,
9,
8,
9,
11,
13,
12,
12,
13,
15,
18,
20,
21,
22,
24,
26,
28,
29,
28,
30,
30,
29,
28,
25,
25,
23,
21,
18,
16,
15,
11,
7,
5,
2,
-1,
-4,
-7,
-10,
-11,
-13,
-15,
-18,
-20,
-20,
-21,
-23,
-23,
-24,
-23,
-23,
-23,
-23,
-23,
-22,
-22,
-20,
-19,
-19,
-18,
-16,
-16,
-14,
-13,
-12,
-11,
-10,
-9,
-8,
-6,
-6,
-6,
-5,
-4,
-2,
-3,
-1,
0,
1,
3,
4,
5,
7,
9,
10,
12,
12,
14,
16,
17,
18,
19,
20,
22,
24,
25,
26,
25,
26,
26,
29,
30,
29,
26,
28,
28,
31,
29,
25,
24,
28,
31,
28,
22,
21,
24,
26,
25,
22,
20,
21,
22,
21,
19,
17,
17,
18,
17,
16,
17,
16,
16,
15,
16,
16,
16,
16,
15,
14,
14,
15,
16,
17,
17,
9,
16,
18,
14,
12,
11,
12,
13,
13,
9,
6,
6,
8,
8,
6,
5,
3,
3,
4,
2,
1,
0,
0,
-2,
-2,
-4,
-4,
-3,
-4,
-3,
-3,
0,
-2,
0,
0,
1,
2,
4,
5,
5,
8,
10,
12,
13,
14,
16,
17,
18,
20,
20,
18,
17,
18,
17,
14,
12,
10,
8,
4,
1,
-1,
-4,
-6,
-9,
-11,
-12,
-14,
-14,
-15,
-15,
-15,
-14,
-12,
-10,
-8,
-4,
-2,
2,
4,
9,
12,
16,
19,
22,
26,
29,
32,
34,
37,
39,
41,
42,
44,
44,
45,
45,
45,
46,
46,
46,
46,
45,
45,
44,
44,
43,
42,
41,
40,
37,
36,
34,
33,
32,
29,
27,
24,
22,
20,
17,
14,
12,
10,
6,
4,
2,
1,
-2,
-4,
-6,
-7,
-8,
-10,
-12,
-14,
-14,
-15,
-16,
-17,
-18,
-18,
-17,
-17,
-18,
-14,
-21,
-22,
-16,
-16,
-19,
-20,
-20,
-19,
-16,
-18,
-20,
-19,
-18,
-17,
-18,
-17,
-18,
-18,
-18,
-16,
-16,
-16,
-15,
-14,
-14,
-11,
-9,
-7,
-5,
-5,
-4,
1,
8,
10,
9,
11,
16,
20,
25,
28,
30,
34,
38,
42,
44,
46,
48,
49,
50,
51,
52,
52,
52,
52,
50,
49,
48,
46,
44,
42,
40,
38,
36,
34,
32,
31,
30,
28,
26,
24,
24,
22,
19,
17,
14,
12,
10,
9,
7,
4,
1,
0,
-3,
-4,
-6,
-8,
-10,
-11,
-12,
-14,
-14,
-14,
-11,
-11,
-14,
-15,
-12,
-8,
-7,
-8,
-9,
-7,
-4,
-2,
-2,
-2,
-1,
0,
2,
2,
3,
3,
4,
4,
4,
4,
4,
4,
3,
2,
2,
1,
1,
0,
0,
-1,
-2,
0,
-2,
-2,
-2,
-2,
-2,
-1,
0,
0,
0,
0,
1,
2,
0,
1,
2,
3,
5,
6,
-3,
4,
8,
6,
3,
4,
5,
8,
8,
8,
8,
9,
10,
12,
12,
12,
13,
13,
13,
14,
15,
15,
15,
15,
14,
14,
16,
16,
15,
15,
15,
18,
18,
18,
20,
22,
23,
25,
26,
28,
29,
28,
30,
29,
30,
30,
30,
31,
31,
29,
29,
28,
27,
27,
26,
24,
22,
20,
20,
19,
17,
16,
13,
12,
10,
10,
9,
8,
6,
5,
4,
4,
2,
2,
2,
3,
4,
5,
6,
7,
9,
12,
14,
15,
17,
19,
20,
22,
24,
26,
26,
28,
27,
26,
24,
22,
23,
27,
26,
21,
17,
16,
16,
16,
13,
10,
8,
6,
6,
5,
4,
4,
5,
2,
2,
2,
3,
4,
5,
6,
6,
7,
9,
10,
11,
12,
12,
14,
16,
16,
16,
16,
17,
16,
16,
13,
14,
12,
9,
6,
4,
1,
-4,
-8,
-8,
-19,
-23,
-21,
-24,
-31,
-34,
-36,
-36,
-35,
-38,
-40,
-39,
-36,
-34,
-34,
-31,
-29,
-27,
-23,
-20,
-17,
-14,
-10,
-8,
-5,
-3,
0,
2,
6,
8,
9,
12,
14,
16,
17,
18,
20,
20,
21,
22,
22,
24,
23,
24,
24,
25,
27,
28,
28,
28,
28,
29,
29,
28,
28,
28,
28,
29,
30,
28,
28,
29,
30,
29,
28,
29,
28,
29,
29,
28,
28,
28,
28,
27,
27,
26,
24,
26,
25,
23,
21,
24,
25,
20,
17,
17,
20,
20,
17,
14,
14,
16,
14,
13,
11,
10,
10,
9,
9,
8,
6,
7,
6,
5,
4,
3,
2,
2,
0,
-2,
-2,
-3,
-4,
-4,
-4,
-6,
-6,
-6,
-7,
-7,
-8,
-8,
-8,
-9,
-10,
-9,
-10,
-8,
-10,
-9,
-8,
-7,
-6,
-7,
-6,
-4,
-2,
-2,
-2,
0,
2,
3,
5,
8,
10,
12,
7,
16,
20,
18,
17,
20,
21,
26,
26,
25,
25,
25,
26,
26,
22,
21,
20,
24,
26,
21,
18,
20,
21,
21,
22,
23,
25,
29,
30,
32,
35,
39,
40,
42,
46,
48,
49,
50,
51,
52,
52,
52,
49,
47,
45,
43,
40,
36,
30,
24,
20,
15,
9,
3,
-3,
-8,
-14,
-20,
-24,
-30,
-34,
-38,
-41,
-44,
-46,
-48,
-48,
-48,
-50,
-49,
-47,
-46,
-44,
-42,
-39,
-38,
-34,
-31,
-28,
-26,
-22,
-20,
-17,
-14,
-11,
-7,
-4,
-1,
1,
4,
6,
9,
12,
15,
16,
19,
22,
24,
26,
28,
31,
32,
33,
35,
37,
39,
40,
41,
42,
42,
43,
44,
42,
42,
41,
40,
39,
37,
36,
33,
31,
29,
28,
25,
23,
22,
21,
20,
17,
16,
16,
16,
14,
12,
12,
12,
12,
12,
11,
9,
8,
8,
7,
8,
8,
-2,
0,
3,
0,
-4,
-5,
-6,
-6,
-4,
-5,
-7,
-8,
-7,
-5,
-5,
-4,
-3,
-2,
0,
2,
3,
4,
8,
9,
12,
16,
18,
21,
24,
26,
29,
33,
35,
36,
38,
41,
43,
45,
46,
45,
45,
46,
46,
44,
42,
40,
38,
35,
32,
29,
24,
20,
17,
12,
9,
4,
0,
-3,
-6,
-10,
-14,
-19,
-22,
-23,
-27,
-30,
-32,
-35,
-36,
-37,
-38,
-36,
-35,
-38,
-41,
-40,
-36,
-34,
-34,
-36,
-38,
-36,
-30,
-24,
-22,
-22,
-21,
-16,
-11,
-7,
-6,
-4,
0,
3,
6,
9,
12,
14,
17,
20,
22,
24,
27,
28,
30,
31,
33,
34,
34,
34,
35,
36,
37,
36,
36,
36,
37,
37,
37,
37,
38,
39,
40,
40,
40,
41,
42,
43,
44,
42,
41,
41,
41,
40,
37,
35,
32,
30,
28,
25,
21,
18,
16,
13,
12,
8,
-1,
4,
2,
-3,
-8,
-8,
-10,
-8,
-10,
-12,
-15,
-16,
-15,
-15,
-15,
-15,
-15,
-15,
-13,
-11,
-10,
-8,
-7,
-6,
-3,
0,
2,
5,
8,
10,
14,
18,
22,
24,
26,
30,
32,
34,
36,
37,
39,
41,
42,
41,
41,
41,
40,
38,
36,
34,
32,
30,
26,
23,
20,
17,
14,
10,
8,
4,
1,
-1,
-4,
-7,
-9,
-11,
-14,
-15,
-16,
-17,
-18,
-18,
-17,
-18,
-18,
-18,
-17,
-15,
-16,
-15,
-13,
-12,
-12,
-10,
-10,
-9,
-8,
-8,
-7,
-8,
-8,
-7,
-7,
-8,
-8,
-8,
-7,
-6,
-7,
-8,
-7,
-6,
-7,
-6,
-5,
-4,
-3,
-3,
-2,
0,
0,
1,
1,
2,
4,
4,
6,
9,
9,
9,
12,
14,
16,
18,
20,
22,
25,
28,
29,
30,
32,
33,
33,
34,
35,
35,
34,
34,
34,
32,
31,
32,
31,
28,
29,
19,
18,
22,
24,
18,
14,
10,
10,
13,
12,
9,
5,
5,
5,
4,
2,
2,
2,
1,
0,
0,
0,
1,
0,
0,
1,
2,
3,
3,
4,
6,
8,
8,
9,
9,
12,
13,
13,
14,
14,
15,
16,
17,
16,
16,
15,
15,
14,
12,
12,
11,
9,
6,
6,
5,
4,
2,
1,
0,
-2,
-2,
1,
0,
-1,
-2,
1,
5,
8,
8,
8,
12,
17,
20,
22,
24,
27,
30,
33,
34,
35,
35,
36,
36,
36,
35,
33,
32,
32,
29,
26,
23,
20,
18,
16,
14,
12,
10,
9,
6,
6,
6,
6,
8,
8,
9,
11,
13,
16,
18,
19,
21,
24,
26,
28,
29,
29,
30,
30,
29,
28,
27,
25,
21,
18,
16,
13,
8,
4,
1,
-4,
-8,
-11,
-15,
-18,
-21,
-26,
-28,
-30,
-31,
-33,
-34,
-35,
-36,
-35,
-34,
-33,
-38,
-31,
-28,
-30,
-30,
-27,
-23,
-18,
-16,
-14,
-11,
-7,
-4,
0,
1,
4,
6,
10,
12,
15,
17,
18,
21,
23,
25,
26,
28,
29,
29,
30,
32,
33,
34,
33,
34,
35,
36,
34,
34,
34,
35,
35,
34,
33,
32,
31,
31,
29,
26,
24,
24,
21,
18,
15,
13,
10,
7,
4,
1,
-1,
-4,
-6,
-7,
-8,
-9,
-11,
-12,
-10,
-6,
-4,
-8,
-10,
-6,
-3,
-2,
-2,
-2,
1,
2,
4,
5,
6,
8,
9,
10,
12,
14,
14,
16,
18,
20,
22,
24,
25,
27,
28,
30,
32,
32,
32,
32,
33,
32,
32,
31,
30,
29,
29,
28,
27,
25,
23,
23,
22,
20,
18,
16,
14,
14,
12,
12,
11,
10,
9,
8,
7,
6,
6,
5,
4,
2,
2,
0,
-2,
-3,
-4,
-4,
-6,
-8,
-10,
-10,
-12,
-12,
-14,
-13,
-23,
-22,
-18,
-20,
-24,
-26,
-25,
-22,
-23,
-23,
-23,
-23,
-21,
-20,
-18,
-18,
-18,
-15,
-14,
-11,
-10,
-8,
-4,
-2,
0,
2,
5,
8,
10,
13,
16,
19,
22,
24,
26,
29,
32,
33,
35,
37,
40,
41,
42,
44,
44,
44,
45,
45,
44,
41,
42,
42,
38,
34,
32,
32,
30,
27,
21,
18,
18,
16,
14,
11,
11,
9,
8,
7,
5,
3,
2,
1,
0,
0,
-1,
-1,
-1,
-1,
-2,
-1,
-1,
-1,
0,
1,
2,
2,
5,
6,
8,
9,
9,
11,
13,
14,
14,
14,
14,
15,
15,
14,
14,
15,
14,
15,
14,
14,
15,
16,
16,
16,
15,
17,
19,
20,
21,
21,
22,
24,
24,
26,
26,
27,
28,
28,
27,
27,
27,
26,
25,
23,
22,
19,
17,
17,
20,
18,
14,
12,
10,
12,
12,
11,
9,
9,
12,
10,
4,
9,
10,
6,
2,
1,
1,
2,
-1,
-4,
-6,
-8,
-10,
-12,
-15,
-19,
-20,
-23,
-26,
-26,
-27,
-28,
-29,
-30,
-28,
-27,
-24,
-22,
-21,
-19,
-14,
-10,
