data/ALL0012/A0012CH2.CSV

Memory Length,4000,
Trigger Level,0.000E+00,
Source,CH2,
Probe,1X,
Vertical Units,V,
Vertical Scale,1.000E-02,
Vertical Position,0.000E+00,
Horizontal Units,s,
Horizontal Scale,1.000E-05,
Horizontal Position,4.000E-06,
Horizontal Mode,Main,
Sampling Period,4.000E-08,
Firmware,V1.13,
Time, ,
Mode,Fast,
Waveform Data,
27,
27,
13,
14,
13,
13,
13,
13,
13,
12,
12,
10,
10,
10,
9,
8,
8,
5,
5,
4,
3,
1,
1,
0,
0,
-2,
-2,
-3,
-4,
-4,
-4,
-6,
-6,
-7,
-7,
-7,
-6,
-7,
-6,
-5,
-4,
-4,
-2,
-1,
0,
2,
3,
5,
7,
9,
10,
13,
15,
17,
17,
20,
21,
22,
24,
23,
24,
25,
26,
26,
26,
26,
26,
26,
26,
30,
24,
18,
25,
25,
20,
18,
18,
18,
19,
18,
15,
12,
10,
12,
12,
8,
5,
2,
2,
1,
0,
-2,
-4,
-5,
-7,
-8,
-9,
-9,
-10,
-11,
-11,
-11,
-11,
-11,
-11,
-12,
-11,
-9,
-8,
-7,
-6,
-4,
-2,
1,
3,
6,
9,
10,
13,
16,
18,
20,
20,
22,
22,
23,
22,
22,
22,
21,
21,
19,
18,
17,
16,
15,
13,
13,
13,
13,
12,
13,
13,
13,
13,
11,
12,
14,
20,
21,
18,
19,
21,
26,
28,
29,
29,
29,
30,
30,
29,
28,
27,
26,
26,
23,
20,
18,
16,
14,
11,
8,
6,
3,
0,
-3,
-5,
-7,
-8,
-10,
-12,
-12,
-12,
-12,
-12,
-11,
-11,
-10,
-7,
-6,
-6,
-3,
-1,
1,
2,
3,
5,
7,
9,
10,
11,
11,
12,
13,
14,
16,
15,
14,
15,
15,
15,
14,
13,
13,
12,
14,
4,
7,
9,
6,
3,
2,
2,
6,
9,
6,
3,
4,
8,
12,
12,
10,
10,
14,
15,
16,
15,
16,
16,
18,
18,
18,
18,
18,
18,
17,
17,
17,
16,
14,
13,
13,
12,
9,
9,
8,
8,
6,
5,
4,
4,
4,
3,
2,
3,
2,
2,
1,
1,
1,
1,
1,
0,
0,
0,
0,
-1,
-2,
-2,
-2,
-2,
-3,
-3,
-3,
-3,
-3,
-2,
-2,
-2,
0,
1,
1,
2,
4,
6,
8,
9,
11,
13,
15,
17,
18,
22,
23,
25,
28,
29,
31,
30,
32,
33,
34,
34,
34,
34,
34,
34,
32,
30,
29,
28,
27,
24,
21,
20,
18,
14,
12,
10,
8,
6,
5,
2,
0,
-1,
-1,
-3,
-5,
-6,
-5,
-4,
-5,
-6,
-4,
-3,
-2,
-1,
0,
2,
3,
4,
5,
8,
9,
11,
12,
14,
15,
17,
18,
24,
17,
16,
23,
24,
20,
19,
17,
17,
17,
17,
18,
17,
12,
10,
10,
12,
10,
6,
5,
4,
4,
2,
0,
-2,
-2,
-3,
-3,
-4,
-4,
-5,
-6,
-5,
-6,
-6,
-8,
-7,
-6,
-8,
-8,
-8,
-9,
-9,
-10,
-9,
-10,
-10,
-10,
-9,
-8,
-7,
-8,
-6,
-6,
-4,
-2,
0,
2,
4,
6,
8,
10,
13,
15,
18,
21,
22,
24,
26,
29,
30,
32,
33,
33,
34,
34,
35,
34,
35,
34,
34,
34,
34,
34,
33,
32,
32,
31,
32,
31,
31,
30,
30,
30,
29,
29,
29,
29,
28,
28,
28,
26,
24,
24,
23,
21,
19,
18,
16,
15,
13,
10,
9,
6,
3,
2,
0,
-3,
-5,
-7,
-8,
-10,
-12,
-13,
-14,
-16,
-16,
-18,
-19,
-20,
-20,
-20,
-21,
-22,
-22,
-22,
-23,
-24,
-24,
-24,
-24,
-24,
-25,
-24,
-22,
-20,
-18,
-26,
-16,
-11,
-11,
-12,
-8,
-4,
2,
6,
9,
12,
16,
23,
29,
32,
34,
38,
43,
46,
48,
51,
53,
54,
55,
56,
56,
56,
56,
54,
54,
53,
52,
49,
46,
45,
43,
40,
37,
34,
32,
29,
26,
24,
21,
17,
15,
13,
13,
9,
8,
5,
4,
2,
1,
-2,
-4,
-6,
-6,
-6,
-8,
-10,
-12,
-12,
-13,
-14,
-14,
-15,
-16,
-16,
-15,
-16,
-16,
-16,
-16,
-16,
-14,
-14,
-14,
-14,
-12,
-12,
-11,
-11,
-10,
-10,
-11,
-9,
-3,
-1,
-3,
-6,
-4,
0,
1,
0,
-2,
0,
1,
2,
3,
4,
4,
5,
6,
10,
11,
13,
16,
19,
24,
26,
29,
32,
36,
37,
40,
42,
43,
44,
44,
42,
43,
42,
40,
38,
35,
32,
29,
25,
21,
16,
12,
10,
7,
2,
-2,
-4,
-6,
-8,
-9,
-10,
-11,
-10,
-8,
-4,
-11,
-11,
-2,
0,
-1,
0,
2,
5,
9,
12,
11,
10,
13,
17,
19,
19,
18,
19,
21,
23,
22,
23,
24,
24,
25,
24,
24,
24,
26,
26,
26,
28,
29,
29,
28,
29,
29,
30,
30,
29,
29,
28,
28,
27,
24,
22,
19,
18,
16,
13,
10,
6,
3,
0,
-2,
-4,
-7,
-9,
-12,
-14,
-16,
-16,
-18,
-18,
-18,
-18,
-18,
-19,
-18,
-17,
-16,
-16,
-15,
-15,
-14,
-13,
-12,
-11,
-11,
-12,
-11,
-10,
-8,
-7,
-5,
-4,
-2,
1,
4,
8,
12,
14,
17,
24,
28,
30,
32,
34,
37,
40,
41,
41,
42,
43,
42,
42,
41,
40,
37,
35,
34,
31,
27,
23,
20,
16,
14,
11,
8,
4,
2,
0,
0,
-1,
-2,
0,
0,
0,
1,
2,
4,
5,
6,
8,
10,
11,
12,
13,
15,
16,
16,
15,
15,
14,
16,
14,
4,
9,
10,
5,
0,
-3,
-4,
-3,
-4,
-10,
-14,
-15,
-12,
-10,
-12,
-16,
-18,
-16,
-14,
-11,
-8,
-8,
-8,
-7,
-2,
1,
2,
4,
5,
8,
11,
14,
16,
17,
18,
21,
22,
23,
25,
26,
25,
26,
26,
26,
27,
26,
26,
25,
24,
24,
22,
21,
20,
18,
18,
16,
15,
13,
13,
12,
13,
12,
10,
10,
11,
11,
12,
12,
13,
14,
16,
18,
19,
19,
20,
20,
19,
21,
20,
20,
19,
17,
16,
15,
15,
14,
12,
12,
11,
12,
12,
10,
10,
11,
12,
12,
12,
12,
12,
13,
12,
12,
11,
11,
12,
10,
9,
8,
8,
7,
5,
5,
5,
5,
4,
4,
4,
4,
4,
4,
2,
2,
1,
1,
2,
2,
1,
1,
2,
2,
1,
2,
1,
1,
1,
1,
1,
0,
-2,
-2,
-3,
-4,
-8,
-8,
-7,
-16,
-18,
-15,
-16,
-21,
-22,
-24,
-24,
-22,
-21,
-24,
-24,
-20,
-15,
-13,
-11,
-8,
-4,
1,
4,
8,
10,
14,
20,
25,
28,
30,
34,
36,
40,
42,
45,
47,
48,
50,
52,
52,
52,
52,
50,
51,
50,
48,
48,
46,
45,
44,
42,
41,
40,
37,
36,
34,
32,
31,
30,
28,
28,
27,
24,
23,
22,
21,
20,
18,
17,
16,
13,
12,
9,
6,
3,
1,
-1,
-3,
-6,
-10,
-12,
-14,
-18,
-19,
-22,
-24,
-26,
-27,
-30,
-31,
-32,
-31,
-32,
-31,
-31,
-31,
-31,
-31,
-32,
-31,
-26,
-20,
-20,
-22,
-21,
-18,
-13,
-11,
-11,
-10,
-7,
-4,
-2,
1,
1,
4,
7,
10,
12,
13,
16,
18,
21,
24,
28,
29,
32,
34,
38,
41,
44,
47,
49,
52,
54,
56,
58,
60,
61,
61,
62,
61,
61,
60,
59,
58,
58,
57,
54,
44,
49,
49,
44,
36,
33,
32,
31,
28,
21,
16,
14,
15,
12,
8,
2,
0,
-1,
-3,
-5,
-8,
-11,
-12,
-13,
-15,
-17,
-20,
-20,
-20,
-22,
-23,
-24,
-26,
-28,
-29,
-28,
-30,
-31,
-32,
-33,
-32,
-33,
-34,
-33,
-31,
-30,
-27,
-26,
-24,
-22,
-19,
-15,
-14,
-10,
-8,
-6,
-2,
1,
4,
6,
8,
11,
13,
14,
17,
18,
19,
20,
22,
24,
24,
25,
25,
26,
26,
25,
24,
24,
23,
22,
21,
19,
18,
18,
18,
16,
16,
16,
16,
16,
16,
18,
19,
21,
22,
24,
26,
29,
31,
32,
34,
36,
37,
41,
42,
42,
44,
45,
47,
48,
48,
47,
47,
46,
48,
46,
44,
41,
40,
37,
34,
29,
25,
20,
15,
10,
5,
0,
-4,
-10,
-14,
-19,
-23,
-27,
-28,
-30,
-32,
-34,
-34,
-34,
-34,
-33,
-33,
-31,
-27,
-32,
-30,
-22,
-20,
-20,
-17,
-15,
-10,
-4,
-2,
-2,
0,
4,
9,
11,
11,
13,
16,
18,
20,
21,
21,
22,
23,
24,
24,
22,
21,
21,
22,
26,
25,
20,
17,
16,
18,
17,
16,
13,
12,
12,
11,
11,
9,
8,
9,
7,
7,
6,
6,
6,
4,
4,
4,
4,
5,
6,
8,
9,
12,
14,
17,
19,
22,
25,
27,
29,
30,
32,
33,
34,
33,
31,
31,
30,
29,
29,
25,
22,
20,
17,
14,
9,
6,
3,
-2,
-6,
-8,
-10,
-14,
-16,
-18,
-20,
-20,
-20,
-20,
-21,
-20,
-17,
-14,
-12,
-10,
-8,
-4,
-2,
1,
4,
8,
9,
12,
15,
16,
18,
19,
20,
21,
21,
21,
21,
20,
19,
18,
17,
16,
14,
13,
12,
10,
9,
8,
6,
4,
2,
1,
0,
-2,
-3,
-4,
-4,
-3,
-2,
-3,
-2,
0,
4,
4,
-2,
6,
11,
10,
9,
12,
14,
18,
20,
19,
20,
22,
26,
28,
28,
27,
29,
32,
33,
33,
34,
35,
36,
36,
36,
36,
36,
37,
35,
34,
33,
32,
30,
26,
25,
24,
21,
18,
16,
16,
14,
12,
10,
10,
10,
8,
5,
4,
4,
3,
2,
0,
-3,
-3,
-4,
-6,
-7,
-9,
-9,
-11,
-12,
-13,
-14,
-15,
-16,
-16,
-15,
-16,
-16,
-18,
-18,
-16,
-16,
-15,
-15,
-16,
-14,
-12,
-11,
-10,
-8,
-5,
-3,
0,
3,
6,
8,
12,
16,
19,
21,
24,
26,
28,
29,
31,
32,
33,
33,
34,
34,
34,
33,
33,
31,
29,
30,
34,
33,
28,
24,
24,
25,
23,
20,
18,
16,
16,
14,
12,
10,
9,
9,
8,
5,
4,
1,
0,
-1,
-2,
-4,
-6,
-8,
-10,
-9,
-11,
-13,
-14,
-14,
-14,
-14,
-15,
-15,
-14,
-10,
-17,
-15,
-10,
-8,
-10,
-9,
-8,
-3,
1,
2,
2,
4,
8,
12,
15,
16,
18,
20,
24,
28,
28,
29,
32,
33,
33,
34,
35,
36,
36,
37,
38,
39,
40,
41,
40,
39,
40,
39,
38,
37,
38,
36,
35,
33,
33,
32,
30,
28,
24,
22,
20,
17,
14,
11,
10,
8,
4,
2,
-1,
-3,
-5,
-8,
-10,
-11,
-14,
-16,
-18,
-20,
-21,
-23,
-26,
-27,
-28,
-29,
-30,
-32,
-33,
-33,
-33,
-32,
-34,
-33,
-32,
-30,
-29,
-27,
-24,
-20,
-18,
-12,
-8,
-2,
2,
8,
12,
19,
26,
31,
37,
44,
49,
54,
59,
65,
69,
73,
76,
80,
82,
83,
84,
83,
83,
81,
80,
77,
73,
70,
65,
61,
55,
49,
42,
37,
32,
25,
17,
11,
5,
-2,
-8,
-14,
-19,
-23,
-28,
-32,
-35,
-38,
-40,
-42,
-44,
-46,
-47,
-48,
-46,
-45,
-50,
-44,
-42,
-43,
-43,
-40,
-37,
-33,
-31,
-31,
-26,
-22,
-18,
-15,
-12,
-9,
-6,
-1,
2,
5,
8,
10,
14,
16,
19,
21,
24,
26,
27,
29,
32,
33,
34,
34,
34,
34,
32,
31,
34,
37,
34,
30,
28,
29,
30,
28,
25,
22,
22,
20,
18,
17,
16,
14,
13,
12,
12,
12,
11,
10,
12,
12,
12,
14,
14,
15,
16,
17,
20,
22,
22,
24,
26,
26,
28,
29,
30,
30,
30,
30,
30,
29,
28,
28,
27,
26,
24,
21,
20,
18,
16,
15,
13,
10,
8,
8,
8,
6,
5,
4,
4,
4,
4,
5,
5,
4,
5,
5,
8,
8,
8,
7,
8,
8,
8,
8,
6,
6,
6,
6,
5,
4,
4,
3,
1,
1,
-1,
-1,
-4,
-4,
-6,
-5,
-8,
-10,
-10,
-10,
-11,
-11,
-10,
-10,
-8,
-8,
-6,
-3,
1,
-5,
-2,
5,
6,
3,
5,
6,
9,
13,
14,
13,
12,
14,
18,
19,
20,
19,
20,
20,
20,
20,
18,
16,
14,
13,
12,
10,
9,
8,
6,
6,
7,
8,
7,
8,
10,
12,
12,
12,
14,
17,
20,
22,
24,
24,
26,
28,
30,
31,
31,
32,
30,
29,
28,
26,
25,
20,
17,
14,
11,
8,
3,
-2,
-6,
-9,
-11,
-15,
-18,
-20,
-21,
-23,
-24,
-24,
-24,
-24,
-23,
-20,
-18,
-16,
-14,
-10,
-6,
-3,
1,
3,
5,
9,
12,
14,
16,
17,
18,
19,
21,
21,
22,
22,
22,
25,
24,
24,
24,
24,
24,
25,
26,
26,
25,
25,
26,
28,
28,
27,
26,
24,
25,
30,
31,
27,
24,
23,
24,
24,
21,
19,
17,
14,
12,
10,
8,
4,
2,
2,
1,
-1,
-2,
-2,
-2,
-2,
-2,
-3,
-3,
-1,
0,
2,
0,
-6,
1,
4,
2,
0,
1,
2,
4,
5,
5,
7,
9,
12,
12,
12,
14,
16,
16,
16,
16,
16,
16,
16,
14,
13,
12,
13,
12,
10,
8,
8,
9,
8,
6,
5,
5,
5,
5,
6,
5,
6,
5,
7,
9,
10,
12,
12,
14,
17,
18,
20,
21,
22,
24,
24,
26,
25,
26,
26,
25,
24,
22,
21,
20,
18,
16,
13,
10,
8,
5,
3,
1,
-2,
-4,
-7,
-8,
-10,
-10,
-12,
-13,
-14,
-14,
-14,
-14,
-15,
-13,
-12,
-11,
-8,
-7,
-5,
-4,
-2,
2,
4,
7,
8,
10,
13,
14,
16,
17,
20,
21,
22,
24,
25,
27,
26,
28,
28,
28,
28,
29,
29,
28,
27,
26,
24,
23,
22,
20,
18,
17,
15,
13,
12,
11,
9,
8,
7,
5,
5,
5,
6,
6,
5,
5,
8,
9,
8,
9,
9,
12,
16,
10,
12,
16,
17,
14,
14,
14,
17,
20,
20,
18,
17,
17,
19,
18,
17,
16,
14,
13,
13,
12,
9,
6,
6,
4,
2,
1,
0,
-2,
-2,
-4,
-3,
-3,
-3,
-3,
-2,
-2,
-2,
-1,
0,
1,
2,
3,
4,
5,
4,
4,
8,
13,
13,
10,
9,
11,
14,
16,
14,
13,
14,
16,
16,
16,
16,
15,
16,
17,
17,
17,
18,
20,
20,
21,
22,
24,
27,
28,
28,
30,
31,
32,
33,
32,
32,
32,
31,
29,
27,
26,
22,
20,
17,
16,
13,
10,
8,
6,
4,
1,
-1,
-3,
-2,
-4,
-6,
-7,
-6,
-8,
-8,
-9,
-10,
-10,
-10,
-11,
-11,
-11,
-11,
-11,
-11,
-12,
-12,
-11,
-12,
-12,
-12,
-12,
-12,
-10,
-8,
-9,
-8,
-8,
-6,
-5,
-4,
-2,
0,
1,
4,
4,
7,
8,
10,
13,
14,
16,
17,
19,
20,
14,
20,
21,
18,
16,
14,
13,
14,
14,
10,
8,
6,
8,
10,
9,
6,
7,
10,
10,
12,
12,
14,
16,
20,
23,
26,
28,
32,
36,
40,
42,
46,
48,
51,
54,
56,
57,
58,
57,
58,
58,
56,
54,
52,
49,
46,
42,
38,
33,
29,
24,
21,
15,
11,
6,
1,
-2,
-4,
-7,
-11,
-14,
-14,
-15,
-17,
-17,
-18,
-18,
-18,
-16,
-15,
-16,
-16,
-15,
-13,
-14,
-14,
-14,
-14,
-14,
-15,
-14,
-15,
-16,
-16,
-15,
-15,
-16,
-17,
-16,
-15,
-14,
-14,
-13,
-10,
-7,
-5,
-3,
0,
2,
4,
8,
11,
13,
15,
16,
19,
20,
22,
24,
26,
27,
29,
30,
32,
35,
36,
34,
35,
37,
37,
36,
34,
31,
32,
36,
36,
32,
27,
26,
28,
28,
26,
21,
20,
18,
17,
16,
13,
11,
9,
8,
6,
4,
2,
4,
-5,
-5,
-2,
-2,
-7,
-9,
-9,
-6,
-6,
-7,
-7,
-7,
-7,
-5,
-4,
-4,
-4,
-4,
-2,
-2,
-2,
-2,
-2,
-3,
-3,
-2,
-2,
-3,
-4,
-4,
-3,
-4,
-4,
-6,
-5,
-4,
-4,
-2,
-2,
1,
2,
4,
7,
10,
13,
16,
18,
22,
26,
29,
32,
34,
37,
38,
39,
39,
41,
41,
40,
40,
38,
36,
33,
32,
29,
28,
24,
21,
18,
16,
14,
13,
11,
8,
6,
4,
2,
0,
0,
-2,
-3,
-5,
-6,
-7,
-8,
-8,
-9,
-8,
-7,
-7,
-7,
-6,
-4,
-3,
-2,
-1,
0,
2,
3,
4,
4,
6,
8,
9,
10,
12,
12,
12,
14,
14,
16,
16,
16,
16,
17,
17,
18,
18,
17,
17,
17,
16,
16,
14,
14,
15,
14,
13,
13,
14,
14,
13,
12,
12,
12,
12,
12,
13,
13,
12,
11,
12,
12,
12,
12,
11,
5,
10,
13,
9,
6,
8,
8,
10,
9,
6,
5,
6,
7,
6,
4,
4,
4,
5,
2,
2,
2,
1,
0,
-2,
-3,
-3,
-4,
-4,
-4,
-5,
-6,
-5,
-6,
-6,
-6,
-5,
-4,
-4,
-3,
-2,
0,
1,
3,
5,
6,
9,
10,
14,
16,
19,
20,
21,
23,
25,
25,
29,
33,
34,
32,
30,
32,
34,
36,
35,
34,
33,
33,
33,
32,
31,
30,
30,
29,
28,
26,
24,
24,
21,
20,
18,
18,
17,
17,
15,
13,
13,
13,
14,
13,
12,
11,
11,
10,
10,
9,
7,
5,
4,
3,
1,
-2,
-4,
-6,
-8,
-10,
-12,
-14,
-16,
-16,
-17,
-19,
-20,
-20,
-19,
-19,
-19,
-19,
-18,
-16,
-14,
-12,
-11,
-9,
-6,
-3,
0,
2,
5,
9,
12,
14,
17,
20,
22,
24,
26,
28,
30,
32,
33,
33,
33,
34,
34,
36,
28,
26,
29,
28,
22,
20,
18,
18,
19,
16,
14,
12,
13,
13,
12,
10,
9,
11,
11,
11,
10,
10,
10,
8,
9,
8,
9,
9,
9,
8,
8,
9,
10,
10,
9,
10,
10,
10,
10,
11,
10,
9,
9,
9,
9,
9,
8,
8,
8,
9,
9,
8,
9,
8,
9,
8,
8,
8,
8,
8,
8,
6,
6,
5,
6,
5,
4,
3,
2,
3,
3,
3,
2,
2,
1,
1,
0,
0,
0,
0,
-1,
0,
0,
0,
1,
1,
1,
2,
4,
6,
8,
7,
8,
9,
11,
12,
13,
13,
14,
15,
16,
15,
16,
16,
16,
16,
14,
16,
16,
15,
15,
14,
15,
15,
14,
14,
14,
15,
16,
16,
16,
17,
18,
20,
21,
23,
25,
27,
30,
31,
32,
32,
36,
41,
45,
44,
41,
44,
47,
49,
48,
45,
44,
44,
45,
41,
32,
34,
33,
28,
20,
16,
12,
10,
7,
0,
-6,
-10,
-11,
-12,
-16,
-20,
-26,
-26,
-25,
-27,
-29,
-31,
-31,
-31,
-32,
-32,
-30,
-31,
-29,
-28,
-28,
-27,
-26,
-24,
-23,
-22,
-22,
-22,
-20,
-19,
-18,
-16,
-17,
-16,
-14,
-12,
-11,
-8,
-6,
-2,
1,
4,
8,
11,
15,
19,
22,
26,
28,
30,
32,
33,
33,
34,
34,
35,
37,
37,
37,
38,
38,
37,
38,
38,
38,
38,
36,
36,
36,
35,
34,
33,
32,
31,
30,
29,
27,
28,
26,
25,
23,
20,
19,
17,
16,
13,
12,
10,
8,
8,
6,
4,
4,
3,
2,
1,
1,
1,
0,
0,
-1,
-2,
-1,
-1,
-1,
-2,
-3,
-4,
-3,
-3,
-3,
-4,
-4,
-4,
-3,
-3,
-3,
-2,
-2,
0,
0,
0,
-2,
0,
0,
0,
-1,
-2,
-2,
-2,
-1,
0,
-2,
-1,
3,
-4,
-2,
4,
4,
1,
2,
4,
9,
12,
11,
13,
16,
19,
21,
25,
28,
29,
30,
33,
34,
37,
38,
38,
37,
38,
37,
36,
34,
32,
28,
26,
23,
20,
16,
12,
10,
7,
4,
1,
-1,
-2,
-4,
-4,
-5,
-4,
-4,
-5,
-4,
-3,
-2,
-2,
-2,
-2,
0,
0,
0,
1,
2,
2,
3,
2,
0,
0,
1,
4,
7,
2,
-1,
-1,
2,
2,
0,
-3,
-3,
-3,
-3,
-3,
-4,
-5,
-5,
-4,
-5,
-4,
-6,
-7,
-6,
-6,
-5,
-4,
-4,
-3,
-2,
-2,
0,
1,
2,
4,
6,
9,
10,
13,
16,
17,
21,
23,
25,
27,
29,
31,
32,
34,
36,
37,
38,
40,
41,
41,
40,
40,
40,
40,
39,
37,
36,
34,
33,
30,
28,
25,
22,
21,
17,
14,
12,
9,
6,
5,
3,
0,
-2,
-3,
-3,
-4,
-4,
-4,
-6,
-13,
-6,
-4,
-7,
-10,
-8,
-8,
-4,
-2,
-3,
-4,
-3,
1,
3,
5,
4,
5,
8,
10,
13,
13,
14,
15,
17,
18,
21,
22,
24,
24,
25,
26,
28,
29,
30,
31,
32,
31,
32,
32,
32,
32,
32,
32,
30,
30,
29,
27,
26,
24,
21,
19,
17,
16,
14,
12,
9,
6,
4,
4,
3,
0,
-3,
-3,
-4,
-4,
-5,
-6,
-6,
-6,
-4,
-4,
-4,
-4,
-3,
-3,
-2,
-2,
-1,
0,
-1,
-1,
-2,
-4,
-5,
-5,
-7,
-8,
-8,
-9,
-11,
-11,
-10,
-8,
-8,
-6,
-3,
-2,
0,
3,
6,
9,
11,
13,
14,
16,
18,
18,
18,
18,
18,
17,
16,
16,
14,
13,
12,
9,
6,
5,
5,
3,
3,
1,
1,
1,
2,
1,
1,
2,
2,
2,
3,
4,
4,
4,
4,
4,
5,
4,
2,
6,
10,
10,
8,
11,
6,
10,
15,
16,
11,
13,
15,
21,
23,
24,
25,
27,
30,
33,
33,
33,
34,
36,
37,
37,
35,
34,
34,
32,
30,
28,
25,
22,
21,
18,
16,
16,
15,
14,
13,
12,
12,
11,
9,
9,
8,
6,
6,
6,
6,
5,
3,
2,
2,
4,
2,
2,
1,
1,
2,
2,
1,
2,
3,
4,
5,
5,
4,
6,
6,
6,
6,
6,
7,
8,
8,
6,
8,
8,
8,
8,
8,
9,
9,
10,
9,
9,
10,
11,
12,
11,
12,
12,
14,
15,
17,
18,
18,
20,
22,
22,
22,
23,
22,
24,
24,
23,
21,
20,
19,
18,
16,
14,
12,
10,
7,
5,
1,
-2,
-3,
-4,
-8,
-10,
-11,
-12,
-14,
-15,
-14,
-14,
-14,
-15,
-15,
-14,
-12,
-12,
-12,
-12,
-11,
-10,
-8,
-6,
-6,
-6,
-6,
-4,
-4,
-4,
-4,
-4,
-2,
-2,
-8,
-2,
2,
0,
-1,
1,
4,
8,
10,
10,
9,
10,
13,
16,
16,
15,
13,
14,
16,
15,
14,
14,
16,
16,
16,
15,
16,
16,
16,
16,
17,
18,
19,
21,
22,
25,
26,
29,
32,
34,
35,
36,
36,
39,
40,
40,
38,
37,
36,
35,
32,
30,
28,
26,
22,
21,
18,
16,
14,
13,
10,
8,
8,
6,
5,
5,
4,
4,
2,
0,
-3,
0,
4,
4,
-2,
-6,
-5,
-3,
-2,
-3,
-6,
-8,
-7,
-6,
-6,
-6,
-5,
-4,
-3,
0,
2,
2,
5,
8,
11,
14,
17,
18,
22,
25,
26,
28,
28,
30,
30,
30,
29,
29,
28,
27,
25,
23,
22,
20,
18,
16,
14,
12,
10,
10,
8,
7,
6,
6,
4,
5,
4,
2,
2,
2,
1,
0,
0,
-2,
-2,
-2,
-2,
-3,
-3,
-3,
-4,
-4,
-4,
-4,
-2,
-11,
-11,
-8,
-10,
-14,
-15,
-16,
-15,
-14,
-17,
-20,
-18,
-16,
-14,
-16,
-16,
-15,
-12,
-11,
-10,
-10,
-8,
-5,
-3,
0,
2,
4,
6,
8,
10,
12,
14,
17,
17,
20,
22,
22,
24,
25,
26,
28,
29,
30,
29,
30,
31,
32,
30,
32,
32,
32,
32,
32,
32,
32,
32,
30,
31,
30,
30,
29,
28,
28,
28,
27,
26,
26,
25,
24,
24,
23,
21,
20,
21,
20,
19,
18,
16,
16,
15,
16,
13,
10,
9,
8,
7,
5,
3,
1,
0,
-1,
-3,
-4,
-5,
-6,
-7,
-8,
-8,
-10,
-10,
-8,
-10,
-8,
-8,
-7,
-6,
-5,
-3,
-2,
-1,
1,
2,
3,
6,
9,
11,
12,
14,
16,
17,
20,
21,
24,
24,
26,
28,
28,
30,
29,
30,
30,
30,
29,
29,
28,
28,
27,
26,
26,
24,
24,
22,
20,
19,
22,
17,
8,
11,
13,
12,
12,
9,
5,
8,
8,
8,
4,
3,
5,
8,
5,
2,
2,
4,
4,
4,
2,
1,
1,
1,
1,
0,
-1,
-2,
-2,
-2,
-2,
-2,
-4,
-4,
-4,
-3,
-4,
-3,
-3,
-3,
-2,
-3,
-3,
-3,
-2,
-3,
-2,
-2,
-2,
-2,
-2,
-3,
-1,
0,
-1,
0,
-1,
0,
0,
1,
1,
2,
1,
1,
2,
3,
3,
2,
2,
3,
4,
3,
4,
4,
4,
5,
6,
6,
6,
8,
8,
9,
9,
10,
12,
13,
14,
14,
16,
17,
18,
20,
21,
22,
23,
24,
25,
26,
28,
28,
28,
27,
28,
28,
28,
28,
26,
24,
24,
23,
22,
19,
18,
17,
16,
14,
13,
12,
12,
12,
12,
12,
13,
13,
14,
16,
16,
19,
20,
21,
24,
26,
27,
29,
30,
30,
32,
32,
32,
31,
32,
31,
30,
30,
32,
22,
24,
27,
25,
20,
20,
18,
18,
20,
19,
17,
16,
14,
16,
15,
14,
12,
9,
10,
9,
9,
8,
5,
4,
4,
4,
2,
0,
0,
-2,
-2,
-3,
-4,
-8,
-8,
-11,
-10,
-11,
-12,
-14,
-15,
-14,
-13,
-14,
-14,
-12,
-11,
-10,
-8,
-6,
-4,
-3,
-2,
0,
3,
5,
5,
7,
9,
10,
11,
12,
12,
12,
12,
12,
12,
11,
11,
10,
9,
8,
6,
6,
5,
5,
3,
1,
-1,
0,
3,
5,
3,
1,
1,
2,
5,
6,
5,
6,
6,
6,
8,
8,
8,
8,
7,
6,
6,
8,
7,
7,
7,
8,
8,
8,
9,
8,
8,
8,
8,
8,
6,
6,
6,
5,
5,
5,
4,
6,
8,
8,
10,
12,
13,
13,
14,
15,
16,
16,
16,
16,
16,
16,
16,
16,
17,
17,
18,
19,
21,
22,
22,
22,
28,
24,
19,
