data/ALL0022/A0022CH2.CSV

Memory Length,4000,
Trigger Level,0.000E+00,
Source,CH2,
Probe,1X,
Vertical Units,V,
Vertical Scale,1.000E-02,
Vertical Position,0.000E+00,
Horizontal Units,s,
Horizontal Scale,1.000E-05,
Horizontal Position,4.000E-06,
Horizontal Mode,Main,
Sampling Period,4.000E-08,
Firmware,V1.13,
Time, ,
Mode,Fast,
Waveform Data,
-4,
-4,
12,
10,
6,
4,
0,
-3,
-6,
-10,
-12,
-16,
-19,
-22,
-24,
-29,
-32,
-34,
-36,
-40,
-43,
-45,
-47,
-48,
-51,
-52,
-53,
-54,
-55,
-55,
-55,
-54,
-54,
-54,
-52,
-50,
-47,
-45,
-42,
-38,
-33,
-28,
-23,
-18,
-10,
-4,
2,
8,
16,
24,
30,
40,
45,
50,
56,
61,
66,
70,
74,
78,
80,
82,
82,
84,
83,
84,
84,
82,
82,
81,
80,
77,
74,
72,
71,
69,
65,
62,
60,
56,
52,
49,
45,
42,
38,
35,
31,
28,
24,
20,
17,
12,
9,
5,
1,
-3,
-8,
-12,
-16,
-20,
-24,
-29,
-32,
-35,
-38,
-42,
-46,
-48,
-50,
-54,
-47,
-48,
-56,
-58,
-54,
-50,
-49,
-50,
-50,
-47,
-43,
-39,
-36,
-33,
-28,
-24,
-19,
-15,
-10,
-5,
1,
5,
10,
12,
17,
22,
26,
28,
32,
35,
39,
40,
40,
41,
42,
41,
41,
41,
40,
38,
36,
34,
32,
31,
29,
27,
24,
22,
21,
20,
20,
18,
17,
17,
18,
19,
20,
20,
21,
22,
25,
26,
29,
30,
31,
32,
32,
33,
31,
32,
32,
30,
30,
28,
26,
24,
22,
19,
16,
13,
11,
8,
5,
3,
0,
-3,
-5,
-7,
-10,
-11,
-14,
-16,
-18,
-19,
-19,
-19,
-20,
-20,
-20,
-18,
-18,
-18,
-17,
-16,
-14,
-12,
-10,
-9,
-7,
-4,
-3,
-3,
-2,
0,
2,
2,
2,
2,
2,
4,
4,
4,
4,
4,
5,
5,
6,
6,
6,
8,
8,
10,
12,
13,
14,
17,
17,
19,
21,
23,
25,
27,
28,
30,
26,
28,
34,
32,
28,
28,
28,
33,
33,
26,
22,
25,
27,
25,
22,
20,
19,
20,
19,
17,
17,
17,
17,
16,
16,
15,
14,
15,
14,
13,
13,
13,
12,
11,
11,
10,
9,
9,
8,
9,
10,
11,
11,
11,
11,
13,
13,
14,
13,
14,
14,
13,
12,
13,
12,
11,
10,
10,
10,
9,
9,
10,
10,
10,
10,
12,
12,
12,
13,
14,
16,
16,
16,
16,
16,
17,
14,
13,
16,
21,
18,
12,
9,
10,
10,
9,
6,
2,
2,
1,
0,
-2,
-4,
-4,
-6,
-6,
-7,
-8,
-8,
-7,
-6,
-6,
-5,
-4,
-4,
-2,
-2,
0,
-1,
0,
1,
2,
2,
2,
2,
2,
2,
2,
1,
1,
1,
0,
0,
-2,
-1,
0,
-1,
-1,
0,
1,
2,
2,
3,
4,
4,
4,
5,
5,
4,
4,
4,
5,
5,
8,
8,
8,
2,
12,
14,
11,
9,
10,
12,
16,
17,
14,
14,
15,
17,
18,
19,
19,
18,
18,
21,
22,
24,
24,
24,
26,
27,
28,
29,
30,
30,
32,
34,
36,
35,
36,
38,
39,
39,
40,
40,
40,
40,
40,
38,
37,
34,
33,
32,
28,
24,
21,
17,
13,
10,
5,
1,
-2,
-6,
-9,
-12,
-16,
-18,
-21,
-23,
-24,
-25,
-24,
-26,
-26,
-26,
-25,
-25,
-24,
-23,
-23,
-21,
-18,
-18,
-16,
-15,
-14,
-11,
-8,
-8,
-6,
-4,
-2,
0,
1,
3,
5,
8,
10,
12,
12,
14,
16,
17,
17,
19,
20,
22,
22,
23,
24,
24,
25,
25,
25,
26,
27,
26,
27,
26,
28,
29,
29,
28,
32,
32,
30,
32,
33,
34,
32,
33,
33,
34,
33,
33,
32,
30,
30,
28,
27,
26,
24,
20,
18,
17,
14,
11,
9,
6,
7,
10,
-1,
-8,
-3,
0,
-6,
-10,
-13,
-12,
-13,
-18,
-18,
-14,
-13,
-16,
-19,
-17,
-14,
-14,
-15,
-15,
-13,
-11,
-10,
-12,
-12,
-11,
-10,
-9,
-9,
-10,
-8,
-8,
-6,
-7,
-6,
-4,
-4,
-3,
-2,
-2,
0,
1,
1,
2,
3,
4,
5,
6,
7,
8,
9,
9,
10,
11,
14,
14,
16,
17,
20,
23,
26,
28,
30,
32,
34,
36,
38,
40,
41,
41,
44,
46,
45,
45,
46,
46,
46,
45,
45,
44,
44,
44,
42,
41,
40,
37,
36,
34,
33,
30,
28,
26,
24,
20,
18,
16,
14,
10,
8,
6,
4,
2,
0,
-3,
-4,
-6,
-8,
-10,
-12,
-13,
-12,
-15,
-16,
-18,
-18,
-18,
-19,
-19,
-20,
-20,
-20,
-19,
-19,
-18,
-17,
-16,
-16,
-15,
-14,
-12,
-12,
-11,
-10,
-8,
-6,
-5,
-3,
0,
1,
3,
4,
8,
12,
15,
18,
18,
15,
25,
29,
29,
28,
31,
34,
37,
40,
40,
40,
41,
41,
42,
42,
42,
41,
41,
40,
38,
36,
34,
33,
31,
29,
26,
24,
22,
20,
17,
15,
14,
12,
9,
8,
8,
5,
4,
2,
0,
0,
-2,
-3,
-3,
-4,
-4,
-6,
-8,
-10,
-9,
-10,
-11,
-11,
-11,
-13,
-12,
-12,
-13,
-12,
-12,
-10,
-9,
-8,
-7,
-6,
-5,
-3,
-2,
0,
1,
3,
4,
7,
8,
10,
11,
12,
13,
14,
14,
15,
16,
17,
16,
16,
15,
13,
12,
15,
19,
17,
12,
12,
16,
18,
17,
16,
16,
17,
21,
22,
24,
24,
24,
27,
29,
29,
29,
28,
28,
29,
29,
28,
28,
26,
25,
22,
22,
20,
18,
17,
16,
14,
13,
12,
11,
10,
8,
6,
4,
2,
2,
5,
6,
1,
-8,
-6,
-2,
-3,
-8,
-10,
-10,
-8,
-8,
-8,
-17,
-15,
-10,
-12,
-16,
-16,
-14,
-11,
-10,
-11,
-10,
-6,
-2,
1,
3,
6,
11,
15,
18,
21,
25,
28,
31,
33,
36,
38,
41,
42,
42,
43,
44,
45,
46,
45,
45,
45,
44,
43,
42,
40,
40,
38,
36,
34,
32,
31,
29,
28,
26,
22,
20,
18,
17,
14,
12,
9,
8,
5,
4,
1,
-2,
-2,
-4,
-7,
-8,
-11,
-12,
-15,
-18,
-19,
-21,
-23,
-25,
-28,
-30,
-30,
-31,
-33,
-34,
-34,
-34,
-34,
-34,
-33,
-31,
-30,
-27,
-24,
-22,
-18,
-15,
-12,
-8,
-5,
-3,
-1,
1,
4,
5,
6,
8,
9,
10,
12,
13,
14,
16,
17,
19,
19,
20,
22,
22,
22,
23,
24,
24,
24,
25,
24,
24,
24,
25,
26,
26,
28,
26,
26,
26,
26,
25,
26,
26,
24,
22,
22,
25,
25,
24,
22,
23,
24,
26,
26,
27,
26,
21,
29,
30,
28,
25,
26,
26,
27,
26,
24,
22,
22,
21,
20,
18,
16,
14,
12,
10,
5,
4,
6,
8,
3,
-2,
-4,
-2,
-1,
-4,
-6,
-9,
-8,
-8,
-10,
-10,
-10,
-10,
-11,
-10,
-10,
-8,
-8,
-7,
-6,
-6,
-3,
-2,
0,
2,
2,
5,
7,
9,
11,
12,
13,
16,
17,
17,
20,
20,
21,
21,
21,
20,
21,
20,
20,
19,
18,
18,
17,
14,
13,
13,
12,
11,
9,
8,
6,
7,
6,
4,
2,
3,
3,
3,
4,
3,
2,
4,
4,
5,
5,
7,
8,
9,
11,
12,
13,
14,
16,
17,
19,
20,
21,
22,
23,
24,
24,
24,
23,
23,
24,
23,
22,
21,
20,
19,
18,
19,
24,
25,
17,
11,
15,
20,
16,
11,
8,
10,
12,
9,
5,
2,
1,
1,
1,
-1,
-3,
-5,
-7,
-8,
-9,
-8,
-15,
-14,
-10,
-12,
-16,
-16,
-15,
-14,
-12,
-13,
-14,
-14,
-12,
-11,
-10,
-9,
-8,
-7,
-5,
-3,
-2,
-1,
1,
1,
2,
5,
8,
9,
10,
12,
14,
17,
17,
17,
18,
21,
22,
22,
22,
23,
24,
24,
24,
24,
24,
24,
24,
24,
24,
22,
22,
22,
21,
19,
19,
18,
17,
16,
14,
13,
13,
12,
12,
10,
11,
11,
11,
10,
10,
9,
10,
11,
11,
10,
12,
12,
14,
14,
14,
16,
17,
17,
19,
19,
20,
20,
22,
22,
22,
23,
22,
24,
22,
22,
21,
21,
20,
17,
14,
13,
17,
17,
12,
5,
4,
6,
5,
2,
-2,
-2,
-3,
-4,
-3,
-6,
-8,
-7,
-6,
-4,
-4,
-2,
-2,
-1,
1,
4,
6,
6,
10,
10,
12,
14,
16,
18,
17,
18,
18,
18,
18,
17,
16,
14,
13,
11,
10,
8,
6,
5,
-4,
1,
1,
-3,
-7,
-8,
-8,
-6,
-6,
-7,
-8,
-8,
-6,
-4,
-3,
-1,
0,
0,
1,
4,
5,
8,
9,
12,
13,
15,
18,
20,
22,
25,
28,
31,
31,
32,
34,
37,
39,
38,
38,
40,
41,
41,
40,
38,
38,
37,
34,
33,
30,
28,
23,
20,
17,
14,
10,
6,
1,
-3,
-6,
-9,
-11,
-14,
-18,
-20,
-21,
-22,
-22,
-23,
-23,
-23,
-23,
-21,
-20,
-18,
-14,
-12,
-10,
-6,
-3,
0,
4,
5,
8,
9,
11,
12,
13,
14,
14,
14,
14,
14,
12,
12,
11,
11,
9,
8,
8,
7,
6,
5,
5,
4,
6,
6,
5,
3,
4,
8,
12,
8,
1,
5,
12,
14,
12,
11,
14,
17,
20,
20,
21,
24,
27,
29,
31,
34,
36,
38,
41,
43,
44,
46,
47,
48,
48,
48,
50,
49,
49,
48,
46,
45,
46,
37,
35,
37,
33,
26,
24,
20,
18,
14,
10,
6,
3,
1,
-2,
-4,
-6,
-9,
-10,
-10,
-14,
-15,
-15,
-16,
-16,
-18,
-18,
-18,
-16,
-18,
-18,
-19,
-20,
-19,
-14,
-13,
-17,
-21,
-19,
-15,
-14,
-14,
-15,
-14,
-11,
-8,
-6,
-6,
-4,
-2,
1,
2,
3,
4,
4,
4,
5,
4,
3,
2,
2,
1,
0,
1,
1,
1,
1,
2,
3,
4,
6,
8,
8,
9,
11,
12,
14,
16,
17,
20,
21,
24,
26,
28,
29,
30,
33,
34,
33,
33,
34,
33,
33,
32,
31,
30,
29,
29,
28,
26,
24,
24,
24,
22,
20,
20,
18,
15,
13,
13,
12,
9,
6,
3,
2,
0,
-2,
-4,
-6,
-8,
-10,
-11,
-11,
-14,
-16,
-16,
-16,
-16,
-16,
-16,
-15,
-14,
-13,
-13,
-12,
-10,
-8,
-8,
-5,
-3,
-2,
0,
1,
4,
5,
8,
10,
4,
12,
15,
13,
12,
14,
15,
17,
18,
18,
18,
19,
21,
22,
22,
24,
24,
24,
25,
26,
26,
27,
26,
26,
27,
28,
26,
27,
26,
27,
27,
26,
25,
24,
24,
23,
20,
20,
20,
20,
20,
19,
17,
16,
16,
16,
16,
14,
14,
13,
13,
13,
13,
13,
12,
12,
12,
12,
10,
9,
10,
9,
7,
6,
5,
5,
5,
4,
4,
3,
3,
4,
4,
4,
3,
4,
4,
4,
4,
4,
4,
4,
4,
5,
4,
4,
4,
2,
2,
3,
4,
3,
2,
3,
2,
3,
3,
4,
3,
6,
10,
8,
1,
3,
8,
9,
8,
5,
3,
4,
8,
13,
13,
8,
7,
10,
13,
14,
12,
12,
12,
14,
13,
13,
13,
12,
12,
12,
9,
9,
8,
8,
5,
4,
2,
1,
0,
-1,
-2,
-3,
-4,
-4,
-4,
-5,
-3,
-10,
-8,
-2,
-2,
-6,
-5,
-3,
0,
1,
1,
2,
2,
4,
5,
5,
4,
5,
6,
7,
8,
8,
8,
8,
9,
10,
10,
11,
12,
11,
13,
16,
17,
18,
16,
17,
18,
20,
20,
20,
20,
20,
21,
21,
21,
21,
21,
22,
21,
21,
21,
21,
21,
20,
20,
20,
20,
20,
20,
20,
18,
18,
20,
19,
20,
21,
20,
19,
18,
18,
18,
17,
17,
17,
16,
16,
16,
15,
15,
12,
12,
11,
11,
9,
9,
8,
6,
6,
6,
5,
5,
4,
5,
5,
5,
5,
6,
6,
6,
6,
8,
9,
10,
9,
10,
12,
11,
10,
11,
12,
12,
12,
11,
10,
10,
9,
8,
8,
6,
5,
4,
3,
3,
2,
1,
0,
0,
0,
0,
0,
0,
0,
1,
3,
2,
4,
5,
7,
8,
10,
10,
12,
14,
16,
16,
18,
20,
14,
22,
24,
22,
20,
21,
21,
22,
23,
21,
20,
18,
18,
18,
15,
12,
10,
8,
6,
4,
2,
0,
-3,
-5,
-7,
-8,
-8,
-10,
-11,
-12,
-11,
-11,
-11,
-12,
-11,
-11,
-9,
-9,
-8,
-10,
-8,
-10,
-11,
-10,
-3,
0,
-4,
-6,
-4,
2,
5,
6,
5,
8,
12,
15,
16,
16,
18,
21,
22,
22,
24,
25,
26,
28,
28,
28,
29,
30,
30,
30,
30,
30,
31,
31,
30,
30,
28,
28,
28,
28,
26,
25,
24,
22,
22,
20,
19,
22,
21,
15,
14,
18,
20,
17,
15,
16,
18,
20,
20,
18,
18,
20,
21,
21,
21,
22,
22,
23,
23,
22,
20,
20,
19,
17,
16,
14,
12,
10,
8,
5,
2,
0,
-2,
-5,
-8,
-11,
-12,
-15,
-16,
-18,
-19,
-21,
-22,
-23,
-23,
-23,
-23,
-23,
-22,
-22,
-20,
-18,
-13,
-18,
-15,
-6,
-3,
-3,
0,
5,
10,
16,
18,
22,
26,
30,
32,
35,
37,
38,
38,
38,
38,
39,
38,
38,
37,
36,
35,
35,
34,
33,
32,
31,
32,
29,
28,
25,
25,
22,
20,
17,
14,
13,
10,
8,
6,
4,
2,
-1,
-4,
-4,
-6,
-8,
-10,
-11,
-14,
-15,
-14,
-14,
-14,
-13,
-14,
-13,
-11,
-10,
-10,
-8,
-7,
-5,
-4,
-3,
-3,
-2,
0,
0,
-1,
0,
0,
-1,
0,
-2,
-2,
-2,
-2,
-3,
-4,
-4,
-6,
-8,
-8,
-8,
-10,
-10,
-11,
-12,
-12,
-11,
-11,
-12,
-11,
-11,
-10,
-9,
-7,
-6,
-4,
-3,
0,
3,
5,
7,
10,
14,
17,
20,
24,
27,
30,
34,
37,
39,
42,
44,
43,
42,
46,
54,
55,
50,
48,
50,
52,
52,
49,
47,
47,
46,
44,
42,
40,
38,
37,
34,
32,
29,
26,
25,
22,
14,
18,
16,
10,
6,
5,
4,
4,
2,
0,
-2,
-2,
-2,
-1,
-2,
-2,
-2,
-2,
-1,
0,
0,
0,
-2,
0,
0,
2,
2,
1,
1,
2,
3,
5,
3,
2,
4,
5,
5,
4,
5,
4,
5,
5,
3,
2,
3,
3,
2,
1,
0,
-1,
0,
0,
-1,
-2,
-2,
-2,
-2,
-2,
-2,
-2,
-3,
-2,
-2,
-1,
-2,
-1,
0,
0,
0,
1,
2,
4,
5,
5,
6,
8,
8,
9,
15,
16,
12,
12,
16,
21,
21,
18,
20,
22,
24,
25,
24,
24,
23,
24,
24,
24,
24,
22,
22,
20,
19,
18,
16,
15,
13,
12,
9,
8,
6,
4,
2,
1,
-2,
-3,
-5,
-7,
-8,
-10,
-11,
-12,
-13,
-14,
-15,
-16,
-16,
-15,
-15,
-14,
-14,
-12,
-11,
-10,
-10,
-8,
-6,
-4,
-3,
-2,
-2,
1,
3,
5,
6,
8,
10,
6,
9,
16,
16,
14,
15,
17,
19,
22,
21,
21,
22,
22,
24,
26,
26,
26,
26,
28,
28,
28,
28,
28,
28,
28,
28,
28,
28,
28,
27,
26,
28,
26,
24,
24,
25,
24,
23,
21,
21,
21,
21,
22,
21,
21,
21,
22,
22,
22,
22,
23,
24,
24,
24,
22,
20,
20,
25,
28,
24,
19,
19,
22,
23,
20,
17,
16,
16,
16,
15,
14,
12,
11,
12,
10,
9,
8,
7,
6,
4,
4,
3,
2,
0,
0,
0,
-2,
-4,
-5,
-7,
-8,
-10,
-11,
-12,
-13,
-14,
-16,
-16,
-16,
-16,
-16,
-15,
-15,
-15,
-13,
-11,
-10,
-8,
-6,
-3,
0,
1,
2,
5,
9,
10,
12,
14,
14,
16,
17,
17,
16,
14,
12,
12,
11,
9,
6,
4,
2,
0,
-3,
-4,
-7,
-8,
-10,
-10,
-12,
-12,
-12,
-12,
-11,
-10,
-7,
-6,
-11,
-2,
2,
1,
2,
6,
9,
13,
16,
17,
20,
22,
25,
28,
30,
30,
31,
33,
34,
34,
34,
34,
33,
34,
34,
33,
33,
33,
32,
32,
32,
32,
30,
29,
28,
28,
26,
26,
25,
24,
23,
22,
20,
19,
18,
18,
17,
16,
14,
13,
12,
11,
10,
9,
9,
6,
6,
4,
4,
3,
2,
0,
-1,
-3,
-3,
-4,
-6,
-4,
-2,
-4,
-10,
-8,
-4,
-2,
-3,
-4,
-2,
1,
2,
4,
4,
6,
8,
9,
10,
11,
12,
13,
14,
14,
14,
13,
13,
14,
12,
12,
12,
10,
9,
8,
8,
6,
6,
7,
8,
8,
9,
10,
12,
13,
16,
19,
22,
21,
24,
27,
28,
29,
29,
30,
31,
32,
31,
31,
32,
32,
32,
32,
32,
32,
32,
31,
30,
26,
25,
26,
29,
24,
17,
14,
15,
16,
12,
7,
6,
-2,
-3,
0,
-5,
-10,
-12,
-16,
-19,
-19,
-22,
-24,
-26,
-28,
-28,
-28,
-28,
-28,
-30,
-28,
-26,
-24,
-23,
-23,
-20,
-20,
-18,
-15,
-14,
-12,
-11,
-9,
-6,
-4,
-4,
-3,
-1,
0,
1,
2,
3,
4,
6,
8,
9,
9,
10,
12,
13,
14,
16,
17,
17,
18,
20,
20,
20,
20,
20,
21,
20,
20,
20,
21,
19,
17,
16,
16,
15,
14,
12,
11,
10,
9,
9,
9,
9,
9,
10,
9,
9,
9,
10,
12,
12,
13,
14,
16,
16,
18,
19,
20,
21,
22,
23,
24,
24,
25,
26,
27,
29,
29,
30,
30,
32,
33,
34,
34,
36,
36,
37,
37,
38,
38,
38,
36,
36,
34,
34,
31,
29,
27,
25,
22,
20,
17,
15,
13,
10,
8,
6,
5,
5,
4,
2,
1,
1,
0,
0,
0,
0,
0,
-1,
-2,
0,
0,
-1,
-8,
-3,
-2,
-6,
-7,
-7,
-7,
-8,
-9,
-10,
-12,
-11,
-12,
-12,
-14,
-14,
-15,
-15,
-15,
-15,
-15,
-15,
-16,
-15,
-15,
-14,
-13,
-12,
-13,
-10,
-8,
-5,
-4,
-3,
-1,
2,
3,
5,
9,
11,
13,
16,
17,
20,
22,
24,
26,
27,
28,
30,
32,
33,
34,
34,
34,
34,
36,
40,
38,
32,
33,
36,
39,
34,
30,
28,
27,
26,
26,
27,
22,
17,
13,
13,
12,
9,
4,
0,
-3,
-6,
-8,
-12,
-15,
-18,
-19,
-20,
-22,
-24,
-24,
-24,
-24,
-24,
-24,
-23,
-21,
-20,
-18,
-16,
-13,
-9,
-6,
-3,
1,
2,
6,
10,
12,
16,
18,
20,
23,
26,
28,
29,
30,
31,
34,
33,
32,
32,
34,
33,
32,
30,
30,
30,
29,
28,
25,
25,
24,
21,
20,
19,
17,
15,
14,
12,
11,
11,
10,
9,
6,
6,
8,
2,
2,
6,
6,
3,
2,
3,
5,
8,
5,
5,
6,
8,
9,
9,
10,
11,
12,
12,
12,
14,
16,
16,
17,
18,
18,
20,
21,
22,
23,
25,
27,
27,
28,
29,
30,
31,
31,
32,
32,
33,
33,
32,
32,
32,
32,
31,
30,
28,
26,
25,
23,
21,
18,
14,
12,
11,
8,
4,
0,
-3,
-6,
-9,
-13,
-15,
-18,
-20,
-23,
-24,
-28,
-30,
-31,
-32,
-32,
-32,
-33,
-34,
-32,
-31,
-30,
-29,
-26,
-24,
-22,
-20,
-16,
-12,
-10,
-6,
-4,
-2,
1,
3,
5,
6,
8,
8,
9,
9,
10,
9,
10,
10,
9,
10,
10,
10,
10,
13,
14,
14,
16,
17,
19,
20,
21,
24,
27,
28,
31,
33,
34,
34,
36,
38,
38,
39,
39,
39,
39,
40,
39,
39,
37,
35,
34,
34,
32,
30,
28,
26,
24,
22,
20,
18,
14,
4,
10,
16,
12,
4,
0,
1,
5,
5,
2,
0,
2,
3,
4,
3,
3,
4,
5,
4,
6,
6,
6,
5,
6,
6,
8,
8,
8,
8,
9,
12,
12,
11,
10,
12,
15,
15,
15,
15,
17,
17,
18,
19,
18,
18,
18,
23,
26,
20,
14,
16,
19,
17,
14,
10,
10,
10,
8,
5,
1,
-2,
-3,
-4,
-5,
-7,
-8,
-9,
-9,
-8,
-8,
-8,
-8,
-6,
-4,
-3,
-3,
-2,
-2,
0,
1,
2,
4,
5,
6,
8,
10,
12,
14,
15,
17,
18,
19,
21,
21,
21,
21,
22,
20,
20,
21,
22,
20,
18,
19,
18,
18,
16,
16,
14,
14,
13,
10,
10,
9,
9,
8,
6,
5,
4,
3,
2,
2,
1,
0,
0,
0,
0,
-1,
-2,
-1,
-2,
-3,
-3,
-3,
-4,
-4,
-4,
-5,
-5,
-5,
-5,
-4,
-4,
-4,
-1,
-8,
-6,
0,
1,
-2,
-1,
-1,
2,
5,
5,
5,
5,
6,
9,
10,
10,
11,
11,
12,
12,
13,
14,
13,
13,
13,
13,
14,
14,
13,
13,
14,
15,
15,
14,
14,
14,
15,
15,
14,
14,
14,
16,
16,
15,
14,
17,
19,
20,
18,
18,
19,
20,
20,
20,
20,
21,
19,
19,
18,
18,
16,
14,
14,
14,
13,
13,
13,
11,
9,
9,
10,
9,
9,
8,
8,
7,
8,
8,
8,
5,
5,
10,
17,
16,
12,
14,
20,
24,
26,
26,
28,
32,
34,
36,
36,
37,
37,
38,
39,
40,
37,
36,
34,
33,
31,
28,
26,
22,
18,
16,
14,
11,
6,
2,
0,
-4,
-6,
-10,
-13,
-16,
-19,
-22,
-24,
-27,
-29,
-30,
-32,
-33,
-34,
-35,
-35,
-35,
-34,
-32,
-31,
-31,
-29,
-26,
-24,
-22,
-20,
-17,
-14,
-11,
-7,
-6,
-8,
1,
5,
5,
6,
9,
12,
16,
18,
20,
22,
26,
28,
29,
31,
32,
33,
34,
34,
36,
37,
37,
37,
38,
39,
40,
41,
42,
42,
43,
43,
44,
43,
42,
41,
42,
45,
44,
36,
32,
34,
34,
31,
26,
23,
21,
20,
16,
13,
9,
5,
3,
-1,
-4,
-8,
-11,
-14,
-16,
-20,
-22,
-24,
-26,
-27,
-28,
-29,
-29,
-28,
-28,
-28,
-26,
-26,
-23,
-22,
-22,
-19,
-16,
-15,
-12,
-10,
-7,
-4,
0,
1,
4,
7,
10,
12,
14,
16,
20,
21,
24,
26,
28,
29,
30,
30,
32,
32,
33,
34,
34,
34,
33,
33,
33,
32,
32,
32,
31,
30,
29,
28,
28,
28,
26,
25,
24,
22,
22,
21,
19,
18,
18,
17,
16,
16,
14,
14,
13,
13,
11,
12,
10,
9,
8,
6,
8,
6,
5,
5,
4,
4,
4,
5,
-1,
1,
4,
1,
-2,
-2,
-2,
-2,
0,
-2,
-3,
-3,
-4,
-5,
-5,
2,
4,
1,
-2,
0,
4,
7,
6,
5,
6,
10,
12,
13,
12,
13,
16,
19,
20,
20,
20,
22,
23,
24,
24,
24,
24,
22,
22,
21,
21,
20,
18,
17,
14,
12,
11,
9,
6,
4,
1,
0,
-2,
-3,
-6,
-7,
-8,
-8,
-10,
-11,
-12,
-12,
-12,
-12,
-13,
-12,
-11,
-10,
-9,
-8,
-7,
-5,
-3,
-2,
0,
2,
4,
7,
10,
13,
16,
18,
20,
22,
24,
26,
29,
31,
31,
32,
32,
34,
34,
33,
33,
32,
31,
31,
30,
29,
27,
26,
25,
24,
22,
19,
18,
17,
15,
14,
13,
12,
12,
11,
10,
8,
8,
9,
8,
8,
8,
8,
7,
8,
9,
8,
8,
8,
9,
9,
9,
10,
10,
10,
9,
9,
10,
10,
9,
8,
8,
8,
1,
8,
8,
4,
1,
2,
2,
3,
1,
0,
-1,
0,
0,
1,
1,
1,
1,
1,
2,
3,
3,
3,
5,
4,
5,
12,
15,
10,
7,
11,
16,
14,
12,
10,
12,
13,
12,
10,
6,
6,
6,
6,
5,
4,
4,
4,
5,
6,
6,
6,
7,
8,
9,
10,
10,
12,
12,
12,
13,
14,
16,
16,
16,
17,
17,
17,
18,
18,
18,
19,
18,
18,
18,
18,
18,
18,
17,
18,
16,
17,
16,
16,
14,
14,
13,
12,
11,
10,
9,
8,
6,
2,
1,
4,
8,
2,
-2,
-1,
1,
1,
1,
0,
0,
0,
2,
3,
4,
4,
4,
5,
8,
8,
9,
8,
10,
11,
12,
12,
12,
13,
12,
12,
12,
12,
12,
12,
12,
12,
12,
12,
14,
14,
13,
13,
14,
14,
15,
14,
15,
14,
13,
12,
13,
12,
13,
6,
6,
8,
5,
0,
-2,
-3,
-3,
-5,
-8,
-9,
-10,
-10,
-8,
-9,
-8,
-8,
-7,
-4,
-3,
0,
1,
4,
6,
10,
14,
17,
18,
21,
24,
28,
30,
30,
32,
33,
35,
36,
36,
35,
35,
36,
34,
33,
32,
30,
29,
27,
24,
23,
19,
18,
15,
12,
10,
6,
5,
3,
1,
-1,
-2,
-3,
-4,
-4,
-5,
-5,
-4,
-4,
-4,
-3,
-3,
0,
1,
1,
0,
1,
4,
4,
4,
4,
4,
5,
4,
3,
3,
3,
2,
1,
0,
0,
-1,
-3,
-3,
-5,
-6,
-6,
-6,
-7,
-7,
-8,
-8,
-8,
-8,
-8,
-7,
-4,
-3,
-2,
-1,
1,
4,
5,
8,
10,
14,
16,
18,
21,
24,
25,
28,
30,
33,
34,
36,
37,
40,
41,
44,
45,
45,
46,
46,
48,
48,
47,
46,
46,
45,
44,
42,
40,
37,
35,
32,
30,
26,
17,
20,
19,
14,
8,
5,
2,
2,
0,
-5,
-8,
-11,
-12,
-15,
-16,
-13,
-15,
-24,
-26,
-22,
-18,
-22,
-27,
-28,
-28,
-26,
-22,
-19,
-21,
-23,
-19,
-15,
-12,
-12,
-11,
-8,
-5,
-1,
0,
2,
5,
9,
10,
12,
14,
16,
17,
20,
22,
24,
24,
25,
26,
28,
28,
29,
29,
30,
31,
30,
31,
32,
30,
29,
29,
29,
30,
27,
27,
28,
25,
25,
24,
23,
21,
20,
20,
20,
18,
17,
17,
16,
16,
14,
13,
13,
12,
10,
9,
8,
8,
6,
5,
5,
5,
4,
3,
2,
2,
4,
2,
1,
0,
-1,
0,
0,
-1,
-3,
