data/ALL0017/A0017CH2.CSV

Memory Length,4000,
Trigger Level,0.000E+00,
Source,CH2,
Probe,1X,
Vertical Units,V,
Vertical Scale,1.000E-02,
Vertical Position,0.000E+00,
Horizontal Units,s,
Horizontal Scale,1.000E-05,
Horizontal Position,4.000E-06,
Horizontal Mode,Main,
Sampling Period,4.000E-08,
Firmware,V1.13,
Time, ,
Mode,Fast,
Waveform Data,
-2,
-2,
16,
16,
18,
11,
12,
19,
17,
13,
12,
12,
14,
15,
12,
9,
9,
11,
12,
10,
6,
8,
8,
9,
8,
6,
8,
8,
7,
6,
6,
6,
7,
8,
8,
8,
9,
10,
9,
10,
10,
11,
11,
11,
10,
10,
10,
9,
10,
9,
10,
10,
8,
8,
6,
8,
5,
6,
6,
4,
3,
2,
4,
4,
1,
0,
0,
1,
1,
0,
-2,
0,
0,
0,
0,
0,
0,
1,
2,
2,
3,
4,
5,
6,
6,
8,
8,
9,
10,
10,
11,
13,
14,
16,
15,
16,
17,
18,
18,
18,
18,
19,
19,
19,
19,
18,
17,
17,
18,
17,
16,
14,
14,
14,
12,
10,
10,
9,
9,
7,
6,
6,
6,
6,
5,
4,
3,
4,
4,
3,
3,
3,
4,
5,
5,
4,
4,
4,
5,
6,
6,
7,
8,
8,
9,
9,
9,
9,
9,
12,
12,
2,
12,
15,
12,
8,
8,
9,
12,
12,
9,
8,
8,
11,
12,
11,
11,
12,
13,
16,
16,
16,
16,
18,
17,
16,
17,
16,
16,
15,
14,
14,
16,
14,
14,
16,
17,
17,
17,
18,
20,
21,
22,
22,
21,
21,
20,
21,
20,
18,
17,
17,
17,
16,
15,
14,
14,
13,
13,
11,
12,
11,
10,
9,
8,
7,
6,
5,
5,
4,
4,
3,
2,
3,
2,
2,
1,
0,
0,
0,
1,
2,
2,
1,
1,
2,
3,
2,
2,
3,
4,
5,
5,
6,
6,
7,
8,
9,
10,
10,
12,
12,
13,
14,
14,
15,
15,
15,
14,
14,
14,
14,
13,
12,
12,
12,
12,
10,
11,
10,
11,
10,
9,
9,
10,
9,
9,
8,
8,
8,
9,
9,
8,
9,
10,
10,
9,
9,
10,
12,
10,
9,
10,
12,
12,
14,
5,
4,
12,
10,
6,
4,
2,
4,
6,
6,
3,
2,
3,
5,
4,
4,
2,
3,
5,
5,
5,
6,
8,
8,
8,
8,
10,
12,
13,
13,
15,
17,
19,
19,
20,
21,
22,
25,
26,
26,
25,
26,
26,
23,
22,
25,
25,
25,
22,
21,
20,
19,
18,
16,
16,
15,
14,
12,
11,
9,
7,
5,
5,
4,
2,
2,
0,
0,
-2,
-2,
-2,
-1,
-2,
-2,
-3,
-2,
-2,
-2,
-2,
0,
1,
1,
1,
4,
5,
5,
6,
6,
8,
9,
9,
9,
10,
11,
12,
12,
12,
12,
12,
12,
12,
12,
11,
11,
12,
12,
10,
11,
10,
10,
9,
9,
8,
9,
8,
7,
8,
8,
6,
5,
6,
8,
8,
6,
6,
7,
8,
9,
9,
9,
9,
8,
9,
10,
9,
10,
9,
10,
10,
10,
10,
10,
10,
10,
11,
13,
4,
9,
12,
9,
5,
5,
5,
7,
7,
5,
4,
5,
6,
6,
5,
5,
5,
7,
8,
8,
9,
9,
10,
9,
10,
10,
12,
12,
13,
14,
14,
15,
17,
18,
19,
18,
18,
17,
20,
20,
20,
18,
17,
17,
18,
16,
16,
13,
13,
13,
12,
10,
9,
10,
9,
8,
6,
5,
4,
5,
3,
3,
2,
2,
2,
1,
1,
0,
0,
0,
0,
0,
0,
0,
1,
1,
1,
2,
3,
5,
5,
6,
8,
9,
10,
11,
12,
13,
14,
14,
16,
16,
18,
17,
18,
18,
19,
19,
20,
18,
18,
18,
16,
17,
16,
16,
14,
13,
11,
12,
12,
11,
10,
9,
9,
8,
7,
8,
8,
5,
6,
6,
8,
8,
8,
8,
8,
9,
10,
11,
12,
12,
12,
13,
14,
14,
14,
14,
15,
14,
14,
14,
14,
13,
16,
9,
6,
12,
11,
6,
4,
3,
2,
2,
1,
3,
3,
0,
1,
1,
-2,
-4,
-4,
-2,
-1,
-1,
-2,
-2,
-2,
0,
0,
1,
2,
4,
4,
5,
7,
9,
10,
10,
12,
13,
13,
14,
15,
16,
16,
17,
18,
17,
17,
18,
18,
18,
18,
17,
18,
18,
17,
17,
16,
16,
16,
15,
14,
14,
13,
12,
12,
11,
11,
10,
10,
9,
8,
6,
6,
5,
5,
4,
1,
1,
1,
0,
0,
-2,
-3,
-2,
-2,
-2,
-3,
-3,
-3,
-2,
-1,
-1,
0,
0,
1,
2,
4,
6,
5,
6,
9,
10,
12,
12,
13,
14,
16,
16,
17,
18,
20,
19,
18,
19,
20,
20,
22,
21,
20,
22,
23,
24,
22,
20,
19,
20,
19,
17,
16,
16,
14,
14,
13,
14,
14,
14,
14,
14,
13,
12,
13,
14,
14,
13,
11,
13,
13,
2,
8,
10,
6,
3,
2,
3,
6,
7,
5,
3,
3,
4,
5,
4,
4,
4,
5,
6,
6,
6,
6,
6,
8,
9,
9,
9,
10,
12,
11,
12,
12,
12,
12,
10,
12,
11,
10,
10,
9,
9,
9,
8,
7,
8,
8,
9,
8,
8,
6,
7,
8,
9,
8,
6,
6,
8,
7,
6,
6,
5,
4,
5,
5,
6,
5,
4,
4,
5,
5,
7,
6,
8,
9,
9,
9,
9,
10,
12,
12,
12,
12,
13,
13,
13,
13,
14,
15,
16,
16,
16,
15,
15,
14,
14,
13,
13,
13,
13,
11,
10,
9,
9,
9,
9,
8,
8,
8,
8,
8,
8,
8,
9,
9,
8,
8,
9,
10,
11,
12,
11,
10,
11,
14,
14,
13,
12,
13,
13,
14,
14,
13,
13,
13,
14,
14,
14,
13,
12,
13,
12,
12,
12,
13,
16,
8,
2,
12,
12,
7,
4,
4,
5,
8,
6,
4,
3,
4,
5,
6,
5,
6,
6,
7,
7,
7,
8,
9,
10,
10,
10,
10,
12,
12,
11,
11,
13,
15,
13,
13,
15,
14,
14,
14,
12,
12,
12,
13,
12,
10,
9,
9,
10,
10,
9,
9,
8,
8,
8,
7,
6,
6,
6,
8,
6,
5,
5,
5,
6,
6,
5,
5,
6,
6,
6,
5,
5,
6,
7,
6,
8,
8,
8,
8,
8,
8,
9,
10,
9,
10,
10,
10,
11,
12,
11,
11,
11,
12,
12,
11,
11,
12,
12,
11,
11,
10,
10,
12,
12,
12,
12,
12,
12,
12,
12,
13,
12,
13,
13,
14,
14,
14,
13,
18,
17,
16,
15,
16,
16,
16,
16,
16,
16,
14,
14,
13,
13,
13,
14,
13,
12,
10,
11,
10,
9,
8,
6,
6,
6,
6,
8,
-3,
1,
5,
2,
-2,
-2,
-2,
0,
1,
-2,
-3,
-3,
-2,
-1,
-2,
-3,
-2,
-2,
-2,
0,
0,
1,
0,
1,
2,
2,
4,
4,
6,
6,
7,
9,
10,
10,
11,
12,
13,
14,
16,
15,
16,
17,
16,
17,
18,
20,
20,
20,
19,
20,
21,
21,
21,
20,
21,
21,
22,
21,
21,
20,
20,
20,
18,
17,
16,
16,
16,
14,
13,
12,
11,
10,
10,
8,
6,
5,
5,
5,
4,
2,
1,
1,
0,
0,
-1,
-1,
-1,
-2,
-2,
-2,
-2,
-3,
-2,
-3,
-1,
0,
0,
1,
3,
3,
1,
2,
5,
7,
8,
8,
9,
10,
10,
11,
12,
14,
16,
15,
13,
14,
17,
15,
14,
14,
14,
14,
14,
13,
12,
12,
11,
12,
11,
9,
8,
8,
8,
8,
6,
5,
4,
4,
4,
4,
3,
3,
3,
3,
6,
2,
-4,
4,
6,
2,
0,
1,
3,
5,
5,
4,
5,
7,
8,
8,
9,
9,
10,
11,
12,
12,
12,
13,
13,
14,
14,
15,
16,
16,
16,
17,
18,
18,
18,
18,
19,
19,
20,
18,
17,
16,
14,
16,
15,
13,
12,
11,
11,
10,
9,
8,
8,
6,
5,
5,
5,
5,
4,
4,
4,
4,
4,
5,
6,
5,
7,
8,
9,
11,
12,
12,
12,
13,
13,
14,
12,
13,
14,
14,
12,
12,
13,
14,
13,
12,
10,
11,
12,
14,
12,
10,
14,
16,
14,
12,
11,
12,
14,
13,
11,
10,
9,
8,
9,
8,
6,
8,
8,
6,
4,
4,
3,
4,
4,
4,
2,
2,
2,
4,
2,
2,
2,
3,
5,
5,
5,
6,
6,
6,
8,
8,
8,
8,
10,
10,
10,
11,
12,
12,
13,
12,
12,
14,
14,
14,
18,
10,
11,
16,
15,
12,
12,
10,
12,
13,
12,
11,
11,
12,
14,
14,
12,
12,
13,
15,
14,
13,
14,
15,
14,
15,
15,
16,
16,
16,
17,
17,
18,
18,
16,
17,
18,
18,
17,
17,
17,
17,
16,
16,
15,
15,
15,
14,
14,
13,
12,
12,
12,
11,
10,
9,
9,
8,
9,
8,
8,
6,
6,
8,
6,
5,
4,
5,
5,
5,
5,
4,
4,
4,
4,
4,
4,
2,
2,
4,
3,
2,
2,
4,
3,
2,
2,
2,
4,
4,
4,
4,
5,
4,
4,
5,
5,
5,
6,
6,
6,
6,
8,
10,
11,
10,
10,
12,
13,
14,
13,
14,
14,
15,
16,
16,
16,
16,
16,
16,
16,
15,
14,
14,
14,
12,
12,
11,
11,
9,
8,
8,
6,
5,
5,
3,
3,
2,
4,
2,
2,
1,
2,
2,
2,
4,
2,
-3,
5,
7,
4,
2,
3,
6,
8,
7,
6,
6,
8,
11,
10,
11,
12,
13,
13,
14,
16,
17,
17,
17,
18,
18,
20,
21,
22,
21,
22,
22,
22,
21,
21,
21,
21,
21,
20,
18,
18,
18,
17,
16,
14,
13,
13,
12,
12,
11,
10,
10,
10,
10,
9,
9,
9,
9,
8,
8,
8,
9,
8,
8,
9,
8,
8,
6,
8,
8,
8,
6,
7,
8,
8,
7,
5,
6,
6,
6,
5,
5,
5,
5,
6,
4,
5,
5,
4,
4,
4,
5,
4,
4,
4,
4,
4,
4,
4,
4,
4,
4,
5,
5,
5,
5,
6,
6,
6,
8,
8,
8,
8,
9,
9,
9,
9,
10,
10,
12,
10,
10,
11,
12,
12,
11,
12,
12,
12,
12,
11,
12,
12,
12,
10,
9,
10,
11,
12,
12,
10,
11,
12,
12,
12,
17,
9,
10,
16,
14,
11,
11,
12,
14,
16,
14,
13,
13,
14,
15,
14,
14,
14,
15,
15,
13,
14,
12,
13,
11,
10,
11,
11,
10,
8,
8,
8,
8,
6,
6,
5,
5,
5,
4,
3,
2,
2,
2,
2,
0,
-2,
2,
3,
0,
0,
0,
0,
-2,
-2,
0,
2,
2,
2,
2,
2,
4,
5,
6,
6,
8,
8,
8,
10,
10,
10,
11,
12,
13,
13,
13,
13,
14,
14,
13,
13,
14,
14,
14,
13,
14,
14,
13,
13,
14,
14,
14,
13,
14,
13,
13,
13,
13,
12,
13,
13,
13,
13,
12,
12,
12,
12,
11,
10,
10,
10,
10,
10,
9,
8,
8,
7,
6,
7,
7,
6,
6,
5,
5,
4,
4,
3,
2,
2,
5,
4,
3,
3,
4,
6,
5,
5,
5,
7,
8,
8,
9,
10,
12,
12,
13,
14,
15,
9,
16,
18,
16,
13,
13,
15,
19,
19,
18,
17,
18,
21,
22,
22,
21,
21,
21,
21,
21,
20,
18,
16,
15,
12,
12,
12,
9,
7,
5,
6,
8,
6,
5,
6,
6,
5,
5,
6,
6,
8,
5,
5,
8,
9,
9,
6,
6,
6,
7,
7,
6,
5,
4,
4,
4,
2,
1,
0,
-2,
0,
-2,
-4,
-4,
-6,
-6,
-6,
-7,
-8,
-8,
-8,
-8,
-8,
-7,
-6,
-4,
-4,
-2,
-2,
0,
2,
2,
5,
8,
9,
10,
11,
14,
16,
18,
20,
21,
24,
24,
26,
28,
30,
32,
32,
33,
34,
36,
36,
36,
36,
37,
37,
36,
35,
33,
33,
32,
32,
30,
28,
26,
26,
24,
21,
20,
18,
17,
16,
12,
11,
9,
8,
6,
4,
2,
1,
0,
-1,
-2,
-3,
-4,
-5,
-4,
-5,
-6,
-7,
-6,
-6,
-4,
0,
-11,
-8,
-3,
-4,
-8,
-7,
-5,
-3,
-1,
-2,
-2,
-2,
0,
1,
0,
0,
5,
7,
5,
7,
8,
8,
6,
8,
9,
10,
12,
13,
12,
12,
13,
16,
17,
16,
16,
18,
18,
18,
16,
16,
17,
18,
18,
18,
19,
20,
18,
18,
18,
19,
20,
20,
18,
19,
19,
20,
18,
17,
17,
16,
14,
15,
15,
12,
10,
8,
8,
8,
5,
4,
2,
1,
0,
-1,
-2,
-4,
-4,
-4,
-5,
-6,
-6,
-8,
-8,
-7,
-6,
-6,
-6,
-4,
-5,
-4,
-2,
-1,
0,
0,
1,
3,
5,
6,
6,
7,
10,
12,
12,
13,
13,
14,
16,
17,
18,
17,
18,
19,
20,
20,
20,
20,
20,
21,
21,
20,
20,
20,
20,
20,
20,
19,
18,
20,
20,
19,
18,
17,
19,
20,
20,
18,
20,
21,
22,
21,
21,
22,
22,
23,
25,
24,
16,
22,
23,
19,
16,
16,
16,
17,
14,
11,
10,
9,
9,
8,
5,
4,
4,
1,
2,
0,
0,
0,
-2,
-3,
-3,
-2,
-2,
-2,
-2,
-2,
0,
2,
2,
1,
2,
4,
4,
5,
5,
6,
6,
6,
6,
6,
6,
6,
6,
5,
5,
5,
6,
5,
5,
4,
3,
4,
4,
4,
3,
2,
2,
3,
2,
2,
2,
2,
2,
3,
3,
3,
3,
4,
5,
6,
5,
6,
8,
9,
10,
10,
12,
13,
13,
14,
16,
17,
18,
20,
20,
21,
21,
22,
24,
24,
24,
23,
25,
26,
25,
25,
25,
26,
26,
23,
21,
21,
21,
22,
21,
20,
18,
17,
17,
16,
15,
14,
12,
10,
11,
9,
8,
5,
5,
5,
2,
1,
0,
0,
-2,
-4,
-4,
-4,
-4,
-6,
-7,
-7,
-7,
-6,
-8,
-8,
-8,
-7,
-6,
-6,
-2,
-11,
-8,
-1,
-3,
-7,
-6,
-4,
-1,
1,
-1,
0,
1,
4,
6,
7,
8,
8,
9,
10,
13,
14,
16,
16,
17,
19,
20,
21,
22,
23,
24,
27,
29,
29,
28,
30,
30,
31,
31,
30,
29,
29,
29,
28,
26,
25,
24,
23,
22,
20,
18,
17,
15,
14,
12,
10,
9,
7,
6,
4,
2,
1,
1,
-1,
-2,
-3,
-3,
-3,
-4,
-4,
-4,
-5,
-4,
-4,
-4,
-3,
-2,
0,
0,
0,
1,
2,
2,
5,
6,
7,
8,
10,
12,
13,
13,
14,
15,
17,
17,
17,
16,
17,
17,
17,
17,
16,
16,
15,
15,
14,
13,
12,
12,
13,
12,
10,
10,
12,
12,
10,
9,
10,
10,
9,
7,
5,
5,
6,
5,
2,
2,
4,
4,
3,
2,
5,
8,
9,
9,
8,
8,
9,
9,
9,
9,
8,
6,
8,
7,
9,
5,
-1,
6,
6,
1,
0,
0,
1,
2,
0,
-2,
-1,
1,
2,
2,
2,
2,
2,
3,
4,
5,
5,
5,
5,
6,
8,
9,
10,
10,
10,
11,
13,
15,
15,
13,
15,
17,
18,
18,
18,
18,
18,
20,
19,
20,
21,
21,
21,
21,
21,
22,
22,
22,
22,
21,
22,
21,
20,
20,
20,
20,
19,
19,
18,
18,
18,
17,
18,
18,
16,
16,
17,
16,
15,
14,
13,
12,
14,
14,
12,
11,
10,
12,
12,
10,
9,
9,
10,
9,
9,
8,
8,
7,
8,
8,
6,
6,
6,
6,
6,
5,
4,
5,
6,
6,
5,
4,
3,
4,
5,
4,
4,
4,
4,
4,
4,
3,
3,
3,
4,
2,
1,
0,
2,
3,
2,
1,
2,
3,
4,
4,
4,
4,
6,
6,
7,
6,
6,
9,
9,
9,
10,
11,
12,
12,
16,
8,
11,
16,
14,
10,
10,
12,
14,
14,
13,
12,
12,
12,
13,
13,
13,
13,
11,
11,
12,
12,
11,
11,
10,
10,
11,
12,
11,
11,
12,
12,
13,
13,
13,
12,
13,
13,
12,
13,
12,
11,
11,
11,
10,
10,
9,
8,
7,
6,
6,
5,
4,
4,
2,
1,
2,
2,
2,
2,
1,
0,
1,
1,
2,
0,
0,
1,
4,
5,
5,
5,
8,
9,
10,
10,
12,
14,
16,
17,
19,
20,
22,
22,
24,
25,
26,
26,
26,
26,
28,
26,
24,
24,
22,
22,
23,
19,
16,
19,
18,
16,
14,
12,
12,
13,
12,
10,
8,
8,
8,
7,
8,
10,
10,
8,
6,
8,
10,
8,
8,
9,
9,
10,
10,
10,
10,
10,
10,
10,
9,
9,
8,
8,
8,
8,
7,
8,
6,
6,
6,
6,
5,
5,
6,
6,
4,
-1,
5,
6,
1,
0,
0,
0,
1,
1,
-1,
-2,
0,
0,
0,
0,
0,
0,
0,
1,
2,
2,
3,
4,
5,
6,
6,
9,
10,
11,
12,
13,
16,
16,
16,
16,
18,
18,
19,
18,
18,
19,
20,
20,
18,
18,
18,
17,
16,
16,
15,
16,
14,
13,
13,
11,
12,
12,
11,
9,
8,
8,
8,
8,
8,
8,
8,
8,
8,
8,
8,
8,
9,
9,
9,
8,
10,
10,
11,
11,
12,
12,
13,
13,
13,
12,
12,
12,
13,
12,
12,
11,
12,
10,
10,
9,
9,
8,
6,
6,
5,
4,
4,
4,
3,
2,
2,
2,
2,
2,
2,
1,
2,
2,
4,
4,
4,
4,
4,
5,
6,
7,
6,
8,
9,
10,
10,
11,
13,
14,
14,
14,
16,
16,
16,
16,
15,
16,
16,
16,
16,
15,
14,
14,
14,
17,
9,
10,
13,
11,
8,
6,
6,
8,
8,
6,
5,
4,
5,
5,
5,
5,
5,
5,
5,
6,
6,
6,
6,
5,
6,
5,
6,
8,
7,
6,
8,
10,
10,
10,
10,
13,
14,
13,
14,
14,
15,
16,
14,
14,
14,
15,
15,
14,
14,
13,
13,
13,
13,
13,
12,
10,
10,
10,
12,
11,
8,
8,
10,
10,
9,
9,
8,
8,
6,
6,
6,
5,
4,
3,
1,
0,
0,
0,
-2,
0,
1,
2,
1,
2,
4,
6,
8,
9,
9,
10,
10,
12,
12,
12,
12,
12,
13,
14,
16,
15,
17,
17,
18,
20,
20,
20,
20,
20,
20,
20,
20,
18,
17,
18,
17,
16,
16,
16,
16,
14,
12,
10,
10,
9,
8,
6,
6,
5,
5,
4,
2,
1,
1,
2,
1,
-1,
0,
0,
1,
0,
0,
0,
0,
1,
3,
1,
-4,
2,
4,
1,
-2,
0,
1,
4,
4,
3,
4,
5,
8,
9,
9,
9,
10,
12,
14,
14,
16,
16,
17,
18,
20,
22,
21,
23,
23,
24,
26,
24,
24,
23,
24,
25,
24,
23,
24,
22,
22,
21,
21,
20,
19,
17,
16,
15,
14,
14,
12,
10,
12,
12,
8,
6,
8,
8,
4,
3,
4,
5,
5,
5,
4,
3,
2,
4,
3,
3,
4,
4,
4,
4,
2,
4,
3,
3,
2,
2,
4,
3,
4,
2,
2,
2,
2,
2,
1,
0,
1,
1,
1,
0,
0,
0,
1,
1,
1,
0,
1,
2,
3,
4,
4,
5,
7,
8,
8,
9,
10,
12,
14,
14,
15,
16,
17,
18,
19,
20,
21,
22,
22,
21,
21,
21,
22,
24,
22,
20,
21,
22,
21,
20,
20,
19,
18,
18,
17,
16,
15,
14,
12,
12,
14,
5,
4,
8,
6,
1,
-1,
-2,
0,
0,
-2,
-4,
-4,
-3,
-2,
-2,
-2,
-2,
-2,
0,
1,
3,
4,
6,
7,
8,
9,
11,
13,
14,
16,
18,
20,
22,
21,
21,
23,
24,
22,
23,
22,
22,
21,
20,
20,
20,
18,
16,
14,
14,
14,
14,
11,
9,
9,
10,
8,
6,
5,
4,
5,
5,
4,
2,
2,
1,
2,
2,
1,
2,
1,
2,
2,
3,
4,
4,
4,
5,
7,
8,
8,
8,
9,
11,
11,
11,
12,
13,
14,
13,
12,
13,
13,
14,
13,
13,
14,
14,
13,
12,
12,
12,
11,
10,
9,
10,
10,
10,
9,
9,
10,
9,
9,
8,
8,
6,
5,
7,
8,
9,
6,
6,
6,
6,
7,
6,
6,
5,
6,
6,
5,
5,
6,
5,
6,
4,
5,
4,
5,
5,
5,
5,
5,
6,
6,
8,
8,
2,
8,
10,
6,
4,
6,
7,
9,
9,
8,
8,
9,
11,
11,
12,
12,
12,
14,
14,
14,
14,
14,
14,
14,
14,
17,
21,
17,
15,
18,
20,
18,
17,
17,
20,
20,
21,
20,
18,
18,
18,
19,
20,
18,
18,
17,
16,
16,
14,
14,
14,
14,
13,
12,
12,
12,
10,
9,
8,
6,
6,
6,
5,
4,
3,
2,
1,
1,
0,
1,
0,
0,
-1,
-2,
-1,
-1,
0,
0,
-1,
0,
0,
0,
2,
2,
2,
2,
4,
5,
6,
5,
5,
6,
7,
8,
9,
8,
8,
9,
9,
10,
10,
9,
9,
11,
11,
13,
12,
14,
13,
12,
13,
14,
14,
14,
14,
14,
14,
14,
13,
12,
12,
12,
12,
11,
10,
10,
9,
8,
8,
6,
5,
6,
5,
4,
3,
3,
2,
3,
2,
4,
2,
2,
4,
4,
6,
0,
3,
8,
8,
4,
6,
8,
10,
10,
10,
10,
13,
16,
17,
17,
18,
18,
20,
20,
20,
20,
18,
18,
17,
14,
12,
11,
12,
10,
9,
8,
9,
10,
8,
8,
8,
9,
9,
9,
9,
9,
10,
10,
9,
9,
9,
9,
9,
8,
8,
8,
9,
10,
9,
10,
11,
13,
13,
13,
13,
14,
14,
16,
14,
14,
14,
13,
14,
14,
14,
14,
13,
14,
14,
14,
13,
13,
14,
12,
12,
11,
10,
9,
8,
8,
7,
6,
6,
4,
4,
3,
2,
2,
2,
2,
1,
2,
3,
4,
3,
3,
4,
6,
6,
6,
8,
8,
9,
9,
11,
12,
12,
12,
13,
14,
14,
14,
14,
15,
15,
14,
13,
15,
14,
13,
13,
13,
11,
12,
10,
10,
10,
10,
10,
10,
10,
9,
9,
10,
10,
10,
10,
10,
11,
13,
10,
3,
10,
12,
8,
5,
6,
7,
8,
8,
6,
5,
6,
6,
8,
8,
8,
8,
9,
10,
10,
10,
12,
12,
10,
12,
12,
12,
12,
12,
13,
14,
15,
13,
13,
13,
13,
13,
12,
11,
10,
10,
11,
9,
7,
6,
7,
6,
5,
4,
2,
2,
2,
2,
1,
0,
0,
0,
1,
0,
0,
1,
1,
2,
1,
1,
2,
2,
3,
4,
4,
4,
6,
8,
8,
9,
10,
12,
12,
13,
14,
14,
15,
16,
18,
18,
18,
18,
20,
21,
21,
20,
21,
22,
22,
21,
22,
22,
22,
22,
22,
22,
21,
21,
20,
20,
18,
19,
18,
17,
16,
16,
16,
14,
14,
13,
13,
12,
12,
10,
10,
9,
8,
7,
6,
8,
6,
5,
4,
2,
4,
3,
2,
2,
3,
2,
1,
1,
1,
2,
4,
4,
2,
4,
5,
8,
0,
1,
8,
9,
5,
4,
5,
6,
9,
9,
8,
8,
8,
10,
10,
10,
9,
10,
10,
10,
10,
10,
10,
10,
8,
9,
9,
8,
8,
8,
8,
9,
9,
8,
6,
8,
8,
7,
6,
6,
6,
7,
7,
7,
8,
9,
9,
12,
12,
12,
14,
13,
14,
16,
16,
16,
17,
18,
18,
18,
18,
17,
16,
15,
14,
14,
14,
12,
10,
8,
8,
7,
5,
4,
2,
2,
0,
0,
-2,
-3,
-3,
-3,
-3,
-3,
-3,
-3,
-3,
-1,
0,
1,
1,
2,
4,
4,
5,
7,
8,
9,
10,
12,
13,
14,
15,
16,
17,
17,
17,
18,
18,
18,
19,
20,
21,
21,
22,
22,
21,
20,
20,
20,
18,
18,
18,
18,
15,
14,
14,
16,
15,
12,
10,
11,
13,
11,
10,
8,
8,
9,
10,
9,
9,
8,
9,
11,
12,
11,
4,
12,
14,
12,
9,
9,
10,
10,
11,
10,
8,
7,
8,
8,
6,
5,
2,
4,
2,
0,
0,
-1,
-2,
-2,
-3,
-4,
-2,
-3,
-3,
-4,
-4,
-2,
0,
0,
1,
2,
4,
5,
6,
6,
8,
10,
11,
12,
11,
13,
15,
17,
16,
16,
18,
16,
18,
18,
17,
17,
17,
17,
17,
16,
15,
15,
15,
14,
12,
13,
12,
12,
11,
10,
9,
9,
8,
6,
6,
5,
5,
6,
5,
4,
4,
3,
4,
4,
5,
4,
4,
5,
5,
4,
6,
6,
7,
8,
8,
9,
10,
10,
10,
11,
12,
12,
14,
16,
13,
12,
16,
18,
16,
14,
16,
19,
20,
18,
16,
14,
13,
12,
12,
10,
9,
6,
4,
4,
3,
1,
0,
0,
0,
0,
0,
-2,
0,
0,
-1,
0,
1,
1,
3,
4,
5,
6,
6,
6,
10,
4,
4,
11,
10,
7,
8,
9,
10,
12,
12,
11,
12,
14,
16,
14,
14,
15,
16,
15,
14,
16,
16,
17,
16,
17,
17,
17,
17,
18,
18,
18,
20,
21,
20,
20,
21,
22,
22,
21,
20,
21,
22,
22,
20,
20,
20,
21,
20,
18,
18,
17,
17,
16,
16,
13,
12,
12,
10,
9,
7,
5,
4,
3,
1,
0,
-1,
