data/ALL0015/A0015CH2.CSV

Memory Length,4000,
Trigger Level,0.000E+00,
Source,CH2,
Probe,1X,
Vertical Units,V,
Vertical Scale,1.000E-02,
Vertical Position,0.000E+00,
Horizontal Units,s,
Horizontal Scale,1.000E-05,
Horizontal Position,4.000E-06,
Horizontal Mode,Main,
Sampling Period,4.000E-08,
Firmware,V1.13,
Time, ,
Mode,Fast,
Waveform Data,
-10,
-10,
41,
43,
44,
45,
48,
50,
50,
50,
50,
51,
52,
51,
49,
47,
48,
46,
41,
36,
34,
33,
32,
17,
19,
18,
13,
8,
4,
-1,
-2,
-3,
-6,
-10,
-12,
-14,
-15,
-15,
-17,
-19,
-20,
-20,
-20,
-19,
-19,
-19,
-19,
-18,
-16,
-15,
-14,
-12,
-10,
-7,
-4,
-4,
-2,
3,
5,
8,
12,
14,
17,
20,
22,
28,
30,
33,
37,
37,
37,
44,
50,
52,
52,
50,
53,
55,
56,
54,
53,
52,
50,
49,
48,
44,
42,
38,
37,
33,
29,
27,
25,
21,
17,
12,
13,
18,
17,
12,
6,
8,
11,
10,
8,
5,
4,
3,
1,
-2,
-4,
-6,
-8,
-11,
-15,
-18,
-19,
-21,
-22,
-24,
-27,
-28,
-30,
-31,
-32,
-32,
-33,
-33,
-32,
-31,
-31,
-30,
-29,
-29,
-28,
-26,
-25,
-24,
-23,
-23,
-22,
-20,
-18,
-17,
-16,
-15,
-14,
-12,
-11,
-8,
-7,
-5,
-2,
2,
1,
1,
4,
9,
13,
14,
16,
18,
22,
27,
30,
32,
34,
40,
38,
41,
48,
49,
48,
50,
52,
54,
57,
58,
58,
58,
58,
61,
60,
60,
59,
58,
59,
60,
58,
56,
56,
54,
52,
50,
49,
48,
44,
42,
40,
38,
34,
32,
28,
25,
21,
16,
14,
12,
9,
6,
2,
0,
0,
-2,
-4,
-6,
-7,
-8,
-9,
-10,
-11,
-11,
-12,
-12,
-14,
-14,
-14,
-14,
-15,
-16,
-16,
-16,
-16,
-16,
-16,
-16,
-15,
-16,
-15,
-16,
-15,
-13,
-12,
-12,
-11,
-11,
-9,
-8,
-8,
-8,
-7,
-6,
-4,
-3,
-2,
-3,
-2,
0,
1,
2,
2,
3,
4,
5,
5,
7,
9,
9,
10,
12,
13,
14,
16,
16,
17,
18,
20,
22,
24,
24,
26,
27,
30,
34,
28,
28,
31,
34,
34,
32,
32,
30,
31,
32,
31,
26,
22,
20,
21,
19,
15,
10,
7,
5,
2,
0,
-4,
-6,
-10,
-14,
-18,
-18,
-12,
-15,
-27,
-26,
-23,
-23,
-26,
-27,
-28,
-26,
-24,
-24,
-24,
-25,
-22,
-20,
-18,
-17,
-15,
-13,
-10,
-6,
-4,
-1,
4,
5,
9,
11,
14,
18,
22,
28,
30,
33,
35,
38,
42,
44,
45,
46,
48,
49,
50,
50,
50,
50,
50,
50,
49,
48,
46,
44,
42,
40,
37,
34,
32,
29,
26,
24,
20,
17,
15,
13,
12,
10,
8,
5,
4,
4,
3,
2,
0,
0,
0,
0,
0,
-1,
-2,
-2,
-3,
-4,
-6,
-7,
-8,
-10,
-10,
-11,
-13,
-14,
-15,
-16,
-18,
-19,
-21,
-22,
-24,
-24,
-26,
-28,
-29,
-28,
-30,
-30,
-30,
-29,
-27,
-25,
-23,
-21,
-18,
-14,
-12,
-8,
-4,
1,
7,
13,
16,
20,
26,
34,
41,
45,
48,
53,
60,
64,
66,
68,
72,
73,
76,
76,
77,
77,
76,
75,
74,
73,
71,
69,
67,
65,
62,
61,
62,
54,
54,
56,
54,
49,
46,
44,
44,
42,
37,
33,
29,
26,
22,
16,
10,
4,
0,
-5,
-9,
-16,
-22,
-28,
-32,
-36,
-42,
-45,
-48,
-51,
-53,
-54,
-55,
-56,
-58,
-56,
-55,
-55,
-53,
-50,
-50,
-50,
-48,
-43,
-39,
-37,
-36,
-35,
-31,
-28,
-26,
-24,
-24,
-20,
-16,
-14,
-12,
-10,
-6,
-3,
0,
2,
5,
9,
12,
15,
16,
17,
26,
34,
34,
33,
36,
42,
48,
49,
49,
50,
52,
54,
54,
54,
53,
53,
52,
52,
50,
47,
45,
42,
40,
38,
34,
30,
28,
24,
21,
18,
16,
14,
12,
10,
8,
7,
6,
5,
4,
2,
0,
1,
0,
0,
0,
0,
-3,
-6,
-6,
-6,
-8,
-11,
-13,
-16,
-18,
-20,
-23,
-26,
-28,
-31,
-33,
-36,
-38,
-40,
-42,
-42,
-41,
-40,
-38,
-36,
-32,
-29,
-26,
-21,
-15,
-8,
-1,
6,
12,
13,
26,
35,
38,
42,
49,
54,
62,
66,
68,
72,
72,
74,
77,
77,
77,
76,
76,
74,
73,
72,
69,
66,
63,
61,
58,
55,
52,
49,
46,
44,
41,
38,
34,
33,
30,
26,
22,
21,
17,
14,
11,
8,
3,
-1,
-4,
-6,
-10,
-14,
-18,
-21,
-24,
-28,
-31,
-34,
-38,
-42,
-44,
-46,
-48,
-51,
-53,
-54,
-55,
-55,
-55,
-56,
-57,
-56,
-55,
-54,
-53,
-52,
-51,
-48,
-46,
-43,
-41,
-38,
-35,
-32,
-30,
-28,
-24,
-21,
-17,
-14,
-10,
-5,
0,
4,
8,
14,
18,
24,
28,
33,
38,
44,
48,
54,
58,
60,
61,
65,
70,
77,
78,
73,
73,
79,
81,
81,
78,
77,
79,
80,
78,
78,
76,
76,
74,
73,
70,
70,
68,
66,
62,
58,
56,
53,
50,
45,
39,
34,
35,
35,
29,
20,
14,
13,
10,
6,
0,
-2,
-13,
-15,
-15,
-19,
-27,
-31,
-35,
-36,
-39,
-43,
-46,
-50,
-51,
-52,
-52,
-54,
-56,
-56,
-56,
-55,
-53,
-54,
-51,
-50,
-47,
-44,
-40,
-36,
-32,
-29,
-24,
-19,
-15,
-11,
-6,
-1,
3,
8,
11,
14,
18,
22,
26,
30,
35,
38,
41,
44,
46,
49,
52,
53,
54,
56,
58,
58,
60,
60,
60,
60,
59,
58,
57,
56,
54,
53,
50,
47,
45,
42,
40,
36,
32,
28,
25,
22,
17,
14,
11,
8,
3,
-2,
-5,
-8,
-11,
-15,
-18,
-21,
-24,
-27,
-28,
-32,
-34,
-36,
-36,
-36,
-39,
-42,
-44,
-40,
-40,
-43,
-42,
-40,
-36,
-35,
-34,
-33,
-30,
-27,
-22,
-20,
-19,
-15,
-11,
-7,
-4,
-1,
4,
6,
10,
13,
16,
19,
22,
24,
26,
28,
30,
32,
33,
34,
36,
36,
38,
38,
38,
39,
40,
40,
41,
40,
40,
40,
40,
37,
30,
34,
35,
31,
28,
26,
25,
27,
25,
22,
20,
19,
20,
20,
19,
18,
17,
16,
17,
17,
16,
15,
14,
14,
12,
12,
11,
11,
9,
9,
6,
1,
2,
4,
4,
1,
-2,
-4,
-2,
-2,
-4,
-6,
-7,
-6,
-6,
-8,
-8,
-10,
-11,
-12,
-14,
-15,
-17,
-17,
-18,
-20,
-24,
-24,
-18,
-15,
-20,
-24,
-24,
-20,
-17,
-18,
-19,
-17,
-13,
-9,
-6,
-3,
2,
6,
12,
17,
21,
26,
30,
36,
41,
45,
48,
52,
56,
59,
60,
64,
66,
65,
62,
62,
63,
61,
58,
52,
49,
46,
43,
38,
34,
28,
25,
21,
18,
15,
12,
10,
9,
8,
8,
8,
9,
10,
13,
14,
15,
18,
18,
21,
21,
21,
22,
22,
23,
21,
19,
16,
14,
12,
8,
4,
0,
-4,
-7,
-12,
-16,
-19,
-22,
-25,
-27,
-29,
-30,
-31,
-29,
-37,
-35,
-29,
-31,
-32,
-30,
-27,
-23,
-22,
-21,
-19,
-17,
-14,
-10,
-8,
-8,
-7,
-4,
-1,
0,
1,
3,
5,
6,
9,
10,
12,
12,
14,
17,
19,
21,
21,
22,
24,
26,
28,
29,
30,
30,
32,
32,
32,
32,
34,
33,
33,
34,
34,
34,
33,
33,
32,
31,
29,
28,
26,
24,
22,
20,
16,
13,
11,
8,
3,
-1,
-4,
-7,
-11,
-15,
-18,
-21,
-24,
-27,
-28,
-29,
-30,
-30,
-28,
-28,
-26,
-24,
-22,
-19,
-15,
-10,
-6,
-6,
-4,
1,
5,
7,
8,
8,
9,
11,
12,
16,
17,
11,
9,
13,
15,
16,
14,
14,
16,
18,
20,
21,
22,
25,
28,
30,
33,
35,
36,
37,
40,
42,
43,
44,
43,
44,
41,
38,
39,
46,
46,
40,
34,
34,
36,
35,
32,
28,
25,
24,
21,
18,
16,
12,
8,
6,
6,
0,
-8,
-4,
-4,
-11,
-16,
-18,
-18,
-17,
-20,
-23,
-23,
-24,
-23,
-20,
-18,
-19,
-19,
-17,
-13,
-12,
-12,
-11,
-11,
-9,
-7,
-6,
-8,
-7,
-6,
-6,
-6,
-6,
-8,
-8,
-7,
-7,
-7,
-7,
-6,
-5,
-3,
-2,
0,
2,
5,
8,
11,
14,
16,
18,
21,
24,
28,
29,
30,
32,
34,
37,
38,
40,
40,
40,
40,
41,
42,
41,
40,
40,
40,
40,
41,
38,
38,
36,
37,
37,
34,
30,
29,
30,
30,
29,
26,
24,
24,
23,
21,
19,
18,
16,
15,
13,
12,
10,
9,
8,
6,
5,
4,
3,
1,
0,
-2,
-2,
-3,
-3,
-6,
-7,
-6,
-7,
-8,
-10,
-11,
-11,
-11,
-11,
-11,
-13,
-12,
-12,
-12,
-12,
-11,
-10,
-9,
-8,
-8,
-6,
-4,
-3,
-1,
0,
1,
2,
4,
6,
9,
10,
12,
13,
14,
17,
20,
21,
26,
18,
24,
30,
32,
29,
31,
32,
34,
35,
34,
34,
32,
32,
33,
32,
31,
28,
26,
24,
25,
26,
15,
12,
12,
13,
10,
8,
4,
2,
4,
3,
2,
-1,
-2,
0,
-2,
-2,
-1,
-1,
-1,
-2,
0,
0,
0,
-1,
0,
-3,
-4,
-4,
1,
4,
-1,
-7,
-6,
-3,
0,
-3,
-6,
-6,
-6,
-5,
-5,
-6,
-6,
-4,
-4,
-3,
-1,
-1,
-2,
1,
4,
5,
4,
5,
8,
10,
12,
13,
13,
14,
15,
17,
18,
18,
18,
18,
19,
18,
18,
17,
16,
16,
16,
14,
13,
13,
12,
12,
12,
12,
12,
11,
12,
12,
13,
14,
14,
15,
15,
16,
16,
17,
17,
16,
16,
16,
16,
14,
15,
14,
13,
13,
12,
12,
10,
10,
10,
9,
8,
6,
6,
5,
6,
4,
2,
2,
0,
0,
0,
-1,
-3,
-4,
-4,
-3,
-7,
-14,
-8,
-9,
-12,
-14,
-14,
-14,
-12,
-11,
-11,
-10,
-9,
-6,
-4,
-2,
0,
1,
3,
6,
8,
10,
11,
13,
16,
18,
22,
26,
28,
31,
34,
37,
41,
43,
46,
48,
52,
53,
56,
58,
60,
60,
61,
60,
61,
59,
57,
54,
51,
48,
44,
40,
36,
32,
26,
23,
18,
14,
9,
5,
2,
-1,
-6,
-10,
-13,
-14,
-15,
-19,
-23,
-24,
-25,
-25,
-24,
-26,
-27,
-26,
-26,
-23,
-21,
-19,
-16,
-13,
-11,
-8,
-3,
1,
4,
8,
12,
13,
13,
18,
22,
26,
25,
25,
26,
27,
26,
25,
24,
22,
20,
20,
19,
16,
16,
14,
13,
10,
10,
9,
8,
8,
6,
3,
2,
9,
13,
11,
6,
6,
10,
14,
14,
11,
10,
11,
13,
13,
12,
11,
10,
9,
9,
9,
7,
6,
5,
4,
2,
2,
1,
0,
0,
2,
-8,
-4,
-1,
-3,
-7,
-8,
-8,
-6,
-5,
-7,
-8,
-10,
-10,
-8,
-10,
-11,
-11,
-10,
-8,
-8,
-8,
-8,
-7,
-4,
-2,
0,
4,
5,
9,
14,
16,
20,
22,
25,
28,
30,
30,
31,
32,
33,
33,
32,
30,
29,
28,
26,
23,
21,
18,
17,
16,
14,
12,
10,
8,
9,
8,
5,
5,
6,
5,
4,
4,
6,
7,
8,
8,
8,
10,
10,
10,
12,
12,
14,
15,
15,
16,
15,
16,
16,
16,
16,
14,
13,
14,
13,
12,
10,
9,
8,
6,
6,
5,
4,
4,
4,
2,
1,
1,
1,
2,
0,
-1,
0,
0,
-1,
-2,
0,
1,
2,
1,
2,
3,
4,
4,
5,
6,
6,
9,
9,
10,
10,
11,
13,
14,
16,
15,
16,
17,
17,
17,
17,
17,
18,
18,
18,
18,
17,
16,
16,
16,
14,
12,
12,
14,
8,
2,
8,
8,
3,
0,
-1,
0,
1,
5,
4,
-3,
-2,
3,
6,
5,
4,
4,
9,
13,
14,
14,
16,
17,
21,
23,
24,
25,
26,
27,
28,
29,
29,
29,
29,
29,
28,
23,
22,
26,
30,
25,
18,
16,
18,
20,
17,
16,
14,
9,
9,
9,
9,
8,
5,
2,
1,
2,
2,
0,
-2,
-3,
-4,
-3,
-2,
-3,
-4,
-5,
-3,
-2,
0,
0,
0,
2,
4,
5,
8,
9,
11,
12,
13,
15,
16,
17,
19,
19,
20,
21,
22,
22,
24,
24,
24,
24,
24,
24,
23,
23,
23,
22,
21,
20,
20,
18,
17,
15,
14,
12,
10,
8,
6,
4,
1,
0,
-2,
-3,
-6,
-8,
-10,
-10,
-10,
-11,
-11,
-11,
-10,
-10,
-8,
-8,
-7,
-5,
-4,
-2,
0,
1,
2,
3,
5,
6,
9,
8,
10,
12,
13,
14,
16,
18,
10,
16,
21,
20,
16,
16,
18,
21,
21,
20,
19,
19,
20,
21,
22,
22,
21,
21,
22,
24,
24,
24,
25,
24,
26,
27,
27,
27,
26,
26,
27,
27,
26,
24,
22,
22,
19,
17,
14,
11,
8,
4,
-1,
-1,
-2,
-6,
-12,
-14,
-14,
-14,
-16,
-18,
-20,
-19,
-16,
-16,
-16,
-16,
-14,
-11,
-10,
-8,
-8,
-6,
-4,
-4,
-2,
-2,
-1,
-1,
0,
0,
0,
0,
0,
0,
0,
2,
-2,
-3,
-1,
2,
2,
1,
1,
2,
3,
5,
6,
6,
8,
9,
11,
13,
14,
14,
14,
15,
17,
17,
16,
16,
17,
16,
14,
10,
13,
19,
20,
14,
12,
15,
17,
18,
17,
16,
15,
18,
17,
17,
17,
17,
17,
17,
19,
20,
19,
18,
20,
21,
23,
24,
26,
26,
29,
29,
32,
35,
37,
38,
40,
41,
42,
44,
48,
43,
38,
44,
42,
38,
35,
33,
31,
31,
26,
21,
18,
16,
13,
9,
5,
2,
-2,
-4,
-7,
-10,
-12,
-15,
-16,
-18,
-20,
-20,
-21,
-22,
-23,
-23,
-23,
-23,
-22,
-19,
-20,
-22,
-20,
-16,
-12,
-11,
-11,
-11,
-8,
-3,
0,
2,
4,
8,
12,
16,
18,
21,
24,
28,
31,
32,
34,
36,
37,
37,
37,
36,
35,
34,
32,
32,
30,
28,
27,
24,
22,
20,
18,
16,
14,
14,
12,
12,
11,
10,
9,
9,
10,
10,
10,
10,
9,
10,
10,
11,
10,
8,
8,
9,
7,
6,
3,
2,
0,
-2,
-4,
-6,
-8,
-10,
-12,
-14,
-16,
-18,
-20,
-20,
-20,
-22,
-22,
-20,
-19,
-18,
-17,
-15,
-12,
-10,
-8,
-6,
-3,
0,
2,
4,
7,
10,
12,
13,
14,
16,
17,
19,
21,
22,
22,
24,
25,
27,
28,
28,
28,
33,
36,
22,
29,
36,
36,
32,
30,
28,
30,
30,
27,
24,
20,
19,
18,
16,
12,
9,
6,
3,
1,
-2,
-3,
-5,
-6,
-8,
-10,
-12,
-8,
-1,
1,
-1,
0,
1,
7,
12,
15,
17,
18,
21,
24,
27,
28,
28,
29,
29,
29,
29,
27,
24,
24,
21,
18,
15,
13,
9,
5,
2,
-1,
-4,
-6,
-8,
-11,
-14,
-15,
-16,
-19,
-20,
-21,
-20,
-20,
-21,
-20,
-19,
-19,
-17,
-15,
-12,
-11,
-8,
-6,
-3,
-2,
0,
2,
6,
9,
11,
13,
15,
17,
21,
22,
24,
27,
29,
31,
33,
34,
35,
36,
38,
38,
40,
40,
39,
38,
40,
38,
36,
35,
34,
33,
32,
30,
28,
26,
25,
23,
20,
18,
17,
14,
13,
12,
11,
10,
8,
6,
6,
6,
6,
5,
5,
4,
3,
4,
4,
3,
2,
2,
0,
0,
0,
0,
1,
-6,
-8,
-1,
-2,
-5,
-6,
-6,
-4,
-2,
-2,
-2,
-2,
1,
2,
4,
4,
5,
6,
7,
9,
12,
12,
8,
8,
12,
14,
13,
11,
11,
12,
13,
14,
12,
12,
12,
14,
15,
16,
16,
17,
18,
20,
20,
21,
22,
22,
24,
22,
23,
23,
22,
21,
20,
19,
17,
15,
14,
12,
10,
8,
8,
5,
4,
2,
2,
0,
-6,
-5,
-3,
-2,
-4,
-6,
-8,
-6,
-4,
-5,
-6,
-6,
-6,
-4,
-4,
-3,
-3,
-2,
-1,
1,
1,
1,
2,
3,
4,
3,
1,
4,
13,
16,
12,
10,
13,
18,
22,
22,
22,
24,
28,
30,
31,
30,
32,
34,
35,
36,
36,
35,
36,
38,
37,
36,
35,
36,
36,
35,
34,
34,
34,
34,
33,
33,
32,
31,
30,
27,
26,
24,
21,
18,
16,
12,
9,
6,
3,
-1,
-4,
-6,
-9,
-12,
-23,
-20,
-20,
-23,
-28,
-30,
-31,
-30,
-30,
-31,
-32,
-32,
-28,
-28,
-27,
-24,
-23,
-22,
-20,
-18,
-16,
-13,
-12,
-10,
-8,
-6,
-3,
0,
1,
2,
5,
6,
8,
8,
11,
12,
12,
12,
14,
14,
14,
14,
14,
15,
15,
16,
17,
18,
17,
18,
18,
18,
19,
20,
20,
20,
21,
22,
22,
25,
26,
26,
27,
28,
30,
31,
31,
32,
32,
32,
33,
32,
31,
32,
30,
29,
28,
26,
25,
24,
22,
21,
19,
18,
17,
18,
16,
15,
15,
16,
16,
17,
18,
19,
20,
20,
21,
22,
23,
22,
22,
20,
21,
20,
20,
19,
17,
16,
14,
14,
12,
11,
8,
6,
5,
4,
2,
1,
0,
-1,
-1,
-2,
-2,
-2,
-2,
-2,
-2,
-2,
-2,
1,
0,
-4,
-4,
-2,
0,
-3,
-6,
-8,
-8,
-8,
-9,
-11,
-13,
-14,
-12,
-20,
-20,
-15,
-15,
-18,
-18,
-17,
-10,
-5,
-7,
-8,
-4,
0,
5,
13,
19,
18,
20,
26,
34,
40,
42,
42,
45,
49,
53,
54,
54,
55,
56,
56,
55,
52,
49,
48,
45,
41,
38,
34,
29,
24,
19,
15,
10,
6,
1,
-2,
-7,
-10,
-13,
-15,
-18,
-20,
-21,
-21,
-22,
-22,
-21,
-20,
-19,
-18,
-16,
-14,
-12,
-10,
-8,
-6,
-4,
-3,
-2,
1,
1,
2,
3,
4,
4,
4,
5,
4,
5,
5,
6,
7,
6,
6,
7,
8,
8,
9,
10,
9,
10,
10,
11,
12,
14,
14,
14,
15,
17,
18,
20,
20,
22,
24,
26,
26,
28,
28,
29,
30,
30,
30,
30,
30,
30,
29,
27,
26,
25,
24,
22,
19,
17,
16,
14,
12,
10,
10,
9,
8,
5,
4,
4,
4,
2,
2,
1,
1,
1,
2,
2,
1,
2,
5,
5,
-1,
6,
10,
9,
6,
5,
8,
13,
13,
10,
9,
10,
10,
10,
9,
6,
5,
4,
2,
1,
-2,
-4,
-8,
-9,
-11,
-12,
-13,
-15,
-16,
-16,
-16,
-16,
-16,
-16,
-15,
-14,
-14,
-12,
-10,
-8,
-6,
-6,
-4,
-2,
1,
2,
4,
6,
8,
14,
13,
12,
16,
21,
24,
25,
26,
28,
30,
34,
37,
38,
41,
42,
46,
48,
48,
51,
53,
53,
53,
53,
52,
52,
51,
49,
45,
41,
37,
41,
40,
32,
22,
20,
20,
19,
15,
10,
6,
5,
5,
2,
1,
1,
2,
3,
2,
2,
4,
5,
6,
8,
8,
8,
9,
9,
9,
8,
6,
5,
2,
0,
-2,
-6,
-8,
-11,
-15,
-18,
-21,
-22,
-25,
-28,
-28,
-29,
-31,
-31,
-31,
-30,
-29,
-27,
-24,
-23,
-22,
-19,
-15,
-12,
-11,
-7,
-2,
0,
0,
2,
9,
14,
17,
10,
13,
20,
24,
21,
22,
22,
26,
28,
29,
29,
28,
30,
33,
34,
34,
34,
34,
34,
34,
35,
34,
34,
34,
33,
33,
33,
30,
29,
29,
28,
27,
24,
20,
18,
18,
14,
12,
10,
8,
5,
5,
3,
2,
0,
0,
-2,
-2,
-3,
-4,
-4,
-4,
-4,
-4,
-4,
-2,
-1,
0,
0,
1,
2,
4,
5,
6,
8,
9,
11,
12,
14,
16,
17,
18,
20,
21,
23,
25,
26,
24,
25,
24,
25,
22,
20,
20,
18,
16,
14,
12,
10,
10,
8,
7,
5,
4,
3,
2,
2,
2,
2,
1,
1,
1,
1,
2,
2,
1,
1,
1,
0,
0,
-1,
-2,
-3,
-3,
0,
-2,
-6,
-10,
-8,
-4,
-4,
-5,
-6,
-6,
-3,
0,
-1,
-1,
0,
3,
6,
5,
5,
8,
12,
13,
12,
12,
16,
18,
20,
18,
16,
14,
18,
25,
20,
21,
18,
16,
17,
18,
17,
17,
16,
14,
13,
13,
13,
14,
13,
13,
13,
14,
16,
18,
18,
17,
18,
19,
20,
20,
19,
18,
18,
18,
18,
18,
16,
15,
15,
14,
12,
11,
10,
10,
9,
9,
9,
9,
10,
10,
12,
13,
14,
16,
17,
18,
21,
22,
24,
24,
27,
28,
28,
28,
30,
29,
28,
30,
29,
28,
26,
24,
24,
22,
20,
19,
18,
15,
13,
11,
10,
8,
6,
5,
3,
2,
0,
-1,
0,
-2,
-4,
-4,
-6,
-6,
-6,
-8,
-10,
-10,
-11,
-11,
-12,
-12,
-12,
-12,
-13,
-14,
-15,
-14,
-16,
-16,
-16,
-18,
-19,
-19,
-19,
-20,
-20,
-20,
-19,
-19,
-20,
-19,
-18,
-16,
-15,
-13,
-8,
-3,
-2,
-2,
3,
10,
16,
19,
21,
26,
31,
36,
39,
42,
43,
45,
49,
50,
51,
50,
52,
54,
56,
46,
48,
51,
49,
44,
43,
41,
40,
40,
36,
33,
30,
28,
26,
24,
21,
18,
16,
13,
9,
8,
5,
2,
0,
-3,
-4,
-6,
-8,
-10,
-11,
-11,
-11,
-12,
-13,
-8,
-12,
-14,
-15,
-11,
-9,
-10,
-13,
-13,
-12,
-10,
-10,
-11,
-11,
-9,
-9,
-8,
-8,
-8,
-8,
-6,
-3,
-3,
-4,
-2,
1,
2,
2,
0,
0,
5,
12,
11,
6,
6,
10,
16,
15,
13,
13,
14,
15,
16,
15,
16,
16,
16,
16,
15,
14,
14,
13,
12,
12,
11,
11,
10,
9,
9,
9,
10,
11,
11,
11,
14,
17,
20,
22,
24,
27,
30,
33,
36,
37,
39,
40,
41,
41,
41,
41,
38,
37,
36,
30,
26,
23,
20,
12,
6,
4,
1,
-3,
-7,
-11,
-14,
-15,
-17,
-18,
-19,
-20,
-19,
-18,
-17,
-16,
-14,
-12,
-11,
-8,
-8,
-6,
0,
-4,
-6,
0,
1,
-2,
-2,
-2,
0,
1,
0,
-1,
-2,
1,
1,
2,
2,
2,
2,
4,
6,
8,
9,
12,
13,
16,
17,
21,
24,
27,
30,
34,
38,
42,
44,
48,
51,
54,
57,
60,
62,
64,
65,
67,
68,
67,
68,
67,
65,
62,
58,
56,
51,
46,
41,
35,
30,
23,
17,
11,
4,
-2,
-6,
-11,
-16,
-20,
-24,
-28,
-30,
-34,
-35,
-36,
-36,
-38,
-38,
-37,
-37,
-37,
-35,
-34,
-32,
-32,
-32,
-31,
-30,
-29,
-28,
-28,
-28,
-27,
-25,
-24,
-24,
-23,
-23,
-21,
-19,
-17,
-16,
-15,
-8,
-7,
-7,
-4,
0,
6,
9,
10,
12,
16,
23,
29,
27,
27,
32,
38,
42,
44,
44,
46,
49,
52,
52,
53,
53,
56,
57,
55,
52,
50,
53,
59,
58,
52,
47,
49,
50,
49,
45,
41,
40,
38,
36,
33,
28,
26,
26,
12,
15,
14,
8,
2,
-2,
-4,
-6,
-8,
-14,
-17,
-20,
-22,
-24,
-26,
-27,
-29,
-30,
-30,
-29,
-28,
-28,
-26,
-23,
-22,
-18,
-16,
-15,
-11,
-9,
-8,
-5,
-4,
-3,
-1,
0,
0,
0,
0,
1,
1,
1,
1,
1,
1,
2,
3,
4,
5,
6,
8,
10,
11,
13,
15,
17,
18,
20,
22,
24,
24,
25,
25,
26,
26,
26,
26,
27,
26,
25,
23,
25,
24,
22,
21,
20,
20,
20,
18,
18,
18,
17,
16,
14,
14,
15,
14,
14,
13,
12,
13,
12,
12,
11,
10,
10,
10,
9,
9,
8,
8,
8,
8,
6,
5,
7,
6,
5,
1,
0,
0,
1,
0,
-1,
-2,
0,
-2,
0,
0,
0,
0,
1,
1,
2,
3,
4,
4,
3,
4,
4,
4,
5,
5,
5,
5,
6,
6,
7,
8,
8,
9,
11,
12,
12,
16,
12,
13,
21,
24,
22,
24,
26,
29,
33,
34,
34,
36,
40,
42,
44,
45,
46,
46,
50,
50,
46,
45,
47,
46,
44,
41,
38,
37,
35,
32,
30,
27,
23,
20,
17,
15,
10,
7,
5,
1,
0,
-3,
-6,
-9,
-11,
-14,
-18,
-23,
-23,
-19,
-19,
-26,
-29,
-30,
-27,
-27,
-30,
-31,
-31,
-31,
-29,
-30,
-30,
-29,
-27,
-27,
-27,
-26,
-24,
-23,
-21,
-20,
-20,
-19,
-16,
-15,
-14,
-14,
-14,
-14,
-12,
-12,
-11,
-10,
-8,
-7,
-6,
-2,
0,
4,
8,
12,
16,
20,
26,
33,
42,
49,
49,
52,
60,
68,
72,
73,
77,
81,
83,
85,
85,
86,
86,
85,
82,
80,
78,
74,
70,
66,
61,
56,
51,
46,
41,
34,
28,
22,
18,
13,
8,
4,
0,
-3,
-6,
-9,
-12,
-14,
-16,
-18,
-20,
-22,
-22,
-24,
-26,
-27,
-27,
-30,
-38,
-34,
-33,
-38,
-43,
-44,
-46,
-44,
-45,
-47,
-48,
-48,
-47,
-47,
-46,
-44,
-44,
-43,
-41,
-38,
-34,
-32,
-30,
-28,
-24,
-20,
-16,
-12,
-10,
-6,
-2,
4,
6,
9,
13,
17,
21,
23,
26,
29,
32,
33,
34,
36,
37,
37,
37,
39,
37,
38,
37,
36,
37,
36,
36,
36,
36,
36,
37,
38,
39,
38,
38,
38,
41,
41,
42,
41,
42,
42,
42,
42,
42,
42,
41,
41,
40,
38,
36,
34,
33,
31,
30,
24,
19,
18,
18,
16,
13,
6,
1,
0,
-2,
-6,
-12,
-17,
-20,
-22,
-24,
-28,
-33,
-36,
-37,
-38,
-38,
-38,
-38,
-38,
-36,
-34,
-34,
-32,
-26,
-16,
-12,
-11,
-8,
1,
9,
14,
18,
22,
28,
33,
39,
44,
46,
48,
49,
53,
55,
55,
54,
54,
54,
53,
51,
48,
47,
44,
40,
36,
34,
32,
30,
18,
16,
17,
13,
6,
3,
0,
-1,
-2,
-5,
-8,
-11,
-10,
-10,
-10,
-10,
-11,
-10,
-10,
-9,
-7,
-6,
-6,
-4,
-2,
-1,
0,
1,
2,
3,
5,
6,
6,
4,
5,
5,
5,
3,
4,
3,
2,
0,
-1,
-2,
-2,
-4,
-6,
-6,
-8,
-8,
