data/ALL0014/A0014CH2.CSV

Memory Length,4000,
Trigger Level,0.000E+00,
Source,CH2,
Probe,1X,
Vertical Units,V,
Vertical Scale,1.000E-02,
Vertical Position,0.000E+00,
Horizontal Units,s,
Horizontal Scale,1.000E-05,
Horizontal Position,4.000E-06,
Horizontal Mode,Main,
Sampling Period,4.000E-08,
Firmware,V1.13,
Time, ,
Mode,Fast,
Waveform Data,
-6,
-6,
0,
0,
1,
1,
2,
2,
4,
4,
6,
8,
7,
8,
8,
10,
11,
12,
12,
12,
12,
13,
14,
14,
14,
14,
15,
16,
15,
15,
14,
15,
15,
14,
13,
13,
12,
11,
9,
8,
6,
5,
4,
2,
2,
1,
0,
0,
0,
0,
1,
5,
-1,
-10,
-6,
4,
4,
-2,
-4,
-2,
4,
8,
8,
8,
10,
14,
18,
21,
22,
26,
29,
33,
37,
40,
41,
42,
44,
52,
55,
53,
49,
50,
53,
54,
52,
48,
45,
44,
43,
40,
37,
33,
30,
27,
24,
20,
16,
12,
10,
6,
4,
2,
0,
-4,
-6,
-8,
-10,
-12,
-14,
-16,
-18,
-19,
-20,
-23,
-26,
-27,
-27,
-27,
-23,
-23,
-31,
-34,
-28,
-26,
-29,
-32,
-30,
-27,
-24,
-24,
-24,
-23,
-21,
-18,
-15,
-12,
-10,
-8,
-6,
-2,
0,
2,
5,
7,
9,
12,
14,
16,
17,
18,
20,
23,
23,
24,
26,
27,
28,
30,
30,
30,
30,
32,
31,
31,
31,
31,
30,
30,
30,
28,
28,
28,
27,
26,
24,
24,
24,
24,
23,
22,
22,
23,
22,
24,
24,
22,
22,
23,
22,
21,
22,
20,
20,
18,
16,
16,
15,
14,
11,
1,
6,
6,
2,
-3,
-4,
-6,
-6,
-7,
-10,
-11,
-11,
-11,
-11,
-11,
-11,
-11,
-10,
-8,
-7,
-6,
-5,
-4,
-2,
-2,
1,
4,
5,
5,
6,
9,
11,
12,
13,
14,
16,
17,
18,
19,
20,
21,
22,
21,
20,
21,
24,
24,
22,
21,
22,
25,
28,
21,
18,
20,
23,
24,
20,
20,
20,
21,
22,
20,
20,
18,
18,
18,
16,
15,
13,
12,
12,
12,
9,
6,
4,
6,
12,
14,
9,
6,
7,
12,
13,
13,
12,
12,
13,
14,
13,
12,
12,
13,
12,
12,
11,
9,
8,
7,
7,
6,
4,
4,
5,
4,
2,
2,
2,
2,
2,
1,
1,
1,
1,
0,
0,
0,
0,
0,
-1,
-1,
0,
-1,
-2,
-2,
-2,
-3,
-2,
-2,
-2,
-2,
-2,
0,
0,
0,
1,
2,
2,
3,
4,
4,
5,
8,
9,
12,
5,
8,
12,
11,
8,
8,
8,
9,
11,
9,
9,
8,
8,
10,
9,
9,
9,
9,
9,
9,
10,
16,
20,
11,
8,
11,
16,
13,
10,
10,
11,
13,
13,
10,
8,
8,
8,
9,
9,
8,
9,
9,
9,
10,
12,
13,
15,
16,
18,
20,
23,
25,
25,
28,
30,
31,
32,
33,
33,
33,
32,
32,
32,
30,
28,
25,
22,
20,
18,
14,
11,
9,
8,
8,
6,
4,
4,
4,
5,
6,
8,
9,
11,
13,
16,
17,
20,
22,
24,
24,
24,
24,
24,
22,
22,
20,
18,
16,
14,
13,
10,
8,
6,
3,
2,
-3,
-7,
-6,
-4,
-6,
-9,
-12,
-14,
-14,
-14,
-16,
-19,
-21,
-20,
-20,
-22,
-23,
-22,
-22,
-21,
-20,
-21,
-20,
-20,
-18,
-12,
-4,
-2,
-3,
0,
5,
12,
16,
18,
21,
26,
32,
35,
37,
42,
44,
38,
44,
46,
45,
44,
42,
40,
42,
40,
36,
34,
32,
30,
28,
25,
22,
20,
17,
16,
14,
11,
9,
8,
8,
6,
4,
4,
3,
2,
1,
2,
2,
2,
0,
1,
2,
1,
1,
1,
2,
1,
1,
0,
1,
1,
0,
0,
1,
0,
0,
0,
0,
1,
1,
0,
0,
0,
0,
0,
0,
0,
0,
0,
1,
1,
0,
0,
1,
2,
2,
1,
1,
2,
2,
4,
4,
5,
5,
6,
8,
8,
8,
9,
9,
10,
10,
11,
12,
14,
15,
16,
17,
18,
21,
22,
22,
24,
26,
24,
25,
26,
26,
24,
22,
21,
20,
20,
18,
18,
17,
15,
14,
15,
15,
14,
14,
14,
14,
17,
22,
27,
22,
18,
24,
32,
34,
32,
31,
34,
36,
37,
37,
36,
36,
37,
36,
35,
33,
32,
32,
28,
26,
22,
21,
21,
11,
9,
10,
8,
0,
-3,
-6,
-7,
-6,
-11,
-15,
-14,
-14,
-17,
-20,
-19,
-19,
-20,
-22,
-22,
-22,
-21,
-21,
-21,
-21,
-20,
-17,
-16,
-15,
-12,
-11,
-7,
-6,
-4,
0,
0,
-1,
1,
9,
14,
12,
10,
12,
16,
18,
17,
16,
16,
16,
16,
16,
14,
13,
12,
13,
12,
10,
9,
9,
9,
8,
6,
5,
6,
6,
6,
6,
5,
5,
8,
6,
8,
8,
9,
10,
10,
11,
10,
12,
13,
13,
14,
15,
16,
16,
17,
18,
19,
19,
18,
20,
20,
21,
21,
19,
18,
19,
18,
18,
19,
17,
14,
14,
16,
14,
10,
9,
10,
12,
10,
10,
8,
8,
9,
9,
10,
9,
9,
10,
10,
10,
9,
9,
9,
9,
8,
6,
6,
6,
5,
5,
6,
6,
6,
6,
6,
8,
9,
10,
11,
11,
12,
14,
16,
18,
18,
12,
18,
21,
19,
17,
16,
16,
17,
16,
14,
11,
10,
10,
11,
9,
8,
8,
6,
8,
8,
8,
8,
10,
10,
11,
12,
16,
17,
18,
19,
22,
24,
25,
24,
25,
26,
26,
26,
26,
25,
24,
23,
22,
21,
19,
18,
16,
15,
15,
14,
12,
9,
8,
8,
6,
6,
5,
5,
5,
5,
5,
5,
6,
8,
10,
5,
3,
5,
9,
9,
6,
4,
4,
4,
3,
2,
1,
4,
2,
-7,
-7,
-3,
-2,
-7,
-12,
-12,
-12,
-13,
-16,
-20,
-16,
-11,
-13,
-16,
-16,
-12,
-9,
-8,
-9,
-6,
-4,
-2,
1,
2,
5,
8,
10,
12,
14,
16,
18,
19,
20,
22,
24,
24,
24,
26,
27,
27,
26,
28,
28,
28,
28,
28,
27,
28,
28,
26,
27,
25,
22,
22,
21,
19,
16,
15,
14,
12,
9,
5,
2,
1,
1,
-8,
-9,
-7,
-9,
-13,
-13,
-13,
-11,
-7,
-6,
-4,
0,
5,
10,
15,
19,
24,
30,
36,
41,
45,
50,
53,
58,
60,
62,
64,
65,
64,
62,
61,
61,
56,
52,
49,
44,
38,
32,
26,
20,
14,
6,
0,
-6,
-12,
-18,
-23,
-28,
-32,
-37,
-40,
-43,
-43,
-43,
-44,
-44,
-43,
-42,
-39,
-37,
-34,
-32,
-29,
-26,
-24,
-20,
-18,
-16,
-16,
-15,
-12,
-11,
-11,
-12,
-11,
-11,
-10,
-9,
-8,
-6,
-4,
-3,
-1,
2,
5,
9,
13,
16,
20,
26,
32,
36,
41,
46,
50,
55,
58,
62,
64,
66,
68,
68,
68,
68,
67,
65,
61,
60,
56,
52,
48,
42,
38,
34,
29,
23,
24,
18,
9,
3,
1,
0,
-4,
-8,
-12,
-14,
-17,
-19,
-20,
-23,
-24,
-24,
-25,
-26,
-26,
-26,
-26,
-24,
-24,
-23,
-23,
-24,
-24,
-18,
-12,
-14,
-21,
-15,
-9,
-7,
-8,
-8,
-6,
-2,
0,
0,
0,
1,
5,
6,
7,
8,
9,
12,
13,
13,
13,
15,
16,
18,
18,
18,
19,
21,
22,
23,
22,
24,
24,
28,
32,
26,
18,
23,
28,
27,
22,
20,
21,
24,
25,
22,
22,
22,
24,
24,
25,
24,
25,
24,
26,
26,
26,
26,
26,
25,
24,
24,
23,
21,
20,
17,
15,
13,
10,
9,
5,
2,
-1,
-3,
-5,
-8,
-10,
-12,
-14,
-15,
-15,
-15,
-15,
-14,
-11,
-9,
-7,
-4,
0,
4,
8,
11,
14,
18,
22,
24,
28,
29,
31,
33,
32,
33,
33,
33,
32,
30,
28,
28,
25,
22,
19,
16,
14,
13,
10,
8,
4,
3,
2,
2,
0,
-2,
-2,
-2,
-2,
-2,
-2,
-2,
-2,
-1,
0,
0,
2,
2,
4,
5,
6,
6,
9,
9,
10,
10,
10,
12,
15,
8,
10,
14,
14,
11,
9,
9,
10,
11,
9,
6,
6,
5,
6,
6,
4,
2,
2,
3,
3,
1,
0,
0,
2,
1,
-4,
-3,
-1,
0,
-2,
-4,
-4,
-3,
-4,
-4,
-4,
-5,
-5,
-5,
-6,
-6,
-6,
-7,
-7,
-6,
-7,
-6,
-7,
-8,
-8,
-2,
2,
-1,
-4,
-3,
2,
5,
5,
5,
6,
10,
11,
13,
14,
16,
17,
19,
20,
22,
24,
26,
27,
29,
30,
32,
34,
35,
36,
38,
40,
41,
42,
42,
44,
45,
45,
45,
45,
44,
45,
44,
42,
41,
40,
38,
36,
32,
29,
26,
22,
19,
15,
12,
10,
8,
6,
4,
4,
4,
3,
4,
4,
5,
5,
6,
8,
9,
9,
9,
10,
10,
9,
9,
6,
6,
5,
2,
-1,
-3,
-5,
-8,
-10,
-14,
-15,
-13,
-11,
-18,
-24,
-21,
-17,
-17,
-20,
-21,
-18,
-13,
-13,
-19,
-13,
-9,
-9,
-8,
-6,
-4,
1,
4,
4,
5,
8,
12,
14,
16,
17,
18,
20,
22,
24,
25,
25,
26,
27,
28,
29,
30,
30,
30,
30,
31,
31,
30,
27,
28,
28,
26,
23,
22,
20,
18,
16,
14,
12,
10,
6,
5,
2,
2,
1,
-1,
-3,
-3,
-4,
-4,
-6,
-7,
-7,
-7,
-6,
-8,
-7,
-7,
-7,
-6,
-7,
-7,
-5,
-5,
-4,
-4,
-4,
-4,
-3,
-2,
4,
-2,
-4,
-1,
2,
1,
0,
0,
2,
3,
4,
5,
6,
7,
8,
10,
12,
12,
16,
18,
18,
22,
26,
28,
29,
29,
34,
42,
46,
43,
44,
46,
50,
52,
50,
48,
48,
47,
45,
43,
40,
36,
33,
31,
28,
22,
19,
16,
14,
12,
9,
8,
7,
8,
8,
8,
9,
11,
13,
15,
16,
18,
20,
22,
24,
24,
24,
24,
24,
26,
16,
14,
17,
14,
6,
2,
-2,
-4,
-6,
-11,
-17,
-22,
-25,
-27,
-30,
-33,
-36,
-38,
-40,
-42,
-42,
-44,
-45,
-44,
-44,
-42,
-41,
-38,
-35,
-33,
-30,
-26,
-22,
-19,
-16,
-11,
-7,
-3,
1,
5,
9,
12,
15,
19,
24,
28,
30,
34,
37,
41,
44,
47,
48,
51,
52,
54,
56,
56,
54,
54,
54,
52,
51,
48,
46,
44,
41,
38,
35,
33,
30,
28,
24,
21,
18,
16,
13,
12,
10,
8,
4,
3,
1,
1,
0,
-2,
-4,
-6,
-4,
-1,
-4,
-12,
-11,
-6,
-6,
-10,
-12,
-11,
-10,
-9,
-10,
-11,
-12,
-11,
-11,
-10,
-10,
-11,
-10,
-9,
-8,
-8,
-8,
-7,
-5,
-4,
-3,
-3,
-2,
0,
0,
1,
2,
3,
4,
4,
5,
8,
5,
5,
8,
12,
12,
11,
11,
12,
13,
14,
14,
16,
17,
18,
20,
22,
26,
26,
21,
30,
33,
31,
30,
29,
28,
29,
36,
38,
34,
29,
32,
35,
36,
34,
31,
30,
30,
30,
29,
28,
25,
23,
23,
21,
19,
17,
16,
14,
12,
9,
5,
2,
-1,
-3,
-7,
-10,
-12,
-15,
-16,
-18,
-20,
-22,
-22,
-20,
-21,
-19,
-19,
-16,
-12,
-10,
-6,
-2,
3,
8,
13,
16,
21,
24,
28,
32,
34,
36,
38,
39,
39,
40,
39,
38,
36,
34,
32,
30,
28,
25,
22,
19,
16,
15,
13,
12,
9,
8,
8,
7,
6,
6,
5,
6,
7,
9,
9,
9,
10,
12,
12,
13,
14,
14,
14,
15,
16,
14,
14,
13,
12,
12,
10,
9,
6,
4,
3,
1,
-2,
-4,
-6,
-7,
-8,
-9,
-10,
-12,
-15,
-15,
-15,
-16,
-17,
-18,
-19,
-18,
-18,
-19,
-20,
-19,
-18,
-19,
-19,
-19,
-18,
-18,
-19,
-18,
-16,
-16,
-12,
-18,
-17,
-10,
-10,
-12,
-11,
-8,
-5,
-1,
1,
1,
4,
8,
14,
16,
18,
22,
26,
29,
33,
36,
37,
40,
42,
46,
46,
48,
49,
51,
52,
52,
53,
53,
53,
46,
45,
46,
46,
44,
40,
37,
34,
33,
34,
34,
31,
21,
22,
26,
27,
24,
19,
21,
24,
24,
23,
22,
20,
19,
18,
22,
26,
21,
16,
15,
17,
16,
13,
9,
6,
4,
1,
-2,
-5,
-8,
-12,
-15,
-17,
-20,
-23,
-25,
-27,
-28,
-30,
-30,
-31,
-31,
-30,
-28,
-27,
-26,
-26,
-22,
-20,
-17,
-15,
-12,
-10,
-6,
-3,
-2,
1,
2,
4,
5,
7,
8,
9,
10,
12,
14,
14,
13,
14,
15,
16,
14,
14,
14,
15,
16,
16,
15,
14,
14,
15,
15,
14,
14,
16,
16,
16,
15,
16,
18,
18,
19,
18,
19,
21,
21,
23,
23,
24,
28,
28,
19,
27,
30,
28,
26,
25,
25,
26,
26,
23,
20,
18,
18,
18,
16,
12,
10,
9,
6,
5,
3,
0,
-2,
-3,
-6,
-8,
-10,
-10,
-11,
-12,
-11,
-11,
-12,
-12,
-10,
-8,
-7,
-6,
-4,
-3,
0,
1,
4,
5,
9,
10,
13,
15,
18,
20,
21,
24,
25,
28,
30,
30,
31,
32,
34,
34,
34,
33,
34,
34,
34,
34,
33,
32,
32,
30,
30,
30,
28,
26,
25,
23,
21,
19,
18,
16,
14,
11,
9,
8,
8,
3,
-1,
1,
3,
2,
0,
-1,
0,
2,
4,
4,
6,
8,
10,
14,
16,
16,
17,
20,
22,
21,
21,
20,
18,
14,
13,
17,
16,
9,
2,
0,
-1,
-3,
-7,
-12,
-16,
-18,
-20,
-22,
-26,
-27,
-29,
-30,
-30,
-31,
-31,
-31,
-30,
-29,
-29,
-27,
-25,
-23,
-21,
-20,
-18,
-18,
-15,
-6,
4,
-7,
-11,
3,
11,
10,
10,
13,
20,
28,
31,
33,
33,
38,
42,
45,
46,
47,
49,
49,
49,
49,
48,
46,
43,
42,
40,
36,
33,
31,
28,
24,
22,
21,
18,
17,
16,
14,
13,
12,
11,
10,
10,
9,
10,
10,
10,
8,
6,
8,
8,
7,
6,
5,
3,
2,
1,
0,
-2,
-3,
-4,
-4,
-5,
-6,
-8,
-8,
-9,
-10,
-11,
-10,
-10,
-11,
-11,
-12,
-11,
-11,
-11,
-12,
-11,
-10,
-10,
-9,
-10,
-8,
-8,
-7,
-7,
-7,
-7,
-6,
-4,
-4,
-4,
-3,
0,
1,
3,
4,
6,
9,
10,
12,
14,
17,
18,
20,
21,
24,
26,
27,
28,
29,
32,
31,
30,
34,
38,
37,
33,
33,
37,
38,
37,
36,
34,
35,
35,
34,
32,
30,
28,
26,
24,
20,
18,
16,
16,
14,
6,
3,
4,
5,
2,
-2,
-3,
-3,
0,
-11,
-6,
-2,
-4,
-8,
-6,
-4,
-1,
1,
1,
2,
3,
6,
10,
9,
8,
10,
18,
22,
19,
17,
18,
24,
27,
25,
24,
26,
27,
28,
27,
26,
25,
24,
22,
22,
19,
16,
14,
12,
11,
8,
5,
2,
0,
-2,
-2,
-4,
-5,
-6,
-5,
-5,
-5,
-6,
-4,
-4,
-2,
-2,
-1,
0,
2,
2,
3,
4,
4,
5,
6,
5,
5,
5,
5,
4,
4,
5,
4,
3,
2,
2,
1,
1,
3,
2,
1,
1,
1,
1,
1,
1,
2,
2,
4,
3,
2,
2,
2,
3,
4,
5,
4,
4,
4,
7,
8,
8,
8,
9,
12,
13,
14,
16,
17,
19,
22,
25,
27,
28,
29,
32,
34,
35,
36,
37,
37,
37,
37,
37,
36,
34,
33,
32,
30,
28,
26,
24,
22,
21,
19,
17,
16,
15,
14,
14,
14,
14,
14,
18,
14,
9,
16,
17,
15,
13,
13,
14,
16,
14,
13,
12,
12,
13,
13,
10,
9,
8,
8,
6,
4,
4,
2,
2,
2,
2,
1,
0,
0,
0,
0,
1,
1,
0,
1,
3,
2,
2,
2,
2,
2,
6,
1,
-1,
0,
2,
1,
-3,
-5,
-6,
-6,
-8,
-10,
-12,
-14,
-14,
-16,
-16,
-17,
-17,
-17,
-18,
-17,
-15,
-15,
-15,
-16,
-16,
-12,
-4,
-3,
-6,
-7,
-3,
3,
4,
4,
4,
6,
8,
10,
11,
11,
12,
14,
15,
14,
14,
15,
17,
18,
17,
17,
17,
19,
20,
20,
20,
20,
20,
20,
19,
19,
20,
18,
18,
17,
17,
16,
17,
16,
16,
16,
16,
16,
16,
16,
17,
18,
20,
20,
22,
23,
25,
26,
28,
28,
27,
28,
28,
28,
29,
28,
27,
26,
24,
22,
21,
20,
18,
17,
15,
13,
12,
11,
13,
2,
4,
9,
8,
4,
4,
4,
5,
6,
5,
2,
4,
5,
6,
6,
5,
5,
5,
6,
8,
9,
8,
8,
9,
10,
12,
13,
14,
16,
16,
18,
21,
21,
22,
23,
25,
24,
24,
24,
23,
22,
20,
19,
18,
15,
13,
10,
8,
4,
1,
-2,
-6,
-8,
-12,
-16,
-19,
-18,
-17,
-19,
-26,
-23,
-20,
-16,
-16,
-16,
-13,
-8,
-3,
0,
2,
5,
11,
15,
18,
21,
24,
28,
27,
28,
28,
26,
26,
24,
22,
21,
17,
14,
11,
8,
5,
3,
3,
1,
-4,
-6,
-5,
-4,
-4,
-5,
-4,
0,
2,
4,
7,
10,
15,
17,
21,
26,
29,
32,
34,
36,
40,
42,
42,
40,
37,
38,
42,
43,
36,
30,
28,
30,
29,
24,
20,
18,
16,
14,
11,
9,
6,
4,
4,
2,
1,
1,
0,
-2,
-2,
-2,
-3,
-1,
-4,
-12,
-4,
-2,
-6,
-9,
-10,
-10,
-7,
-8,
-10,
-11,
-12,
-10,
-8,
-8,
-8,
-7,
-6,
-4,
-3,
0,
1,
2,
2,
4,
5,
8,
9,
9,
12,
16,
15,
13,
13,
15,
16,
15,
14,
12,
10,
9,
8,
6,
5,
5,
4,
2,
1,
1,
1,
1,
0,
0,
1,
1,
-2,
-2,
0,
0,
0,
0,
1,
1,
3,
3,
4,
5,
6,
6,
8,
10,
11,
13,
14,
16,
18,
19,
21,
22,
24,
26,
27,
28,
28,
28,
29,
30,
28,
29,
28,
28,
27,
26,
26,
25,
24,
22,
24,
22,
19,
16,
16,
17,
18,
18,
15,
13,
15,
17,
18,
17,
16,
16,
17,
19,
20,
18,
16,
17,
18,
18,
17,
15,
14,
13,
11,
9,
8,
6,
4,
2,
0,
-2,
-4,
-6,
-8,
-10,
-11,
-11,
-11,
-14,
-12,
-10,
-14,
-12,
-19,
-14,
-8,
-11,
-15,
-14,
-11,
-8,
-6,
-7,
-7,
-6,
-3,
-1,
-1,
0,
1,
2,
4,
6,
8,
7,
5,
6,
12,
17,
16,
13,
14,
18,
23,
25,
24,
23,
26,
28,
29,
30,
29,
30,
30,
29,
28,
29,
29,
28,
26,
25,
24,
22,
21,
20,
18,
17,
16,
16,
15,
14,
12,
11,
12,
10,
9,
8,
9,
8,
8,
6,
5,
6,
4,
4,
4,
3,
2,
2,
2,
2,
3,
3,
4,
6,
7,
9,
11,
14,
16,
17,
20,
24,
24,
27,
28,
29,
32,
32,
32,
32,
32,
33,
32,
30,
29,
28,
27,
27,
24,
23,
21,
21,
20,
18,
18,
17,
16,
14,
13,
13,
12,
9,
7,
6,
5,
3,
1,
0,
-1,
-2,
-3,
-4,
-6,
-7,
-8,
-9,
-10,
-11,
-11,
-12,
-12,
-12,
-13,
-14,
-15,
-15,
-11,
-16,
-22,
-16,
-15,
-19,
-21,
-21,
-20,
-17,
-17,
-18,
-17,
-15,
-12,
-11,
-8,
-8,
-6,
-2,
0,
1,
2,
5,
7,
9,
9,
10,
12,
14,
14,
13,
14,
14,
14,
14,
16,
16,
16,
16,
16,
16,
16,
16,
16,
17,
18,
18,
24,
23,
19,
18,
20,
23,
22,
22,
22,
22,
24,
24,
24,
23,
25,
25,
25,
26,
25,
26,
25,
25,
24,
24,
24,
22,
18,
17,
21,
24,
20,
13,
11,
13,
14,
11,
8,
5,
4,
4,
4,
2,
1,
0,
1,
2,
2,
4,
4,
7,
8,
10,
13,
15,
16,
17,
18,
18,
18,
18,
18,
18,
18,
16,
14,
16,
15,
12,
9,
9,
10,
10,
9,
8,
8,
6,
8,
9,
10,
9,
9,
10,
10,
10,
10,
10,
10,
9,
10,
9,
8,
6,
5,
4,
2,
0,
-1,
0,
0,
-11,
-6,
-3,
-6,
-11,
-10,
-10,
-8,
-7,
-9,
-8,
-10,
-7,
-6,
-6,
-6,
-6,
-5,
-3,
-2,
0,
0,
0,
2,
4,
6,
6,
10,
12,
16,
20,
24,
26,
29,
32,
36,
39,
42,
44,
45,
46,
47,
47,
46,
46,
45,
42,
40,
36,
33,
30,
26,
21,
18,
14,
11,
8,
6,
4,
2,
2,
2,
2,
4,
8,
9,
10,
12,
16,
20,
22,
25,
28,
30,
32,
33,
34,
34,
33,
32,
32,
33,
33,
26,
18,
18,
18,
15,
9,
4,
2,
-2,
-4,
-8,
-12,
-15,
-17,
-18,
-19,
-24,
-25,
-23,
-22,
-23,
-24,
-23,
-22,
-20,
-18,
-16,
-15,
-14,
-12,
-10,
-7,
-6,
-3,
-2,
0,
0,
2,
3,
2,
0,
3,
10,
13,
9,
6,
8,
13,
15,
14,
12,
11,
13,
14,
12,
11,
10,
10,
8,
8,
7,
9,
2,
-1,
6,
6,
2,
1,
1,
3,
6,
6,
5,
5,
7,
9,
11,
12,
12,
14,
17,
18,
20,
21,
22,
24,
25,
26,
28,
30,
30,
32,
33,
35,
36,
35,
36,
37,
37,
35,
32,
32,
30,
28,
26,
24,
21,
18,
17,
14,
11,
9,
6,
4,
0,
-3,
-4,
-3,
-7,
-11,
-13,
-14,
-12,
-14,
-15,
-16,
-16,
-16,
-16,
-14,
-13,
-13,
-11,
-9,
-7,
-5,
-3,
0,
2,
4,
8,
10,
12,
15,
17,
18,
20,
22,
23,
24,
24,
25,
24,
22,
22,
20,
18,
17,
15,
11,
9,
8,
8,
4,
2,
0,
0,
1,
0,
-1,
0,
1,
3,
4,
5,
9,
10,
11,
13,
16,
17,
19,
20,
22,
24,
22,
22,
22,
23,
24,
22,
19,
17,
16,
16,
16,
14,
11,
9,
8,
8,
8,
6,
3,
2,
2,
4,
5,
-6,
3,
2,
-1,
-3,
0,
1,
1,
1,
0,
0,
0,
1,
2,
2,
1,
2,
2,
4,
4,
5,
6,
6,
8,
11,
13,
13,
14,
15,
23,
30,
30,
29,
32,
37,
41,
43,
42,
43,
44,
46,
45,
45,
43,
44,
42,
41,
39,
37,
36,
34,
32,
29,
28,
26,
24,
23,
20,
18,
17,
15,
13,
11,
10,
9,
8,
6,
5,
2,
1,
0,
-3,
-4,
-5,
-6,
-8,
-11,
-12,
-13,
-14,
-16,
-18,
-19,
-19,
-20,
-21,
-22,
-22,
-22,
-22,
-22,
-22,
-22,
-22,
-20,
-20,
-19,
-19,
-18,
-16,
-15,
-14,
-12,
-11,
-10,
-9,
-6,
-5,
-3,
-1,
0,
2,
4,
6,
9,
11,
12,
13,
15,
16,
16,
17,
17,
18,
18,
17,
16,
17,
16,
16,
14,
14,
14,
13,
12,
12,
11,
11,
11,
12,
13,
13,
14,
16,
21,
17,
17,
25,
28,
27,
29,
30,
32,
36,
37,
37,
37,
38,
41,
41,
41,
41,
40,
41,
41,
41,
40,
39,
39,
38,
36,
35,
34,
32,
30,
28,
27,
22,
18,
16,
14,
10,
5,
1,
-2,
-4,
-9,
-12,
-15,
-18,
-20,
-21,
-23,
-24,
-24,
-26,
-20,
-21,
-27,
-28,
-24,
-22,
-22,
-23,
-22,
-19,
-16,
-16,
-16,
-14,
-11,
-9,
-8,
-6,
-4,
-2,
-2,
0,
1,
4,
5,
6,
4,
4,
9,
16,
16,
11,
10,
14,
17,
17,
16,
16,
17,
18,
20,
20,
21,
22,
24,
25,
26,
27,
28,
29,
30,
32,
32,
32,
34,
34,
33,
33,
33,
33,
33,
33,
31,
30,
28,
26,
25,
23,
21,
18,
16,
14,
10,
9,
7,
5,
1,
0,
-3,
-4,
-5,
-6,
-8,
-9,
-6,
-6,
-6,
-6,
-4,
0,
3,
4,
6,
10,
13,
8,
17,
22,
23,
22,
25,
26,
30,
31,
30,
30,
30,
32,
32,
31,
29,
29,
29,
28,
27,
27,
26,
26,
26,
28,
28,
28,
27,
28,
29,
30,
30,
30,
29,
31,
32,
30,
29,
28,
28,
26,
23,
20,
18,
16,
14,
10,
6,
4,
1,
-2,
-6,
-7,
-9,
-12,
-16,
-18,
-19,
-20,
-22,
-24,
-25,
-25,
-26,
-27,
-28,
-28,
-28,
-27,
-26,
-26,
-27,
-26,
-25,
-23,
-23,
-22,
-20,
-18,
-16,
-15,
-12,
-11,
-8,
-4,
-3,
0,
2,
4,
5,
7,
9,
10,
10,
11,
12,
14,
14,
15,
15,
22,
24,
20,
18,
24,
31,
33,
28,
27,
33,
38,
38,
36,
36,
39,
42,
42,
40,
41,
41,
41,
40,
39,
37,
36,
33,
29,
26,
26,
30,
28,
20,
16,
15,
16,
15,
11,
8,
7,
6,
7,
4,
2,
1,
4,
-3,
-6,
2,
1,
-4,
-4,
-6,
-4,
-3,
-4,
-9,
-9,
-9,
-8,
-8,
-10,
-11,
-13,
-14,
-14,
-15,
-16,
-18,
-19,
-20,
-20,
-20,
-20,
-20,
-20,
-19,
-18,
-16,
-14,
-12,
-9,
-6,
-4,
0,
5,
9,
12,
16,
20,
25,
29,
33,
38,
41,
44,
46,
49,
51,
52,
54,
53,
53,
53,
52,
50,
50,
46,
44,
41,
37,
35,
31,
27,
24,
20,
16,
12,
8,
4,
2,
2,
0,
-5,
-6,
-6,
-9,
-11,
-12,
-11,
-10,
-10,
-12,
-12,
-13,
-11,
-11,
-11,
-12,
-11,
-10,
-10,
-10,
-8,
-8,
-8,
-7,
-6,
-5,
-4,
-4,
-2,
-1,
-1,
0,
0,
2,
2,
4,
6,
8,
10,
12,
15,
17,
20,
24,
27,
30,
33,
35,
39,
42,
43,
44,
48,
50,
51,
52,
52,
52,
52,
52,
50,
50,
50,
48,
46,
45,
45,
45,
44,
32,
35,
35,
32,
34,
30,
20,
17,
18,
20,
14,
9,
5,
4,
3,
3,
0,
-3,
