data/ALL0019/A0019CH2.CSV

Memory Length,4000,
Trigger Level,0.000E+00,
Source,CH2,
Probe,1X,
Vertical Units,V,
Vertical Scale,1.000E-02,
Vertical Position,0.000E+00,
Horizontal Units,s,
Horizontal Scale,1.000E-05,
Horizontal Position,4.000E-06,
Horizontal Mode,Main,
Sampling Period,4.000E-08,
Firmware,V1.13,
Time, ,
Mode,Fast,
Waveform Data,
47,
47,
11,
16,
15,
10,
5,
6,
8,
7,
4,
2,
1,
1,
0,
1,
6,
8,
3,
1,
3,
8,
12,
12,
12,
13,
16,
17,
16,
16,
17,
17,
16,
16,
15,
14,
13,
12,
10,
10,
9,
8,
8,
7,
7,
8,
8,
9,
12,
14,
15,
18,
21,
25,
28,
31,
34,
40,
42,
46,
48,
52,
54,
57,
58,
60,
61,
62,
62,
62,
61,
60,
58,
57,
54,
52,
48,
46,
43,
40,
37,
34,
30,
27,
24,
20,
16,
13,
9,
5,
2,
-2,
-6,
-10,
-14,
-18,
-22,
-26,
-30,
-32,
-35,
-39,
-40,
-44,
-45,
-46,
-47,
-50,
-49,
-49,
-49,
-48,
-47,
-46,
-44,
-43,
-42,
-40,
-37,
-34,
-33,
-31,
-28,
-26,
-24,
-22,
-20,
-17,
-14,
-12,
-10,
-6,
-3,
0,
2,
5,
8,
10,
14,
20,
18,
14,
26,
30,
26,
26,
29,
33,
37,
37,
36,
38,
40,
42,
42,
41,
40,
42,
41,
42,
40,
40,
38,
37,
37,
34,
33,
32,
30,
29,
28,
26,
26,
22,
21,
20,
18,
14,
13,
12,
9,
6,
5,
2,
0,
-1,
-4,
-3,
-2,
-10,
-15,
-12,
-8,
-8,
-12,
-15,
-13,
-11,
-10,
-11,
-11,
-10,
-8,
-6,
-4,
-3,
-4,
-2,
2,
8,
13,
12,
12,
16,
20,
25,
26,
27,
28,
31,
33,
34,
34,
34,
34,
34,
34,
33,
32,
30,
28,
26,
24,
21,
19,
16,
16,
14,
12,
10,
9,
6,
6,
6,
5,
4,
3,
3,
3,
2,
1,
0,
-1,
-2,
-3,
-4,
-6,
-8,
-10,
-12,
-14,
-16,
-18,
-20,
-22,
-23,
-23,
-25,
-26,
-26,
-26,
-26,
-25,
-24,
-23,
-22,
-22,
-19,
-12,
-8,
-11,
-12,
-6,
0,
4,
7,
-4,
4,
14,
14,
10,
12,
14,
20,
24,
24,
24,
24,
29,
33,
33,
34,
36,
38,
40,
42,
43,
45,
45,
46,
48,
48,
50,
50,
50,
50,
51,
52,
51,
51,
50,
50,
49,
47,
45,
42,
42,
40,
37,
34,
31,
29,
26,
24,
22,
18,
16,
14,
12,
11,
9,
6,
5,
4,
4,
2,
1,
0,
0,
0,
0,
-1,
-1,
-1,
0,
0,
0,
-1,
-1,
-1,
-1,
-2,
-2,
-2,
-1,
-2,
-2,
-2,
-1,
0,
-1,
0,
1,
2,
1,
2,
4,
5,
5,
7,
8,
12,
10,
8,
9,
14,
16,
14,
12,
12,
13,
14,
13,
12,
11,
12,
10,
9,
8,
8,
5,
3,
5,
10,
10,
5,
2,
4,
6,
8,
6,
4,
4,
6,
6,
6,
5,
6,
6,
6,
5,
4,
5,
5,
5,
4,
5,
5,
6,
8,
10,
6,
-1,
9,
11,
6,
4,
4,
6,
9,
8,
6,
6,
7,
9,
10,
10,
9,
9,
10,
11,
11,
10,
10,
11,
12,
11,
12,
12,
12,
11,
11,
12,
11,
10,
10,
10,
10,
8,
7,
5,
5,
4,
3,
3,
2,
0,
0,
-1,
-1,
-2,
-2,
-3,
-3,
-3,
-3,
-3,
-3,
-4,
-2,
-2,
-2,
-1,
0,
0,
0,
1,
2,
4,
4,
6,
6,
8,
8,
9,
9,
10,
12,
13,
14,
13,
15,
16,
16,
16,
16,
16,
17,
17,
17,
17,
17,
17,
17,
17,
17,
17,
16,
14,
14,
14,
14,
14,
14,
13,
13,
13,
12,
12,
11,
12,
11,
10,
9,
10,
10,
9,
8,
8,
6,
5,
5,
4,
2,
0,
-2,
-3,
0,
2,
-4,
-8,
-6,
-2,
0,
-2,
-1,
1,
2,
5,
8,
9,
10,
13,
14,
18,
24,
24,
8,
15,
28,
26,
17,
14,
14,
18,
18,
14,
11,
10,
13,
16,
16,
15,
14,
15,
17,
23,
30,
30,
28,
30,
34,
38,
42,
42,
42,
44,
46,
48,
49,
48,
48,
48,
46,
46,
45,
44,
42,
41,
41,
40,
37,
36,
34,
32,
31,
29,
26,
23,
21,
17,
14,
11,
8,
4,
1,
-2,
-6,
-10,
-12,
-15,
-18,
-20,
-22,
-23,
-24,
-26,
-27,
-27,
-28,
-28,
-28,
-27,
-27,
-26,
-25,
-24,
-24,
-23,
-22,
-20,
-19,
-19,
-19,
-17,
-15,
-14,
-13,
-11,
-10,
-9,
-7,
-6,
-5,
-3,
-2,
0,
0,
1,
4,
5,
5,
7,
8,
9,
10,
11,
12,
13,
13,
14,
14,
13,
14,
14,
15,
14,
14,
13,
13,
14,
15,
15,
14,
13,
13,
14,
14,
14,
14,
16,
16,
16,
17,
17,
18,
18,
18,
19,
18,
18,
21,
19,
10,
18,
21,
16,
13,
13,
13,
16,
14,
11,
11,
11,
12,
12,
12,
10,
10,
11,
10,
10,
9,
11,
12,
11,
11,
12,
12,
14,
14,
13,
16,
16,
16,
16,
17,
17,
17,
17,
17,
18,
17,
16,
16,
15,
14,
18,
19,
11,
7,
10,
13,
12,
9,
7,
8,
8,
8,
8,
8,
7,
8,
10,
10,
8,
6,
4,
6,
11,
12,
9,
2,
4,
8,
9,
5,
3,
2,
2,
2,
1,
0,
-1,
-2,
-2,
-3,
-3,
-3,
-3,
-4,
-4,
-4,
-4,
-4,
-4,
-4,
-4,
-4,
-5,
-5,
-6,
-6,
-6,
-6,
-7,
-8,
-8,
-7,
-8,
-9,
-10,
-10,
-10,
-8,
-6,
-2,
-3,
-6,
-4,
1,
4,
3,
3,
4,
8,
10,
11,
12,
14,
16,
18,
20,
21,
23,
24,
25,
27,
29,
32,
32,
34,
35,
38,
39,
41,
45,
34,
39,
47,
46,
41,
42,
42,
46,
46,
44,
42,
42,
42,
44,
41,
37,
36,
37,
35,
34,
32,
31,
28,
28,
26,
26,
24,
24,
23,
22,
22,
22,
21,
20,
20,
18,
18,
17,
16,
16,
14,
12,
11,
9,
8,
5,
4,
2,
1,
-2,
-2,
-3,
-4,
-6,
-6,
-6,
-7,
-6,
-6,
-6,
-8,
-6,
-6,
-6,
-6,
-5,
-4,
-3,
-2,
-2,
-2,
-2,
-2,
-1,
0,
0,
0,
0,
0,
0,
1,
1,
2,
2,
3,
3,
4,
4,
5,
6,
7,
8,
9,
11,
15,
8,
4,
9,
14,
14,
12,
9,
11,
14,
14,
12,
11,
12,
12,
10,
11,
9,
9,
8,
6,
5,
9,
10,
8,
3,
4,
5,
5,
5,
2,
1,
1,
2,
1,
-1,
-2,
-2,
-2,
-3,
-3,
-4,
-4,
-4,
-6,
-6,
-7,
-6,
-6,
-8,
-6,
-7,
-15,
-8,
-4,
-8,
-11,
-11,
-8,
-4,
-5,
-7,
-7,
-6,
-3,
-1,
0,
0,
1,
3,
5,
6,
7,
9,
10,
12,
12,
14,
16,
18,
20,
21,
24,
25,
26,
29,
31,
32,
33,
33,
34,
34,
35,
36,
36,
34,
34,
34,
35,
35,
34,
32,
30,
30,
30,
29,
26,
24,
23,
21,
20,
18,
17,
15,
13,
11,
12,
9,
8,
6,
5,
4,
2,
1,
0,
0,
-2,
-3,
-4,
-4,
-6,
-7,
-8,
-9,
-9,
-11,
-11,
-12,
-13,
-13,
-14,
-15,
-15,
-14,
-12,
-11,
-11,
-10,
-8,
-5,
-4,
-2,
0,
1,
3,
11,
14,
10,
10,
16,
22,
23,
22,
22,
25,
29,
28,
27,
28,
29,
30,
30,
31,
31,
32,
32,
33,
33,
34,
36,
36,
36,
38,
38,
39,
40,
41,
40,
41,
42,
41,
41,
40,
40,
38,
40,
37,
18,
21,
32,
29,
18,
12,
10,
12,
11,
6,
2,
0,
0,
1,
-1,
-3,
-5,
-7,
-6,
-1,
2,
0,
-4,
-3,
0,
2,
4,
2,
1,
1,
4,
4,
2,
1,
2,
1,
0,
0,
0,
-2,
-2,
-1,
-1,
-1,
-2,
-1,
-1,
-1,
-1,
-2,
0,
0,
1,
1,
1,
1,
1,
1,
0,
1,
0,
-1,
0,
-2,
-3,
-3,
-4,
-5,
-6,
-7,
-7,
-7,
-8,
-8,
-10,
-10,
-10,
-10,
-10,
-11,
-11,
-10,
-9,
-8,
-8,
-8,
-8,
-6,
-6,
-5,
-6,
-4,
-3,
-2,
-1,
1,
2,
2,
2,
4,
5,
10,
10,
10,
10,
13,
15,
17,
18,
18,
20,
21,
23,
23,
26,
26,
27,
28,
28,
28,
28,
28,
28,
28,
28,
26,
27,
28,
27,
26,
24,
24,
24,
24,
22,
21,
20,
18,
20,
18,
17,
16,
15,
14,
16,
13,
4,
11,
14,
7,
3,
2,
3,
5,
3,
0,
-2,
0,
-2,
-1,
-3,
-4,
-4,
-4,
-4,
-5,
-5,
-5,
-6,
-6,
-6,
-4,
-4,
-4,
-3,
-3,
0,
1,
0,
1,
2,
4,
5,
6,
8,
8,
10,
12,
11,
10,
14,
20,
12,
10,
12,
16,
15,
11,
10,
12,
13,
13,
12,
11,
11,
12,
12,
13,
11,
9,
6,
6,
10,
12,
9,
6,
4,
7,
9,
8,
6,
5,
5,
6,
6,
5,
5,
5,
5,
5,
6,
5,
5,
5,
6,
5,
6,
11,
10,
5,
6,
10,
12,
11,
10,
10,
13,
13,
14,
13,
13,
14,
16,
17,
17,
16,
17,
18,
20,
20,
20,
20,
22,
22,
22,
22,
22,
24,
25,
25,
24,
26,
25,
26,
26,
27,
25,
25,
25,
26,
26,
26,
25,
25,
26,
26,
26,
26,
28,
28,
33,
20,
23,
30,
28,
22,
23,
23,
26,
26,
23,
22,
21,
21,
21,
21,
20,
18,
19,
19,
18,
16,
16,
16,
16,
14,
14,
15,
15,
15,
16,
16,
16,
14,
14,
14,
14,
13,
12,
12,
12,
10,
9,
9,
7,
6,
5,
4,
2,
0,
-2,
-2,
-3,
-4,
-7,
-9,
-9,
-10,
-12,
-13,
-16,
-16,
-17,
-18,
-18,
-20,
-20,
-20,
-20,
-19,
-20,
-20,
-20,
-20,
-19,
-18,
-18,
-16,
-16,
-15,
-14,
-12,
-11,
-10,
-7,
-6,
-6,
-4,
-2,
0,
1,
3,
4,
4,
5,
10,
13,
8,
6,
10,
16,
18,
16,
16,
17,
20,
21,
20,
22,
24,
22,
24,
24,
22,
22,
20,
18,
21,
25,
22,
17,
17,
18,
18,
17,
15,
13,
12,
12,
12,
10,
8,
7,
8,
8,
5,
5,
4,
4,
3,
3,
3,
3,
3,
3,
5,
4,
-4,
5,
8,
4,
1,
1,
4,
8,
7,
3,
3,
4,
7,
6,
5,
6,
8,
9,
9,
10,
12,
12,
14,
14,
15,
16,
18,
20,
20,
21,
22,
24,
24,
25,
26,
26,
25,
24,
24,
23,
22,
21,
19,
17,
16,
15,
14,
12,
9,
8,
5,
4,
2,
2,
0,
-1,
-2,
-2,
-2,
-3,
-3,
-2,
-2,
-1,
0,
0,
1,
2,
5,
6,
7,
9,
11,
12,
13,
14,
17,
17,
18,
20,
26,
27,
22,
21,
26,
29,
29,
25,
25,
28,
28,
28,
26,
26,
26,
25,
26,
26,
26,
26,
24,
25,
25,
25,
24,
24,
24,
24,
26,
26,
26,
26,
26,
26,
27,
26,
26,
26,
26,
24,
22,
20,
20,
18,
15,
13,
10,
9,
7,
3,
0,
-1,
-2,
-5,
-8,
-9,
-10,
-11,
-12,
-12,
-11,
-4,
-5,
-11,
-7,
-14,
-7,
0,
-4,
-8,
-6,
-4,
-1,
1,
-2,
-2,
0,
1,
3,
1,
0,
-2,
0,
5,
8,
4,
0,
2,
6,
8,
8,
6,
8,
9,
11,
13,
14,
14,
13,
14,
15,
16,
15,
14,
14,
13,
13,
12,
10,
9,
7,
6,
4,
3,
1,
0,
-2,
-2,
-3,
-3,
-3,
-4,
-4,
-4,
-4,
-4,
-4,
-3,
-3,
-2,
-2,
-1,
0,
1,
2,
1,
4,
4,
4,
4,
4,
5,
7,
8,
7,
8,
9,
9,
11,
12,
11,
12,
14,
15,
16,
16,
17,
19,
20,
21,
22,
22,
23,
25,
26,
26,
25,
26,
26,
26,
25,
25,
24,
23,
23,
21,
21,
20,
19,
18,
17,
16,
15,
14,
13,
12,
10,
9,
8,
6,
5,
5,
2,
1,
0,
-1,
-2,
-3,
-4,
-5,
-8,
-8,
-8,
-8,
-9,
-10,
-10,
-10,
-10,
-7,
-7,
-16,
-8,
-4,
-8,
-11,
-10,
-9,
-4,
-4,
-6,
-5,
-4,
0,
0,
0,
0,
1,
4,
5,
7,
8,
8,
10,
10,
12,
14,
16,
17,
18,
18,
21,
23,
24,
26,
28,
28,
29,
30,
31,
32,
32,
33,
33,
33,
36,
39,
30,
26,
29,
33,
32,
28,
24,
24,
22,
20,
17,
13,
11,
9,
7,
4,
0,
-2,
-7,
-9,
-8,
-5,
-3,
-4,
-10,
-13,
-7,
-3,
-3,
-5,
-3,
1,
2,
4,
5,
6,
8,
10,
11,
12,
12,
14,
15,
16,
16,
17,
17,
18,
19,
19,
19,
21,
21,
22,
23,
24,
25,
26,
26,
26,
26,
27,
27,
26,
26,
28,
26,
27,
26,
26,
26,
26,
24,
24,
23,
23,
23,
23,
21,
20,
20,
22,
22,
21,
21,
21,
22,
21,
21,
20,
20,
20,
20,
20,
18,
18,
18,
18,
20,
9,
10,
16,
14,
8,
5,
5,
6,
6,
2,
1,
0,
0,
1,
-1,
-2,
-3,
-3,
-4,
-4,
-4,
-4,
-4,
-6,
-7,
-7,
-6,
-4,
-5,
-5,
-6,
-4,
-4,
-4,
-4,
-3,
-3,
-4,
-3,
-3,
-2,
-2,
-2,
-3,
-2,
-2,
-2,
-2,
-2,
-2,
-3,
-2,
-2,
-2,
-1,
0,
-1,
0,
0,
1,
1,
2,
3,
2,
2,
3,
4,
8,
8,
7,
5,
7,
8,
10,
10,
9,
10,
10,
12,
13,
12,
13,
13,
13,
13,
13,
13,
15,
14,
14,
14,
14,
16,
15,
19,
20,
12,
8,
12,
16,
15,
12,
11,
11,
12,
13,
12,
11,
10,
10,
10,
10,
9,
8,
4,
4,
8,
11,
8,
3,
3,
5,
7,
6,
4,
4,
4,
6,
6,
6,
6,
6,
8,
9,
10,
9,
10,
12,
12,
13,
12,
13,
13,
14,
16,
13,
4,
12,
14,
9,
5,
4,
4,
5,
4,
0,
-2,
1,
2,
1,
0,
-1,
0,
1,
1,
1,
3,
5,
8,
9,
12,
14,
16,
19,
21,
24,
26,
28,
28,
29,
31,
31,
31,
32,
31,
31,
29,
29,
28,
28,
26,
28,
26,
26,
26,
26,
26,
27,
28,
28,
26,
26,
28,
35,
37,
30,
26,
30,
35,
34,
30,
29,
30,
32,
31,
29,
28,
28,
28,
27,
26,
25,
24,
22,
21,
18,
16,
15,
13,
10,
8,
4,
1,
0,
-4,
-7,
-11,
-12,
-15,
-18,
-20,
-22,
-24,
-24,
-27,
-28,
-30,
-29,
-29,
-30,
-30,
-30,
-30,
-30,
-30,
-28,
-28,
-27,
-27,
-25,
-24,
-22,
-20,
-18,
-15,
-12,
-10,
-7,
-3,
1,
3,
6,
11,
15,
18,
21,
24,
28,
30,
32,
34,
36,
37,
38,
38,
40,
40,
40,
42,
40,
38,
28,
35,
44,
38,
30,
27,
29,
33,
33,
28,
26,
24,
27,
27,
25,
21,
17,
15,
15,
18,
19,
13,
8,
7,
8,
8,
5,
2,
0,
-2,
0,
-2,
-4,
-6,
-7,
-7,
-8,
-9,
-11,
-10,
-10,
-11,
-11,
-12,
-12,
-11,
-10,
-10,
-9,
-8,
-7,
-6,
-6,
-4,
-3,
-1,
1,
0,
1,
2,
4,
6,
7,
8,
8,
9,
10,
10,
12,
13,
13,
14,
15,
16,
16,
17,
17,
17,
18,
18,
20,
20,
20,
20,
20,
21,
20,
20,
18,
18,
17,
16,
16,
16,
13,
12,
11,
10,
9,
8,
6,
5,
5,
4,
2,
2,
0,
0,
0,
-1,
-2,
-2,
-2,
-1,
-2,
-2,
-3,
-3,
-1,
-2,
-2,
-2,
-2,
-2,
-1,
-2,
-2,
0,
-1,
0,
1,
2,
3,
4,
4,
5,
7,
9,
10,
11,
11,
12,
13,
16,
20,
17,
10,
19,
22,
17,
16,
17,
20,
24,
22,
21,
21,
23,
26,
28,
28,
28,
29,
31,
31,
33,
33,
34,
34,
34,
34,
36,
36,
36,
36,
37,
39,
38,
37,
36,
37,
37,
36,
35,
34,
32,
32,
30,
28,
25,
24,
26,
24,
18,
12,
9,
12,
12,
9,
5,
2,
1,
0,
-2,
-5,
-7,
-8,
-10,
-10,
-11,
-14,
-16,
-19,
-21,
-21,
-17,
-18,
-23,
-26,
-25,
-22,
-22,
-23,
-25,
-26,
-24,
-23,
-24,
-23,
-23,
-22,
-20,
-18,
-17,
-15,
-14,
-11,
-8,
-6,
-3,
0,
3,
5,
9,
13,
16,
20,
24,
27,
30,
33,
36,
40,
42,
45,
46,
49,
50,
52,
53,
53,
53,
54,
53,
53,
53,
52,
50,
48,
46,
44,
41,
39,
37,
34,
32,
28,
27,
25,
21,
17,
15,
12,
10,
7,
4,
2,
0,
-2,
-3,
-3,
-18,
-14,
-10,
-12,
-20,
-22,
-22,
-20,
-21,
-24,
-27,
-27,
-26,
-24,
-26,
-26,
-26,
-24,
-24,
-23,
-22,
-21,
-20,
-19,
-18,
-16,
-14,
-11,
-10,
-8,
-7,
-4,
-2,
-2,
1,
3,
4,
6,
8,
8,
10,
12,
13,
14,
16,
18,
18,
18,
18,
20,
21,
21,
22,
22,
22,
22,
24,
24,
24,
24,
26,
26,
26,
26,
26,
26,
26,
26,
26,
26,
26,
26,
27,
26,
26,
25,
26,
26,
26,
25,
24,
22,
20,
20,
18,
18,
17,
14,
13,
12,
10,
8,
8,
5,
4,
2,
3,
8,
-3,
-6,
-4,
-2,
-6,
-10,
-12,
-12,
-12,
-14,
-17,
-18,
-18,
-19,
-20,
-20,
-20,
-20,
-22,
-20,
-15,
-11,
-11,
-12,
-10,
-5,
0,
2,
2,
5,
9,
13,
15,
17,
20,
23,
24,
27,
29,
31,
33,
34,
36,
40,
42,
45,
51,
48,
44,
55,
59,
55,
55,
58,
61,
64,
64,
64,
64,
65,
65,
65,
65,
64,
62,
62,
58,
56,
54,
52,
49,
46,
42,
40,
37,
34,
30,
28,
26,
22,
17,
16,
17,
14,
4,
0,
1,
1,
-4,
-10,
-14,
-16,
-18,
-21,
-26,
-30,
-33,
-34,
-36,
-40,
-43,
-46,
-47,
-49,
-50,
-50,
-51,
-52,
-52,
-51,
-51,
-50,
-49,
-47,
-46,
-43,
-42,
-39,
-36,
-34,
-32,
-29,
-26,
-22,
-20,
-16,
-13,
-10,
-7,
-4,
-2,
1,
5,
8,
10,
13,
16,
17,
20,
22,
26,
28,
30,
33,
36,
38,
40,
42,
45,
48,
49,
52,
52,
54,
56,
57,
57,
57,
58,
58,
57,
56,
55,
53,
52,
49,
46,
44,
42,
40,
37,
35,
33,
29,
28,
24,
22,
20,
18,
16,
14,
12,
10,
8,
6,
4,
2,
1,
-2,
-2,
-5,
-6,
-7,
-20,
-11,
-15,
-24,
-27,
-23,
-22,
-24,
-26,
-28,
-29,
-28,
-27,
-26,
-26,
-26,
-24,
-22,
-22,
-23,
-23,
-22,
-18,
-12,
-12,
-15,
-15,
-11,
-7,
-6,
-5,
-2,
-1,
0,
1,
5,
7,
8,
10,
13,
16,
18,
20,
21,
24,
27,
28,
29,
30,
30,
31,
31,
33,
32,
30,
28,
29,
28,
26,
23,
21,
18,
17,
16,
13,
12,
10,
9,
7,
5,
4,
3,
2,
1,
0,
0,
0,
-2,
-2,
-2,
-2,
-3,
-4,
-4,
-6,
-6,
-6,
-7,
-7,
-8,
-8,
-8,
-8,
-6,
-7,
-5,
-3,
0,
2,
1,
3,
6,
9,
13,
14,
16,
18,
21,
24,
26,
28,
30,
31,
33,
34,
36,
36,
37,
38,
39,
40,
41,
41,
42,
42,
44,
44,
44,
44,
44,
45,
46,
46,
45,
45,
46,
46,
44,
44,
42,
41,
40,
40,
37,
41,
30,
23,
32,
31,
22,
16,
14,
13,
13,
10,
5,
2,
0,
0,
-2,
-5,
-8,
-10,
-11,
-12,
-15,
-17,
-16,
-14,
-16,
-22,
-22,
-19,
-17,
-20,
-22,
-20,
-19,
-20,
-20,
-20,
-20,
-20,
-19,
-19,
-19,
-19,
-17,
-16,
-15,
-15,
-14,
-12,
-11,
-10,
-3,
-1,
-7,
-10,
-3,
2,
1,
-1,
0,
3,
5,
8,
6,
8,
8,
10,
13,
15,
16,
17,
16,
18,
23,
30,
30,
28,
29,
33,
37,
38,
38,
40,
41,
42,
44,
43,
44,
44,
44,
44,
43,
43,
42,
42,
41,
40,
38,
36,
36,
34,
32,
29,
28,
26,
24,
22,
20,
17,
17,
14,
11,
9,
8,
5,
2,
0,
-2,
-4,
-6,
-8,
-11,
-12,
-13,
-14,
-16,
-18,
-19,
-19,
-20,
-20,
-20,
-22,
-21,
-20,
-20,
-20,
-20,
-19,
-18,
-18,
-17,
-17,
-15,
-14,
-11,
-8,
-19,
-11,
-4,
-4,
-8,
-6,
-5,
0,
2,
2,
2,
5,
8,
10,
12,
13,
14,
17,
18,
21,
23,
25,
24,
24,
25,
28,
30,
29,
29,
29,
31,
33,
32,
31,
31,
32,
31,
32,
30,
28,
28,
28,
26,
25,
23,
22,
20,
18,
17,
14,
13,
11,
8,
6,
3,
1,
0,
-4,
-6,
-8,
-11,
-14,
-16,
-17,
-19,
-21,
-23,
-24,
-25,
-25,
-25,
-24,
-23,
-22,
-21,
-20,
-16,
-15,
-11,
-10,
-8,
-5,
-2,
0,
2,
4,
6,
10,
12,
13,
16,
17,
21,
23,
25,
27,
30,
32,
36,
43,
50,
42,
42,
49,
57,
59,
59,
60,
64,
68,
69,
69,
69,
70,
71,
72,
70,
66,
64,
61,
58,
59,
62,
58,
50,
45,
43,
42,
38,
33,
27,
23,
21,
17,
14,
9,
5,
1,
-2,
-5,
-8,
-12,
-15,
-17,
-16,
-26,
-32,
-25,
-26,
-32,
-36,
-38,
-37,
-36,
-40,
-40,
-37,
-39,
-45,
-43,
-39,
-38,
-40,
-42,
-40,
-38,
-35,
-34,
-34,
-34,
-31,
-27,
-23,
-21,
-19,
-15,
-11,
-10,
-8,
-4,
-1,
1,
4,
6,
8,
10,
13,
14,
16,
17,
17,
20,
21,
22,
24,
24,
24,
25,
26,
26,
27,
27,
26,
26,
26,
26,
26,
25,
24,
24,
24,
23,
22,
21,
20,
18,
18,
18,
17,
16,
15,
15,
16,
16,
16,
17,
17,
18,
19,
20,
21,
23,
23,
24,
25,
26,
26,
27,
28,
28,
28,
28,
27,
27,
26,
26,
26,
25,
25,
25,
24,
24,
22,
22,
22,
21,
21,
23,
23,
22,
21,
20,
21,
20,
19,
17,
16,
14,
12,
11,
8,
5,
2,
0,
-3,
-4,
-8,
-10,
-12,
-15,
-17,
-19,
-20,
-22,
-22,
-23,
-24,
-23,
-24,
-22,
-20,
-31,
-23,
-18,
-16,
-21,
-27,
-24,
-15,
-11,
-16,
-20,
-20,
-15,
-11,
-13,
-15,
-14,
-12,
-10,
-9,
-9,
-9,
-11,
-11,
-9,
-3,
0,
-1,
-3,
0,
6,
9,
10,
9,
12,
17,
20,
22,
24,
26,
29,
31,
32,
34,
36,
38,
39,
40,
41,
42,
43,
44,
42,
44,
43,
42,
42,
44,
42,
41,
41,
41,
40,
39,
38,
37,
36,
35,
33,
33,
32,
30,
29,
28,
27,
24,
22,
21,
19,
17,
16,
14,
13,
12,
10,
8,
6,
5,
3,
2,
1,
0,
-2,
-3,
-6,
-6,
-5,
-7,
-8,
-9,
-8,
-8,
-9,
-8,
-9,
-10,
-8,
-8,
-7,
-7,
-6,
-4,
-4,
-2,
-2,
0,
1,
2,
4,
6,
7,
8,
9,
10,
10,
12,
14,
14,
14,
15,
15,
16,
16,
16,
17,
17,
16,
17,
16,
16,
15,
14,
13,
12,
18,
14,
8,
11,
12,
11,
10,
8,
6,
9,
8,
6,
5,
4,
4,
3,
2,
3,
2,
0,
0,
-2,
-2,
-4,
-4,
-6,
-7,
-7,
-7,
-8,
-8,
-8,
-8,
-8,
-8,
-7,
-5,
-4,
-3,
-2,
-1,
1,
3,
4,
6,
9,
10,
13,
15,
16,
16,
18,
20,
24,
28,
20,
19,
23,
29,
30,
28,
25,
25,
28,
28,
28,
26,
26,
27,
26,
25,
23,
22,
20,
19,
20,
24,
24,
19,
16,
16,
19,
19,
18,
14,
14,
15,
15,
14,
12,
11,
12,
11,
10,
10,
9,
8,
8,
9,
9,
8,
6,
6,
5,
5,
4,
4,
3,
3,
2,
1,
0,
0,
0,
-2,
-2,
-2,
-3,
-3,
-3,
-4,
-4,
-4,
-4,
-3,
-4,
-3,
-2,
-1,
0,
-2,
0,
1,
2,
3,
4,
4,
6,
6,
8,
8,
8,
8,
12,
13,
14,
14,
2,
11,
17,
15,
10,
10,
10,
14,
16,
13,
10,
10,
12,
12,
12,
10,
9,
9,
9,
8,
8,
7,
5,
6,
5,
6,
6,
6,
5,
7,
9,
9,
9,
10,
11,
12,
14,
16,
16,
16,
18,
21,
21,
21,
21,
22,
23,
24,
23,
23,
23,
24,
24,
25,
25,
25,
25,
26,
28,
28,
29,
30,
32,
33,
34,
35,
37,
38,
38,
40,
41,
42,
42,
41,
41,
40,
40,
38,
37,
35,
33,
32,
29,
26,
23,
20,
18,
16,
13,
9,
6,
3,
2,
-2,
-4,
-7,
-10,
-12,
-15,
-18,
-20,
-19,
-18,
-28,
-33,
-30,
-26,
-27,
-30,
-32,
-32,
-31,
-29,
-30,
-30,
-29,
-27,
-24,
-23,
-22,
-20,
-20,
-20,
-16,
-9,
-8,
-9,
-9,
-6,
-3,
-1,
1,
6,
11,
6,
4,
9,
16,
16,
14,
14,
18,
21,
22,
26,
16,
16,
28,
28,
23,
22,
22,
25,
27,
26,
22,
21,
22,
23,
23,
21,
20,
18,
17,
16,
17,
15,
13,
12,
10,
9,
10,
9,
7,
4,
4,
4,
2,
0,
-1,
-1,
-2,
-3,
-4,
-6,
-6,
-7,
-8,
-8,
-8,
-7,
-7,
-6,
-6,
-5,
-4,
-2,
-2,
0,
1,
3,
6,
8,
10,
14,
17,
20,
23,
26,
28,
32,
34,
37,
39,
41,
42,
44,
45,
47,
46,
46,
47,
