data/ALL0009/A0009CH2.CSV

Memory Length,4000,
Trigger Level,0.000E+00,
Source,CH2,
Probe,1X,
Vertical Units,V,
Vertical Scale,1.000E-02,
Vertical Position,0.000E+00,
Horizontal Units,s,
Horizontal Scale,2.500E-05,
Horizontal Position,4.000E-06,
Horizontal Mode,Main,
Sampling Period,1.000E-07,
Firmware,V1.13,
Time, ,
Mode,Fast,
Waveform Data,
13,
13,
3,
2,
4,
4,
5,
5,
7,
8,
9,
10,
11,
12,
13,
12,
13,
12,
11,
10,
8,
10,
6,
10,
9,
10,
10,
12,
12,
14,
14,
9,
16,
11,
13,
9,
9,
8,
6,
6,
5,
4,
5,
5,
4,
7,
6,
8,
6,
8,
8,
8,
9,
9,
10,
10,
10,
10,
10,
9,
11,
10,
10,
10,
8,
10,
9,
10,
9,
10,
12,
13,
12,
12,
12,
13,
14,
13,
12,
13,
12,
12,
10,
12,
9,
8,
8,
8,
6,
2,
8,
2,
3,
3,
4,
6,
6,
9,
10,
12,
13,
16,
16,
17,
16,
16,
15,
14,
12,
10,
9,
6,
6,
4,
3,
4,
3,
4,
3,
6,
4,
8,
8,
8,
9,
10,
10,
12,
11,
13,
12,
13,
13,
13,
16,
13,
15,
14,
14,
14,
13,
12,
10,
9,
6,
6,
4,
5,
2,
-3,
-1,
-1,
0,
3,
4,
8,
10,
13,
14,
18,
21,
22,
24,
25,
24,
22,
20,
17,
14,
12,
9,
8,
4,
2,
0,
-1,
-2,
-1,
0,
1,
3,
5,
5,
8,
9,
10,
12,
12,
13,
15,
14,
14,
15,
16,
14,
14,
13,
13,
12,
10,
9,
8,
8,
8,
7,
9,
5,
2,
2,
4,
2,
4,
3,
4,
6,
7,
8,
10,
13,
14,
15,
16,
16,
16,
16,
16,
14,
14,
14,
12,
12,
9,
8,
7,
8,
5,
5,
5,
4,
5,
5,
5,
6,
6,
8,
9,
10,
10,
12,
13,
12,
13,
11,
12,
10,
8,
8,
8,
6,
5,
5,
6,
6,
10,
5,
10,
9,
12,
12,
12,
12,
14,
13,
13,
14,
13,
13,
12,
11,
9,
8,
6,
5,
5,
4,
4,
4,
4,
5,
6,
9,
9,
12,
14,
14,
14,
15,
14,
14,
14,
13,
12,
12,
12,
10,
10,
9,
10,
9,
10,
9,
9,
10,
10,
9,
8,
9,
9,
9,
8,
8,
9,
2,
9,
3,
6,
4,
6,
5,
6,
6,
6,
9,
10,
12,
12,
15,
13,
13,
13,
14,
13,
12,
10,
11,
10,
10,
10,
9,
9,
9,
9,
9,
6,
6,
5,
5,
4,
4,
1,
6,
0,
6,
4,
6,
8,
10,
14,
14,
16,
19,
20,
22,
22,
24,
22,
22,
20,
18,
16,
9,
12,
5,
5,
0,
0,
-3,
-4,
-2,
-2,
-2,
-1,
2,
4,
7,
8,
10,
12,
13,
14,
15,
16,
15,
16,
14,
14,
14,
12,
10,
10,
8,
8,
7,
6,
6,
6,
6,
6,
6,
6,
8,
8,
9,
8,
9,
9,
9,
8,
8,
8,
8,
8,
8,
8,
8,
8,
8,
10,
10,
14,
9,
13,
13,
12,
15,
14,
14,
14,
14,
14,
14,
14,
13,
12,
12,
11,
9,
8,
8,
6,
8,
6,
4,
6,
4,
5,
4,
5,
4,
4,
6,
6,
6,
8,
8,
12,
10,
13,
13,
15,
16,
17,
16,
18,
17,
17,
16,
14,
13,
10,
8,
5,
2,
1,
-1,
-2,
2,
-3,
-4,
-4,
0,
1,
5,
5,
10,
12,
14,
17,
18,
23,
21,
24,
22,
20,
18,
16,
15,
12,
10,
8,
4,
4,
2,
2,
2,
2,
4,
5,
6,
9,
8,
10,
12,
12,
12,
14,
13,
13,
12,
13,
12,
11,
12,
10,
10,
11,
9,
9,
9,
10,
9,
8,
9,
7,
10,
4,
3,
2,
4,
3,
6,
5,
6,
8,
9,
10,
9,
14,
14,
16,
16,
17,
16,
16,
14,
12,
9,
8,
6,
5,
5,
3,
4,
4,
5,
4,
10,
4,
11,
9,
13,
14,
14,
15,
15,
16,
15,
14,
13,
12,
12,
9,
8,
5,
5,
3,
2,
2,
2,
3,
4,
6,
9,
2,
12,
9,
14,
12,
14,
12,
14,
12,
12,
13,
13,
14,
13,
14,
12,
12,
10,
9,
8,
8,
7,
6,
6,
6,
5,
5,
4,
6,
5,
6,
8,
9,
10,
11,
12,
13,
13,
14,
16,
15,
16,
16,
15,
14,
14,
13,
10,
9,
6,
6,
4,
3,
3,
2,
2,
4,
6,
0,
10,
7,
13,
11,
14,
15,
16,
16,
15,
16,
15,
15,
15,
16,
14,
12,
12,
9,
9,
7,
7,
5,
5,
6,
4,
6,
4,
6,
3,
7,
4,
6,
3,
5,
4,
5,
6,
6,
6,
8,
8,
8,
9,
10,
12,
12,
13,
15,
16,
17,
17,
16,
16,
16,
16,
14,
13,
6,
11,
4,
4,
1,
0,
0,
0,
0,
0,
2,
4,
8,
11,
12,
16,
17,
19,
20,
20,
21,
20,
19,
17,
16,
14,
13,
10,
10,
6,
6,
5,
4,
4,
4,
4,
3,
2,
5,
4,
6,
5,
5,
7,
6,
9,
9,
11,
12,
12,
13,
14,
14,
14,
14,
14,
14,
13,
13,
10,
5,
6,
5,
5,
5,
5,
6,
6,
8,
9,
10,
13,
14,
14,
16,
13,
15,
13,
12,
10,
10,
8,
5,
8,
2,
5,
0,
4,
1,
4,
5,
6,
8,
9,
12,
13,
14,
15,
14,
16,
15,
14,
15,
14,
14,
12,
14,
12,
12,
11,
11,
10,
12,
9,
9,
8,
9,
6,
3,
1,
4,
1,
2,
3,
5,
6,
6,
9,
10,
15,
15,
17,
16,
18,
17,
17,
16,
15,
15,
14,
12,
12,
9,
8,
6,
5,
4,
4,
4,
4,
4,
4,
3,
5,
5,
7,
8,
10,
12,
12,
14,
15,
17,
18,
18,
18,
17,
17,
16,
15,
12,
10,
8,
5,
6,
0,
0,
-2,
1,
-2,
2,
2,
2,
6,
8,
12,
12,
17,
16,
18,
17,
17,
16,
14,
12,
9,
12,
4,
8,
4,
5,
4,
5,
6,
6,
9,
10,
10,
12,
11,
12,
12,
12,
9,
10,
9,
9,
8,
6,
6,
5,
6,
6,
8,
8,
10,
10,
13,
12,
15,
14,
14,
15,
7,
14,
8,
9,
8,
7,
8,
6,
7,
6,
8,
9,
12,
12,
14,
14,
15,
14,
14,
13,
10,
10,
8,
5,
5,
4,
3,
4,
5,
8,
9,
10,
12,
12,
13,
15,
14,
14,
14,
13,
13,
11,
9,
6,
6,
5,
4,
4,
4,
3,
5,
4,
7,
8,
10,
12,
13,
14,
12,
16,
13,
13,
12,
12,
10,
10,
10,
8,
8,
8,
9,
9,
8,
9,
6,
6,
8,
6,
10,
6,
10,
9,
10,
11,
12,
13,
14,
13,
14,
13,
13,
13,
12,
11,
10,
8,
8,
6,
6,
6,
6,
6,
8,
6,
9,
8,
8,
8,
10,
11,
11,
10,
13,
12,
14,
12,
12,
14,
8,
10,
9,
10,
10,
10,
10,
10,
10,
11,
12,
12,
12,
11,
12,
9,
12,
8,
10,
10,
11,
12,
12,
14,
14,
15,
16,
15,
14,
12,
12,
9,
9,
8,
6,
4,
4,
2,
2,
2,
4,
5,
6,
8,
10,
10,
12,
12,
14,
14,
14,
14,
14,
12,
13,
11,
14,
10,
5,
5,
5,
4,
6,
4,
6,
6,
9,
9,
11,
13,
12,
15,
12,
14,
10,
12,
8,
6,
5,
4,
4,
2,
2,
2,
2,
2,
3,
4,
5,
8,
9,
12,
13,
14,
16,
18,
18,
19,
19,
17,
17,
14,
15,
13,
10,
10,
7,
8,
5,
5,
4,
4,
4,
5,
9,
5,
5,
4,
8,
6,
9,
9,
10,
11,
12,
15,
14,
17,
17,
18,
17,
18,
16,
15,
14,
13,
10,
8,
6,
6,
3,
2,
1,
2,
2,
3,
4,
6,
5,
8,
8,
10,
10,
12,
12,
12,
10,
12,
12,
13,
11,
11,
12,
11,
11,
11,
10,
11,
10,
10,
11,
11,
13,
8,
12,
9,
12,
9,
11,
9,
10,
9,
9,
8,
9,
7,
10,
8,
10,
8,
9,
8,
6,
8,
6,
8,
6,
8,
8,
8,
8,
9,
8,
9,
9,
9,
10,
10,
10,
10,
11,
12,
11,
13,
13,
15,
16,
16,
16,
16,
14,
14,
12,
10,
9,
6,
4,
2,
0,
1,
0,
-4,
2,
0,
4,
4,
8,
8,
10,
14,
14,
14,
17,
19,
18,
19,
17,
18,
14,
13,
10,
9,
7,
6,
5,
5,
5,
6,
6,
8,
8,
8,
9,
10,
10,
12,
10,
11,
10,
9,
9,
9,
9,
8,
8,
9,
9,
9,
9,
9,
8,
9,
9,
10,
10,
12,
11,
11,
12,
8,
14,
8,
9,
8,
7,
6,
5,
8,
5,
8,
5,
10,
10,
13,
13,
14,
15,
15,
16,
16,
15,
14,
12,
11,
9,
8,
5,
5,
2,
4,
3,
4,
4,
5,
6,
7,
9,
12,
12,
15,
15,
16,
16,
16,
14,
14,
12,
12,
11,
10,
10,
9,
9,
10,
9,
9,
9,
9,
9,
3,
4,
4,
2,
4,
1,
3,
3,
4,
6,
8,
12,
14,
16,
17,
19,
20,
21,
20,
19,
18,
16,
13,
9,
6,
3,
-1,
-2,
-4,
-6,
-6,
-4,
-4,
-1,
1,
4,
8,
11,
15,
16,
18,
19,
20,
21,
21,
20,
18,
18,
16,
14,
12,
9,
8,
6,
5,
4,
9,
3,
1,
0,
2,
2,
4,
5,
4,
8,
6,
10,
10,
13,
13,
15,
14,
14,
16,
16,
17,
17,
17,
17,
16,
16,
14,
14,
13,
13,
12,
12,
11,
10,
9,
8,
8,
6,
6,
6,
4,
5,
2,
5,
4,
5,
5,
8,
8,
9,
10,
12,
12,
12,
13,
12,
13,
11,
12,
8,
8,
6,
6,
6,
6,
8,
9,
10,
9,
13,
12,
17,
16,
18,
18,
17,
14,
13,
10,
8,
4,
2,
-2,
-3,
-6,
-6,
-7,
-6,
-5,
-2,
2,
4,
9,
12,
16,
19,
20,
22,
22,
24,
22,
22,
20,
18,
16,
14,
11,
10,
9,
6,
6,
5,
4,
5,
5,
5,
5,
-1,
8,
0,
5,
1,
4,
4,
4,
5,
5,
8,
9,
12,
14,
18,
18,
20,
21,
21,
21,
20,
18,
17,
12,
10,
6,
2,
0,
-1,
-2,
-1,
-2,
0,
2,
4,
4,
8,
9,
11,
13,
14,
14,
14,
14,
14,
13,
13,
13,
12,
11,
12,
11,
12,
10,
12,
10,
12,
12,
6,
12,
9,
11,
8,
10,
9,
8,
9,
8,
8,
7,
8,
8,
8,
8,
6,
7,
6,
6,
6,
6,
6,
7,
8,
8,
9,
8,
10,
10,
12,
12,
13,
13,
13,
13,
13,
12,
13,
12,
12,
12,
12,
9,
10,
8,
8,
6,
5,
4,
3,
2,
2,
2,
2,
4,
3,
5,
4,
9,
6,
8,
10,
9,
13,
14,
18,
18,
20,
22,
24,
25,
23,
22,
18,
16,
11,
6,
4,
-1,
-3,
-6,
-5,
-6,
-4,
-3,
0,
4,
5,
12,
14,
16,
19,
19,
20,
19,
18,
17,
15,
11,
9,
8,
6,
5,
5,
5,
5,
7,
8,
8,
12,
12,
13,
12,
14,
12,
14,
12,
5,
4,
5,
2,
4,
4,
4,
6,
8,
9,
12,
16,
17,
20,
22,
21,
22,
21,
20,
19,
16,
14,
12,
10,
6,
4,
2,
-2,
-1,
-4,
-3,
-3,
-1,
1,
1,
2,
5,
8,
10,
12,
13,
15,
14,
16,
16,
16,
14,
13,
13,
12,
13,
13,
10,
12,
11,
12,
16,
10,
9,
7,
8,
5,
6,
4,
2,
2,
1,
2,
1,
4,
4,
5,
6,
8,
8,
8,
9,
11,
11,
13,
14,
16,
16,
17,
16,
16,
15,
14,
14,
13,
12,
12,
10,
10,
8,
9,
9,
9,
9,
10,
9,
9,
9,
9,
8,
6,
6,
4,
2,
1,
0,
0,
0,
1,
4,
2,
9,
8,
14,
15,
19,
21,
23,
24,
25,
25,
24,
24,
19,
17,
14,
10,
6,
2,
1,
-3,
-3,
-3,
-3,
-3,
-1,
-2,
1,
1,
4,
6,
8,
10,
10,
13,
13,
14,
14,
15,
14,
17,
15,
17,
17,
17,
17,
18,
18,
19,
20,
16,
20,
16,
16,
12,
9,
5,
1,
-8,
-3,
-10,
-8,
-10,
-8,
-7,
-5,
1,
2,
8,
12,
17,
21,
26,
26,
28,
27,
28,
24,
22,
19,
17,
12,
10,
6,
6,
2,
1,
-1,
-1,
-2,
-2,
-2,
-2,
0,
1,
2,
4,
6,
8,
9,
11,
10,
14,
14,
15,
16,
17,
18,
17,
17,
16,
15,
16,
14,
14,
14,
9,
13,
7,
9,
6,
6,
5,
4,
5,
4,
4,
3,
3,
4,
5,
5,
5,
5,
7,
8,
9,
9,
11,
11,
12,
13,
15,
14,
14,
14,
14,
14,
13,
12,
11,
10,
12,
11,
12,
10,
12,
12,
12,
13,
12,
10,
11,
6,
6,
2,
2,
0,
0,
-1,
0,
0,
2,
4,
6,
9,
6,
12,
12,
15,
16,
18,
19,
19,
19,
18,
19,
18,
19,
17,
17,
16,
16,
15,
13,
12,
12,
10,
10,
9,
8,
5,
4,
2,
1,
0,
0,
-2,
-1,
-1,
-1,
1,
1,
2,
4,
6,
8,
12,
14,
18,
19,
23,
24,
24,
24,
22,
22,
20,
18,
16,
10,
8,
8,
1,
-6,
-8,
-8,
-11,
-10,
-10,
-8,
-6,
-2,
2,
6,
12,
14,
20,
22,
25,
25,
28,
26,
26,
24,
22,
19,
17,
15,
12,
10,
7,
5,
3,
2,
3,
1,
2,
1,
1,
1,
1,
2,
2,
2,
6,
2,
9,
7,
10,
11,
12,
13,
14,
14,
16,
17,
17,
18,
18,
21,
15,
16,
13,
14,
10,
12,
9,
8,
7,
5,
7,
6,
10,
9,
12,
12,
13,
12,
14,
12,
13,
12,
11,
10,
9,
8,
6,
4,
4,
2,
3,
3,
4,
5,
8,
10,
12,
16,
17,
21,
22,
22,
21,
18,
17,
13,
12,
6,
5,
0,
0,
-2,
-3,
-2,
0,
1,
4,
5,
2,
9,
8,
13,
12,
14,
16,
14,
16,
15,
15,
14,
16,
15,
16,
14,
15,
13,
12,
12,
11,
10,
10,
9,
8,
6,
5,
2,
1,
-1,
-2,
-3,
-3,
-4,
-2,
0,
1,
4,
7,
9,
13,
14,
18,
16,
21,
18,
20,
19,
18,
16,
16,
13,
13,
11,
12,
10,
10,
9,
2,
9,
6,
8,
6,
8,
8,
8,
9,
9,
10,
10,
12,
12,
13,
12,
12,
11,
10,
9,
8,
8,
8,
7,
6,
8,
8,
9,
10,
10,
12,
12,
13,
12,
14,
13,
14,
13,
14,
12,
10,
8,
8,
6,
6,
6,
6,
6,
9,
8,
8,
9,
11,
11,
12,
12,
13,
12,
8,
13,
8,
10,
8,
9,
9,
9,
11,
12,
12,
12,
14,
15,
16,
16,
16,
15,
13,
12,
9,
8,
5,
2,
0,
-1,
-2,
0,
-3,
0,
1,
4,
8,
11,
15,
18,
21,
22,
22,
26,
21,
22,
17,
14,
11,
8,
3,
0,
-2,
-4,
-3,
-4,
-2,
1,
1,
5,
8,
9,
12,
16,
12,
14,
13,
14,
14,
13,
12,
10,
9,
9,
9,
10,
9,
10,
9,
10,
10,
9,
9,
9,
8,
8,
8,
7,
8,
6,
5,
5,
6,
8,
6,
9,
9,
11,
10,
13,
10,
13,
12,
14,
14,
15,
17,
16,
18,
16,
16,
16,
14,
14,
13,
11,
10,
9,
7,
8,
10,
8,
3,
4,
5,
4,
6,
6,
6,
8,
6,
8,
8,
9,
8,
8,
8,
8,
6,
8,
6,
8,
8,
9,
9,
11,
10,
14,
12,
16,
14,
16,
17,
14,
17,
10,
13,
10,
8,
6,
5,
5,
4,
6,
5,
8,
8,
10,
10,
12,
13,
13,
14,
14,
13,
12,
12,
10,
10,
4,
3,
0,
1,
-2,
-2,
-1,
0,
2,
4,
8,
10,
14,
16,
19,
18,
21,
20,
20,
19,
18,
15,
14,
12,
10,
8,
6,
5,
5,
5,
6,
5,
5,
7,
6,
8,
9,
10,
10,
10,
10,
9,
10,
9,
8,
8,
8,
8,
8,
8,
8,
6,
8,
9,
10,
11,
12,
13,
8,
14,
10,
12,
10,
12,
11,
10,
10,
9,
11,
11,
12,
12,
15,
13,
14,
13,
13,
12,
12,
10,
8,
8,
6,
6,
5,
4,
4,
4,
5,
2,
6,
4,
8,
7,
9,
10,
12,
14,
14,
15,
16,
17,
16,
16,
16,
15,
13,
13,
12,
9,
9,
8,
5,
4,
2,
1,
-7,
2,
-4,
1,
-1,
2,
5,
8,
11,
13,
16,
17,
20,
21,
22,
22,
21,
21,
17,
17,
12,
13,
10,
10,
7,
8,
6,
8,
8,
8,
6,
8,
6,
8,
5,
6,
4,
4,
4,
3,
4,
4,
5,
8,
9,
11,
13,
14,
14,
14,
14,
13,
12,
11,
8,
6,
6,
4,
1,
5,
-2,
2,
0,
3,
6,
8,
12,
14,
14,
17,
17,
20,
19,
19,
16,
14,
13,
10,
9,
8,
6,
5,
5,
4,
4,
5,
2,
8,
5,
9,
9,
10,
12,
11,
12,
12,
11,
12,
12,
12,
13,
12,
12,
12,
12,
11,
12,
12,
10,
10,
9,
10,
10,
10,
8,
9,
11,
10,
6,
8,
10,
10,
12,
12,
13,
14,
13,
16,
15,
16,
14,
14,
12,
10,
9,
7,
8,
6,
5,
5,
4,
6,
5,
5,
7,
6,
6,
6,
6,
6,
7,
9,
8,
9,
10,
10,
11,
12,
10,
12,
9,
10,
10,
10,
10,
10,
9,
10,
9,
9,
10,
10,
9,
11,
13,
8,
5,
5,
5,
2,
2,
0,
0,
0,
0,
1,
4,
6,
9,
10,
14,
16,
18,
18,
20,
22,
21,
21,
21,
13,
17,
10,
10,
6,
4,
2,
0,
-1,
-4,
-3,
-4,
-2,
-2,
1,
1,
6,
9,
11,
14,
18,
22,
23,
24,
26,
24,
22,
20,
17,
14,
12,
9,
8,
5,
-1,
1,
-2,
1,
-2,
2,
2,
4,
5,
7,
8,
8,
12,
12,
16,
16,
17,
18,
19,
18,
20,
18,
19,
16,
17,
12,
12,
8,
5,
3,
1,
-2,
-3,
-5,
-6,
-6,
-4,
-3,
0,
1,
6,
8,
12,
14,
18,
18,
20,
21,
21,
18,
18,
15,
14,
12,
10,
9,
6,
7,
-1,
8,
1,
5,
2,
6,
5,
6,
9,
9,
10,
10,
10,
12,
12,
12,
10,
10,
8,
8,
5,
8,
4,
6,
5,
8,
8,
10,
10,
13,
13,
15,
16,
16,
17,
16,
17,
16,
16,
15,
14,
14,
13,
10,
11,
8,
8,
4,
2,
1,
0,
-2,
-1,
0,
-2,
2,
2,
6,
3,
12,
9,
13,
14,
16,
18,
17,
19,
18,
18,
18,
18,
18,
18,
17,
16,
14,
14,
12,
10,
8,
6,
3,
0,
-2,
-4,
-5,
-7,
-6,
-7,
-6,
-4,
-1,
1,
5,
9,
13,
16,
20,
24,
26,
28,
28,
27,
28,
24,
22,
17,
14,
10,
8,
3,
1,
-1,
-1,
-2,
-2,
-1,
1,
-2,
1,
2,
5,
6,
8,
9,
12,
12,
14,
16,
18,
17,
18,
16,
17,
18,
14,
17,
14,
15,
14,
13,
12,
11,
10,
9,
8,
7,
6,
5,
5,
4,
5,
3,
5,
4,
6,
4,
6,
5,
6,
6,
5,
4,
6,
5,
6,
8,
9,
9,
10,
13,
14,
17,
18,
21,
19,
16,
16,
16,
14,
16,
13,
14,
12,
12,
12,
12,
13,
8,
8,
2,
1,
-3,
-4,
-6,
-5,
-7,
-5,
-4,
-1,
1,
5,
9,
12,
15,
18,
21,
23,
24,
25,
24,
24,
22,
20,
17,
14,
12,
9,
8,
4,
4,
3,
4,
2,
4,
5,
5,
6,
7,
7,
6,
8,
9,
4,
6,
2,
6,
1,
6,
5,
8,
9,
12,
17,
18,
22,
22,
26,
25,
28,
24,
24,
20,
17,
13,
10,
6,
3,
0,
-2,
-4,
-4,
-4,
-4,
-4,
-2,
0,
1,
4,
6,
9,
12,
14,
14,
14,
14,
16,
16,
16,
17,
16,
18,
18,
18,
18,
18,
18,
17,
15,
13,
12,
3,
8,
0,
0,
-6,
-5,
-6,
-7,
-7,
-7,
-4,
-2,
4,
8,
11,
16,
18,
21,
23,
23,
24,
24,
24,
21,
20,
17,
14,
11,
9,
5,
2,
0,
-3,
-2,
-4,
-2,
-2,
0,
1,
4,
4,
8,
9,
10,
13,
14,
14,
17,
16,
17,
16,
16,
15,
14,
14,
14,
12,
12,
6,
11,
6,
8,
6,
9,
8,
10,
9,
11,
9,
12,
10,
13,
13,
13,
11,
11,
10,
8,
8,
4,
4,
2,
2,
2,
1,
2,
2,
5,
8,
10,
12,
13,
16,
17,
17,
16,
17,
16,
15,
13,
12,
13,
9,
9,
9,
9,
9,
10,
10,
12,
10,
11,
10,
6,
5,
2,
1,
1,
-6,
-3,
-4,
-2,
0,
2,
8,
11,
15,
19,
21,
26,
28,
28,
28,
26,
24,
21,
16,
14,
8,
6,
2,
-1,
-2,
-4,
-5,
-4,
-4,
-3,
-2,
0,
4,
5,
8,
8,
9,
13,
12,
14,
14,
15,
16,
17,
18,
18,
17,
18,
17,
18,
16,
16,
13,
11,
9,
8,
9,
5,
-1,
-2,
0,
-3,
-1,
-1,
1,
1,
5,
8,
11,
17,
18,
21,
22,
24,
22,
22,
21,
19,
17,
15,
12,
10,
7,
8,
6,
6,
5,
6,
5,
5,
5,
6,
5,
8,
6,
6,
6,
8,
8,
9,
8,
9,
8,
8,
6,
6,
5,
6,
6,
6,
7,
8,
11,
12,
19,
16,
18,
19,
24,
24,
25,
23,
20,
18,
14,
10,
5,
4,
-2,
-3,
-6,
-9,
-10,
-8,
-8,
-6,
-3,
1,
5,
10,
14,
20,
24,
27,
29,
30,
29,
26,
26,
20,
19,
14,
11,
8,
4,
4,
1,
1,
0,
2,
1,
4,
5,
6,
8,
9,
10,
9,
12,
12,
13,
14,
14,
8,
12,
8,
9,
6,
10,
4,
10,
8,
11,
10,
14,
13,
14,
15,
14,
14,
13,
12,
10,
10,
10,
9,
8,
8,
9,
9,
11,
11,
12,
12,
11,
9,
9,
5,
1,
-2,
-3,
-4,
-5,
-4,
-2,
1,
4,
9,
14,
17,
22,
24,
26,
27,
27,
26,
24,
21,
18,
14,
10,
0,
6,
-2,
-1,
-5,
-3,
-4,
-3,
-2,
0,
1,
5,
8,
11,
13,
14,
14,
16,
17,
17,
17,
15,
16,
16,
16,
14,
14,
14,
13,
14,
12,
12,
10,
11,
11,
10,
10,
10,
10,
9,
8,
6,
4,
4,
2,
1,
1,
0,
1,
2,
3,
5,
8,
11,
14,
16,
18,
20,
17,
26,
19,
20,
19,
17,
17,
14,
13,
10,
8,
8,
6,
6,
4,
3,
2,
1,
0,
2,
1,
3,
4,
6,
8,
9,
10,
10,
10,
11,
10,
10,
10,
9,
10,
10,
10,
14,
13,
16,
16,
18,
19,
20,
20,
20,
18,
16,
13,
10,
8,
5,
2,
0,
-3,
-3,
-4,
-4,
0,
0,
-4,
0,
2,
4,
9,
12,
16,
17,
20,
22,
24,
24,
24,
23,
20,
18,
16,
14,
10,
8,
6,
4,
2,
0,
0,
-1,
-2,
1,
0,
2,
2,
6,
6,
9,
10,
11,
12,
12,
13,
14,
14,
13,
14,
14,
14,
14,
14,
14,
14,
14,
13,
13,
11,
11,
10,
12,
10,
9,
3,
3,
4,
2,
3,
2,
2,
3,
4,
5,
6,
10,
10,
13,
12,
14,
12,
12,
12,
11,
9,
9,
8,
8,
6,
9,
9,
11,
12,
14,
15,
17,
17,
18,
18,
17,
17,
14,
12,
10,
8,
5,
2,
0,
0,
-1,
-1,
-2,
0,
1,
4,
7,
11,
13,
17,
20,
25,
20,
25,
22,
24,
20,
19,
16,
14,
10,
8,
5,
4,
2,
2,
2,
4,
3,
4,
5,
7,
8,
9,
8,
8,
6,
6,
3,
4,
2,
1,
-1,
0,
1,
2,
5,
9,
12,
16,
18,
22,
24,
25,
23,
25,
22,
21,
17,
15,
12,
9,
6,
3,
0,
0,
-3,
-3,
-3,
-2,
-8,
1,
-1,
5,
4,
9,
10,
14,
14,
16,
16,
17,
17,
17,
19,
20,
21,
21,
22,
22,
21,
20,
17,
15,
11,
9,
8,
4,
2,
1,
-1,
-2,
-2,
-1,
0,
0,
2,
0,
0,
1,
1,
2,
5,
9,
13,
16,
18,
22,
24,
26,
26,
26,
26,
25,
23,
19,
15,
13,
2,
6,
-6,
-5,
-9,
-10,
-11,
-10,
-8,
-5,
-3,
0,
4,
8,
13,
16,
17,
21,
21,
21,
21,
18,
18,
17,
14,
13,
12,
11,
12,
12,
12,
12,
12,
13,
12,
14,
13,
13,
10,
10,
8,
8,
5,
5,
4,
5,
4,
4,
4,
4,
4,
6,
6,
10,
8,
11,
9,
10,
12,
11,
5,
6,
3,
3,
2,
1,
1,
2,
2,
5,
6,
