data/ALL0006/A0006CH2.CSV

Memory Length,4000,
Trigger Level,0.000E+00,
Source,CH2,
Probe,1X,
Vertical Units,V,
Vertical Scale,1.000E-02,
Vertical Position,0.000E+00,
Horizontal Units,s,
Horizontal Scale,2.500E-05,
Horizontal Position,4.000E-06,
Horizontal Mode,Main,
Sampling Period,1.000E-07,
Firmware,V1.13,
Time, ,
Mode,Fast,
Waveform Data,
29,
29,
23,
24,
28,
21,
18,
16,
14,
9,
9,
4,
3,
0,
1,
2,
4,
8,
9,
12,
13,
14,
14,
15,
16,
14,
16,
14,
14,
12,
11,
8,
4,
1,
-2,
-5,
-6,
1,
-12,
-4,
-8,
-3,
-2,
-1,
1,
5,
5,
6,
13,
12,
10,
13,
16,
14,
16,
16,
16,
16,
16,
14,
14,
13,
14,
6,
10,
7,
11,
6,
10,
7,
8,
6,
5,
6,
6,
8,
8,
10,
14,
15,
18,
20,
21,
25,
26,
27,
26,
26,
25,
22,
20,
18,
16,
14,
14,
13,
14,
14,
13,
14,
15,
13,
13,
10,
8,
3,
-2,
-8,
-11,
-15,
-15,
-16,
-16,
-15,
-12,
-12,
-9,
-7,
-4,
-3,
4,
-3,
10,
9,
17,
15,
26,
22,
28,
27,
28,
28,
26,
28,
24,
22,
19,
17,
12,
8,
4,
1,
-2,
-3,
-5,
-6,
-6,
-6,
-6,
-4,
-1,
1,
4,
8,
8,
16,
19,
22,
27,
32,
34,
34,
34,
32,
28,
22,
18,
12,
8,
6,
2,
1,
0,
-1,
-4,
-6,
-7,
-9,
-10,
-19,
-7,
-12,
-4,
-4,
1,
3,
6,
11,
13,
16,
19,
23,
26,
30,
32,
34,
34,
35,
33,
32,
34,
20,
23,
14,
13,
6,
0,
-1,
-3,
-6,
-4,
-7,
-4,
-3,
-1,
0,
0,
1,
1,
2,
2,
4,
4,
8,
8,
10,
12,
13,
14,
15,
16,
15,
16,
17,
17,
18,
18,
14,
24,
16,
17,
14,
12,
12,
9,
8,
8,
6,
6,
5,
4,
4,
1,
0,
-1,
-3,
-4,
-4,
-6,
-3,
-4,
-1,
1,
1,
8,
10,
10,
14,
15,
16,
18,
19,
20,
19,
20,
20,
17,
18,
16,
15,
12,
18,
4,
11,
4,
4,
2,
0,
-2,
0,
-6,
-4,
-4,
-3,
-2,
4,
6,
4,
9,
12,
12,
16,
14,
16,
17,
21,
26,
32,
40,
45,
50,
52,
52,
49,
44,
40,
33,
28,
24,
17,
12,
6,
1,
-5,
-11,
-16,
-20,
-24,
-27,
-30,
-32,
-32,
-32,
-31,
-28,
-24,
-20,
-13,
-7,
1,
6,
13,
19,
25,
30,
33,
37,
39,
40,
41,
37,
37,
32,
31,
22,
14,
9,
6,
-1,
-3,
-8,
-11,
-14,
-14,
-16,
-11,
-11,
-4,
-2,
2,
9,
14,
20,
20,
25,
29,
30,
34,
34,
34,
34,
33,
31,
29,
25,
24,
20,
15,
11,
4,
-4,
-10,
-17,
-23,
-28,
-29,
-31,
-28,
-24,
-19,
-16,
-11,
-7,
-2,
2,
6,
12,
17,
22,
30,
35,
40,
38,
43,
40,
42,
37,
38,
34,
32,
28,
26,
22,
18,
17,
14,
10,
10,
5,
3,
0,
-2,
-3,
-6,
-8,
-8,
-9,
-8,
-7,
-4,
-3,
0,
2,
4,
7,
5,
8,
8,
10,
8,
4,
9,
6,
9,
9,
12,
12,
16,
18,
20,
22,
24,
25,
24,
25,
22,
21,
19,
17,
14,
5,
12,
3,
5,
-1,
1,
-2,
-3,
-2,
-6,
-2,
-4,
1,
-3,
-1,
1,
2,
2,
4,
5,
6,
8,
9,
12,
14,
13,
17,
16,
16,
17,
17,
16,
16,
15,
15,
13,
12,
9,
6,
4,
1,
-1,
-2,
-2,
0,
1,
5,
6,
10,
10,
13,
14,
17,
20,
22,
30,
26,
34,
29,
43,
37,
41,
40,
40,
35,
32,
27,
22,
16,
14,
13,
10,
9,
5,
2,
-3,
-8,
-14,
-19,
-23,
-25,
-27,
-27,
-27,
-25,
-23,
-20,
-16,
-13,
-10,
-4,
2,
7,
12,
16,
20,
25,
26,
29,
28,
29,
27,
26,
26,
26,
25,
26,
24,
22,
20,
17,
15,
12,
10,
10,
7,
8,
10,
3,
8,
9,
8,
9,
10,
12,
10,
10,
12,
11,
10,
10,
8,
7,
5,
5,
4,
2,
0,
0,
0,
-2,
-2,
-3,
-4,
0,
-3,
0,
1,
3,
4,
9,
9,
14,
16,
18,
19,
21,
20,
20,
20,
19,
18,
18,
19,
19,
20,
19,
18,
18,
17,
18,
18,
18,
18,
21,
19,
14,
15,
14,
12,
13,
11,
11,
10,
8,
8,
8,
6,
5,
2,
0,
-2,
-4,
-4,
-6,
-6,
-6,
-6,
-6,
-5,
-4,
-4,
-3,
-3,
-2,
0,
2,
5,
9,
14,
19,
24,
28,
29,
33,
32,
33,
32,
33,
29,
29,
24,
21,
20,
10,
11,
3,
3,
-2,
-6,
-8,
-11,
-8,
-15,
-15,
-16,
-12,
-13,
-8,
-6,
-2,
1,
6,
10,
14,
20,
22,
26,
29,
30,
30,
30,
28,
26,
23,
18,
13,
6,
1,
-2,
-4,
-4,
-2,
1,
6,
10,
16,
18,
21,
21,
24,
24,
27,
28,
29,
29,
26,
22,
15,
10,
2,
-1,
-4,
-3,
0,
2,
8,
10,
13,
14,
17,
8,
13,
10,
15,
12,
16,
16,
17,
18,
17,
13,
11,
8,
2,
-2,
-11,
-12,
-19,
-21,
-24,
-25,
-24,
-22,
-19,
-14,
-10,
-3,
2,
8,
15,
21,
26,
32,
37,
40,
42,
42,
43,
39,
41,
34,
30,
26,
22,
18,
14,
10,
6,
1,
-1,
-5,
-8,
-10,
-11,
-13,
-14,
-13,
-11,
-15,
-4,
-6,
0,
-1,
4,
4,
6,
9,
10,
14,
16,
18,
21,
23,
26,
27,
28,
29,
26,
26,
24,
21,
19,
17,
13,
12,
9,
8,
4,
2,
1,
4,
-4,
0,
-2,
2,
2,
4,
6,
14,
14,
20,
20,
24,
23,
25,
24,
24,
23,
21,
21,
17,
16,
13,
10,
7,
4,
-6,
2,
-5,
-3,
-6,
-4,
-2,
0,
2,
4,
4,
6,
7,
8,
10,
8,
8,
6,
5,
4,
5,
5,
5,
4,
6,
8,
9,
12,
14,
16,
16,
17,
21,
18,
22,
21,
21,
20,
20,
16,
15,
12,
8,
5,
2,
0,
-1,
-3,
-4,
-5,
-5,
-6,
-4,
-4,
-3,
0,
1,
4,
8,
10,
8,
10,
10,
15,
16,
18,
19,
20,
21,
21,
22,
23,
23,
24,
24,
24,
22,
21,
19,
17,
17,
16,
16,
16,
14,
14,
12,
10,
10,
8,
8,
8,
7,
4,
2,
0,
-3,
-6,
-8,
-8,
-8,
-3,
2,
8,
12,
17,
21,
24,
23,
22,
22,
20,
18,
20,
20,
19,
21,
16,
10,
7,
4,
-3,
-3,
-7,
-7,
-8,
-8,
-6,
-5,
-2,
-2,
0,
0,
0,
1,
2,
4,
10,
3,
13,
12,
16,
16,
18,
21,
26,
24,
26,
24,
22,
21,
20,
17,
13,
13,
10,
8,
6,
4,
2,
1,
-2,
-3,
-3,
-4,
-4,
-4,
-4,
-4,
-2,
1,
3,
8,
12,
16,
16,
22,
22,
28,
27,
31,
29,
29,
28,
26,
24,
21,
19,
16,
14,
12,
10,
8,
7,
4,
2,
0,
-3,
-5,
-5,
-7,
-7,
-6,
-5,
-3,
-1,
2,
4,
8,
11,
14,
17,
19,
22,
22,
26,
26,
25,
24,
21,
24,
20,
17,
16,
12,
8,
11,
3,
4,
1,
1,
1,
2,
-5,
4,
0,
3,
0,
0,
-2,
-4,
-3,
-4,
-4,
1,
6,
6,
13,
17,
19,
19,
20,
20,
18,
16,
15,
14,
12,
10,
10,
9,
9,
8,
6,
5,
5,
4,
5,
3,
4,
2,
2,
1,
0,
1,
1,
2,
5,
6,
10,
12,
16,
17,
19,
21,
24,
24,
25,
24,
24,
23,
16,
22,
13,
12,
8,
6,
6,
4,
8,
12,
5,
16,
16,
20,
22,
21,
19,
21,
16,
17,
13,
13,
10,
8,
5,
1,
-3,
-6,
-9,
-11,
-10,
-11,
-8,
-6,
-2,
2,
5,
9,
12,
16,
18,
20,
23,
24,
26,
26,
28,
28,
28,
26,
26,
21,
18,
14,
8,
2,
0,
-6,
-8,
-10,
-16,
-18,
-17,
-18,
-15,
-14,
-8,
-6,
0,
5,
12,
16,
20,
24,
26,
26,
28,
25,
26,
24,
24,
23,
22,
22,
21,
19,
17,
14,
12,
8,
4,
5,
-6,
-5,
-9,
-8,
-10,
-11,
-6,
-6,
-2,
0,
4,
6,
9,
13,
18,
21,
24,
26,
28,
29,
27,
28,
26,
26,
29,
22,
17,
14,
13,
11,
10,
6,
4,
0,
-2,
-3,
-4,
-3,
-5,
-4,
-4,
-2,
0,
0,
4,
5,
10,
13,
16,
17,
20,
21,
22,
22,
23,
22,
20,
20,
17,
16,
14,
11,
10,
8,
5,
4,
2,
1,
-1,
0,
0,
0,
1,
0,
0,
3,
0,
4,
2,
3,
5,
6,
15,
9,
11,
12,
13,
10,
17,
12,
16,
14,
14,
16,
14,
15,
12,
10,
8,
4,
0,
-1,
-3,
-5,
-5,
-3,
-1,
1,
6,
9,
13,
17,
19,
20,
22,
24,
23,
24,
22,
24,
22,
21,
18,
16,
13,
8,
3,
0,
-6,
-6,
-8,
-3,
1,
6,
13,
19,
26,
30,
30,
32,
30,
18,
25,
20,
22,
18,
20,
18,
16,
13,
9,
6,
2,
0,
-4,
-3,
-7,
-8,
-11,
-12,
-14,
-15,
-15,
-16,
-9,
-6,
-1,
5,
10,
12,
21,
18,
24,
24,
26,
27,
26,
27,
26,
28,
26,
22,
20,
17,
13,
10,
6,
4,
1,
0,
-1,
0,
-2,
0,
-2,
-1,
-2,
-2,
-2,
-11,
2,
-2,
3,
4,
9,
12,
14,
17,
17,
20,
20,
22,
20,
22,
20,
18,
17,
14,
13,
10,
7,
5,
2,
2,
0,
0,
-2,
0,
-2,
0,
0,
0,
2,
5,
6,
10,
13,
18,
21,
24,
26,
28,
28,
28,
29,
24,
26,
20,
18,
15,
12,
8,
11,
3,
4,
1,
1,
-7,
1,
-6,
-3,
-4,
-3,
-2,
-1,
2,
4,
5,
8,
10,
13,
16,
16,
18,
18,
17,
17,
16,
14,
13,
12,
12,
9,
9,
6,
9,
5,
5,
4,
5,
3,
4,
3,
4,
4,
5,
4,
4,
4,
4,
4,
4,
5,
6,
10,
13,
16,
20,
21,
23,
23,
21,
18,
15,
11,
9,
6,
0,
2,
1,
1,
4,
4,
6,
6,
6,
11,
2,
10,
6,
8,
8,
6,
5,
10,
7,
11,
8,
11,
8,
10,
6,
6,
2,
2,
2,
4,
6,
10,
14,
18,
24,
29,
34,
37,
40,
41,
41,
41,
40,
37,
34,
30,
26,
20,
14,
9,
4,
-3,
-8,
-12,
-16,
-19,
-20,
-22,
-27,
-28,
-27,
-27,
-24,
-22,
-19,
-15,
-11,
-4,
3,
9,
19,
28,
32,
41,
45,
46,
46,
44,
40,
36,
29,
24,
17,
12,
8,
4,
3,
0,
0,
-2,
-3,
4,
-7,
3,
0,
1,
6,
3,
4,
13,
9,
17,
16,
20,
18,
20,
20,
16,
14,
12,
6,
8,
6,
5,
8,
2,
4,
0,
0,
-5,
-4,
-13,
-6,
-2,
4,
5,
8,
14,
15,
18,
17,
18,
17,
18,
17,
16,
16,
17,
16,
16,
17,
18,
18,
18,
18,
19,
18,
18,
17,
16,
14,
11,
9,
6,
3,
2,
1,
0,
0,
0,
0,
0,
-1,
1,
0,
2,
1,
3,
4,
6,
7,
10,
11,
8,
8,
13,
10,
12,
12,
12,
13,
18,
14,
18,
16,
20,
17,
18,
17,
16,
14,
12,
10,
9,
6,
5,
4,
2,
1,
1,
0,
-2,
-3,
-6,
-6,
-7,
-6,
-4,
-2,
3,
8,
13,
18,
24,
28,
33,
36,
40,
40,
41,
40,
36,
33,
28,
20,
11,
5,
-3,
-9,
-16,
-20,
-30,
-24,
-32,
-27,
-29,
-28,
-25,
-23,
-19,
-16,
-9,
1,
10,
20,
30,
38,
44,
48,
51,
53,
56,
58,
60,
61,
66,
54,
56,
45,
38,
28,
17,
8,
2,
-9,
-14,
-22,
-27,
-32,
-35,
-37,
-38,
-39,
-38,
-34,
-32,
-27,
-22,
-13,
-10,
0,
5,
13,
18,
26,
31,
33,
36,
36,
37,
40,
30,
34,
32,
32,
30,
29,
25,
22,
16,
13,
8,
4,
2,
-1,
-1,
-2,
-1,
0,
1,
2,
2,
5,
6,
9,
10,
13,
16,
20,
21,
22,
23,
22,
20,
18,
16,
14,
12,
9,
6,
4,
3,
0,
-2,
-4,
-6,
-7,
-2,
-14,
-6,
-10,
-6,
-4,
-4,
-2,
5,
2,
13,
11,
9,
12,
13,
16,
18,
23,
25,
27,
29,
33,
33,
36,
33,
34,
30,
28,
24,
19,
16,
12,
8,
5,
1,
-2,
-5,
-9,
-10,
-14,
-14,
-14,
-13,
-9,
-7,
-2,
1,
6,
8,
10,
12,
14,
14,
16,
16,
16,
17,
17,
17,
18,
17,
17,
14,
14,
13,
11,
11,
9,
14,
4,
6,
3,
6,
4,
5,
4,
4,
4,
3,
5,
4,
6,
4,
2,
6,
5,
4,
8,
5,
5,
10,
12,
14,
17,
21,
24,
26,
29,
29,
32,
29,
29,
26,
24,
20,
14,
9,
5,
0,
-4,
-10,
-13,
-17,
-18,
-19,
-19,
-18,
-14,
-11,
-6,
1,
7,
13,
18,
23,
26,
28,
20,
28,
23,
27,
26,
29,
30,
33,
34,
34,
32,
29,
27,
20,
16,
12,
8,
2,
0,
-6,
-6,
-10,
-12,
-14,
-14,
-15,
-14,
-13,
-12,
-9,
-6,
-2,
1,
4,
8,
12,
14,
16,
24,
16,
22,
18,
20,
18,
16,
17,
15,
13,
12,
10,
9,
9,
10,
12,
14,
18,
20,
21,
13,
24,
16,
21,
17,
16,
18,
18,
16,
17,
16,
14,
12,
8,
5,
2,
1,
-2,
-3,
-4,
-5,
-4,
-4,
-4,
-3,
-2,
0,
2,
4,
7,
9,
11,
13,
16,
18,
20,
24,
23,
24,
24,
22,
20,
16,
14,
10,
7,
4,
2,
1,
2,
1,
2,
4,
5,
8,
10,
11,
14,
9,
20,
13,
18,
18,
13,
18,
13,
15,
13,
9,
9,
12,
9,
12,
9,
9,
8,
6,
5,
4,
2,
1,
0,
0,
1,
2,
4,
2,
2,
2,
2,
2,
4,
2,
4,
4,
8,
9,
10,
12,
14,
14,
16,
14,
16,
15,
16,
14,
14,
13,
12,
12,
12,
12,
13,
14,
16,
17,
18,
12,
13,
11,
10,
10,
7,
6,
5,
5,
5,
6,
9,
8,
9,
9,
9,
9,
9,
8,
8,
8,
9,
9,
8,
8,
9,
14,
6,
14,
14,
18,
22,
22,
23,
28,
25,
25,
24,
20,
16,
12,
6,
1,
-2,
-5,
-8,
-8,
-8,
-8,
-6,
-4,
-2,
0,
2,
5,
8,
12,
12,
12,
13,
17,
18,
21,
22,
25,
25,
24,
25,
22,
22,
17,
14,
11,
6,
2,
-2,
-4,
-8,
-10,
-11,
-11,
-11,
-10,
-8,
-6,
-4,
0,
2,
8,
10,
15,
17,
20,
22,
24,
26,
29,
32,
33,
35,
35,
35,
34,
32,
28,
21,
16,
9,
4,
-4,
-2,
-6,
-8,
-8,
-8,
-15,
-8,
-16,
-8,
-13,
-8,
-6,
-2,
2,
8,
11,
16,
21,
24,
28,
31,
32,
32,
33,
32,
31,
28,
22,
21,
17,
9,
7,
3,
-2,
-4,
-6,
-7,
-8,
-7,
-6,
-4,
-1,
1,
4,
5,
8,
10,
12,
13,
13,
14,
15,
15,
15,
14,
13,
13,
13,
10,
12,
10,
10,
10,
2,
12,
5,
9,
6,
9,
8,
9,
9,
8,
6,
6,
7,
6,
8,
8,
8,
6,
12,
5,
8,
4,
5,
2,
0,
1,
1,
2,
2,
4,
7,
10,
14,
16,
20,
22,
24,
26,
26,
26,
25,
24,
23,
21,
18,
15,
11,
8,
4,
0,
-4,
-8,
-9,
-10,
-9,
-8,
-6,
-3,
-6,
6,
4,
10,
10,
15,
16,
20,
24,
26,
31,
36,
40,
41,
42,
41,
38,
32,
26,
20,
15,
10,
5,
1,
-3,
-8,
-12,
-16,
-20,
-22,
-22,
-21,
-18,
-12,
-8,
-2,
1,
4,
8,
11,
15,
19,
24,
24,
32,
30,
32,
32,
29,
23,
27,
16,
15,
8,
3,
-3,
-7,
-10,
-14,
-14,
-22,
-18,
-19,
-16,
-13,
-8,
-3,
2,
8,
16,
21,
28,
31,
34,
37,
38,
37,
36,
34,
32,
29,
28,
24,
22,
19,
16,
13,
8,
2,
-1,
-7,
-9,
-10,
-11,
-9,
-7,
-5,
-2,
-3,
-3,
1,
-2,
2,
2,
5,
10,
16,
21,
26,
28,
31,
30,
31,
29,
28,
26,
28,
24,
17,
16,
12,
8,
5,
1,
-2,
-2,
-10,
-6,
-10,
-8,
-8,
-10,
-8,
-4,
-3,
1,
4,
9,
11,
16,
19,
21,
24,
26,
27,
27,
27,
24,
24,
20,
18,
14,
11,
6,
3,
1,
-2,
-3,
-4,
-6,
-6,
-6,
-5,
-4,
-2,
-1,
2,
5,
9,
10,
12,
15,
16,
17,
22,
13,
13,
9,
9,
5,
5,
4,
6,
7,
9,
12,
14,
18,
19,
20,
20,
20,
18,
18,
15,
13,
11,
9,
5,
2,
0,
-1,
-2,
-3,
-2,
1,
-1,
3,
1,
6,
6,
8,
12,
11,
10,
16,
14,
16,
14,
14,
13,
14,
16,
17,
21,
25,
27,
30,
30,
29,
27,
24,
23,
11,
17,
10,
14,
8,
10,
6,
5,
2,
-1,
-4,
-8,
-8,
-11,
-10,
-9,
-10,
-8,
-8,
-7,
-4,
-3,
0,
4,
10,
17,
24,
29,
33,
36,
36,
35,
32,
28,
23,
20,
14,
12,
4,
0,
-6,
-11,
-16,
-20,
-24,
-25,
-24,
-21,
-18,
-12,
-7,
0,
5,
12,
16,
22,
24,
33,
18,
39,
30,
37,
34,
36,
34,
37,
32,
31,
25,
20,
16,
10,
5,
0,
-4,
-7,
-10,
-12,
-12,
-14,
-15,
-14,
-11,
-9,
-5,
-1,
2,
6,
10,
13,
14,
17,
18,
21,
24,
26,
30,
32,
34,
36,
36,
34,
32,
28,
24,
19,
14,
9,
3,
-1,
-7,
-10,
-13,
-15,
-16,
-17,
-21,
-12,
-18,
-12,
-10,
-4,
1,
6,
13,
17,
20,
27,
29,
32,
36,
34,
35,
33,
32,
29,
25,
20,
16,
12,
10,
0,
1,
-6,
-7,
-9,
-12,
-12,
-10,
-12,
-8,
-7,
-5,
-4,
-2,
-1,
0,
2,
4,
8,
12,
14,
18,
22,
25,
28,
29,
28,
28,
27,
25,
23,
20,
18,
17,
14,
5,
6,
3,
0,
0,
-3,
-3,
-6,
-6,
-4,
-2,
0,
3,
6,
9,
9,
12,
12,
12,
13,
12,
12,
12,
10,
8,
5,
2,
2,
2,
4,
6,
11,
15,
20,
26,
29,
32,
33,
34,
34,
36,
36,
35,
33,
30,
26,
20,
18,
5,
5,
-6,
-11,
-17,
-22,
-23,
-25,
-20,
-23,
-23,
-22,
-18,
-17,
-11,
-8,
0,
7,
16,
25,
33,
41,
44,
49,
49,
49,
46,
45,
42,
36,
31,
25,
18,
11,
2,
-7,
-15,
-22,
-27,
-30,
-31,
-31,
-29,
-28,
-24,
-20,
-14,
-12,
-6,
-2,
4,
11,
16,
24,
30,
36,
42,
46,
48,
47,
46,
44,
39,
34,
30,
25,
23,
11,
13,
5,
5,
-2,
-4,
-10,
-13,
-17,
-19,
-20,
-20,
-17,
-17,
-12,
-8,
2,
8,
15,
21,
26,
29,
36,
32,
35,
34,
34,
33,
33,
33,
31,
28,
25,
21,
14,
9,
2,
-3,
-7,
-12,
-12,
-14,
-14,
-14,
-12,
-10,
-8,
-6,
0,
0,
4,
8,
10,
14,
14,
17,
18,
21,
13,
24,
17,
21,
14,
16,
13,
14,
14,
12,
12,
14,
14,
13,
13,
12,
9,
6,
3,
1,
-2,
-3,
-7,
-7,
-7,
-6,
-3,
0,
2,
6,
9,
12,
14,
17,
20,
22,
26,
28,
30,
37,
23,
29,
20,
20,
13,
10,
4,
6,
-1,
2,
-2,
-1,
-2,
-2,
-2,
-2,
-4,
-3,
-9,
1,
-5,
0,
-3,
1,
0,
1,
4,
4,
8,
12,
17,
21,
26,
26,
29,
29,
29,
29,
28,
29,
30,
30,
31,
32,
33,
33,
32,
30,
26,
24,
20,
14,
10,
3,
-3,
-6,
-14,
-17,
-19,
-22,
-22,
-21,
-19,
-18,
-17,
-15,
-12,
-10,
-4,
1,
9,
16,
24,
32,
38,
42,
43,
46,
37,
37,
33,
29,
26,
19,
17,
12,
5,
2,
-4,
-8,
-7,
-13,
-13,
-16,
-15,
-15,
-15,
-14,
-10,
-9,
-5,
-1,
4,
9,
13,
18,
21,
24,
26,
27,
26,
26,
24,
22,
20,
18,
17,
14,
14,
13,
12,
10,
8,
8,
7,
5,
5,
4,
5,
6,
7,
7,
7,
6,
10,
5,
2,
2,
4,
4,
9,
10,
16,
18,
21,
24,
25,
26,
24,
24,
21,
19,
17,
13,
13,
9,
8,
4,
2,
0,
-1,
-3,
-3,
-4,
-4,
-2,
-4,
3,
3,
6,
10,
11,
12,
18,
15,
18,
18,
18,
18,
17,
16,
13,
12,
9,
8,
6,
5,
4,
4,
2,
1,
0,
1,
-6,
-2,
-4,
1,
0,
5,
6,
10,
12,
16,
20,
22,
28,
29,
31,
31,
30,
28,
25,
21,
17,
12,
8,
5,
2,
-1,
-3,
-4,
-6,
-8,
-9,
-11,
-12,
-12,
-12,
-10,
-8,
-5,
-2,
1,
4,
8,
10,
12,
13,
14,
16,
20,
21,
24,
25,
26,
28,
28,
26,
28,
22,
28,
16,
26,
18,
18,
10,
16,
8,
11,
9,
11,
12,
13,
18,
19,
22,
20,
20,
17,
16,
12,
9,
5,
1,
-2,
-4,
-5,
-7,
-6,
-6,
-5,
-5,
-6,
-5,
-6,
-6,
-5,
0,
2,
8,
14,
19,
25,
30,
32,
34,
34,
34,
33,
30,
28,
23,
18,
14,
9,
6,
1,
-3,
-6,
-17,
-7,
-14,
-10,
-12,
-8,
-6,
-2,
1,
6,
10,
13,
18,
22,
25,
27,
25,
25,
22,
20,
16,
14,
16,
4,
8,
0,
0,
-3,
-6,
-8,
-5,
-10,
-6,
-7,
-3,
-1,
3,
8,
13,
18,
23,
28,
32,
33,
36,
34,
34,
30,
26,
18,
14,
8,
2,
0,
-2,
-1,
0,
2,
1,
9,
3,
8,
5,
6,
7,
6,
8,
8,
9,
12,
13,
14,
16,
15,
15,
14,
13,
11,
10,
9,
8,
8,
8,
8,
8,
9,
10,
10,
10,
12,
9,
9,
8,
8,
7,
6,
6,
4,
2,
2,
2,
2,
3,
4,
8,
13,
8,
16,
14,
17,
17,
17,
16,
20,
18,
20,
22,
21,
14,
16,
12,
10,
10,
5,
5,
2,
0,
0,
-1,
-1,
-2,
-2,
-2,
-3,
-2,
-1,
0,
-1,
-1,
-2,
-2,
-2,
0,
1,
4,
9,
14,
18,
22,
24,
28,
26,
28,
27,
27,
28,
29,
29,
29,
29,
28,
25,
22,
20,
16,
13,
9,
6,
2,
0,
-3,
-5,
-4,
-6,
-2,
-6,
-5,
-4,
-2,
-2,
1,
2,
5,
8,
10,
14,
16,
21,
26,
18,
20,
14,
13,
10,
6,
5,
3,
3,
4,
6,
8,
10,
13,
16,
17,
18,
21,
22,
22,
22,
22,
20,
19,
17,
16,
13,
10,
6,
5,
1,
-1,
-3,
-6,
-8,
-10,
-11,
-10,
-8,
-4,
-1,
2,
6,
12,
9,
15,
12,
17,
16,
19,
19,
20,
20,
18,
18,
16,
15,
12,
12,
9,
8,
5,
4,
2,
1,
-1,
-1,
-2,
0,
1,
2,
6,
10,
14,
17,
21,
21,
23,
22,
22,
21,
18,
18,
9,
12,
6,
6,
5,
2,
4,
5,
6,
9,
11,
13,
12,
12,
12,
11,
10,
9,
10,
2,
12,
6,
10,
6,
9,
9,
9,
9,
9,
8,
8,
8,
5,
4,
2,
2,
3,
5,
8,
12,
16,
20,
24,
26,
26,
26,
26,
26,
24,
24,
21,
17,
13,
9,
5,
0,
-4,
-8,
-10,
-12,
-11,
-12,
-10,
-9,
-8,
-6,
-4,
-2,
1,
4,
7,
9,
13,
17,
20,
22,
25,
20,
28,
20,
22,
16,
17,
8,
11,
6,
7,
6,
6,
7,
10,
5,
5,
1,
0,
-1,
2,
4,
9,
12,
15,
19,
21,
23,
23,
24,
24,
25,
25,
25,
24,
24,
23,
21,
18,
13,
8,
4,
-1,
-3,
-6,
-8,
-10,
-11,
-12,
-12,
-11,
-9,
-6,
-3,
2,
6,
11,
16,
20,
24,
28,
22,
26,
26,
24,
25,
22,
24,
22,
22,
23,
24,
26,
25,
24,
21,
17,
14,
10,
8,
2,
0,
-3,
-4,
-8,
-8,
-11,
-12,
-14,
-8,
-18,
-10,
-12,
-8,
-4,
0,
3,
11,
10,
16,
15,
17,
17,
18,
17,
18,
18,
19,
20,
21,
20,
18,
18,
17,
15,
15,
14,
17,
11,
8,
6,
5,
1,
1,
-3,
-2,
-3,
-3,
0,
1,
6,
10,
13,
16,
16,
17,
16,
16,
13,
12,
9,
7,
6,
6,
4,
5,
4,
2,
2,
2,
1,
2,
3,
6,
9,
13,
17,
20,
23,
23,
23,
23,
21,
20,
17,
14,
11,
10,
8,
8,
8,
9,
14,
7,
16,
15,
12,
15,
14,
16,
18,
18,
20,
20,
21,
21,
21,
19,
18,
15,
10,
6,
4,
0,
-3,
-7,
-10,
-12,
-15,
-16,
-16,
-15,
-15,
-12,
-11,
-8,
-6,
-2,
2,
5,
9,
13,
17,
21,
22,
24,
24,
22,
20,
19,
16,
15,
15,
16,
16,
17,
17,
17,
18,
16,
16,
14,
12,
12,
2,
10,
5,
8,
5,
6,
7,
9,
8,
8,
8,
9,
12,
13,
16,
17,
17,
16,
16,
13,
10,
13,
1,
5,
-2,
-2,
-5,
-6,
-11,
-7,
-13,
-10,
-10,
-6,
-2,
4,
10,
14,
20,
